waveforms/110924/shot001_ALL.csv

Model,MSO64
Channel,CH1,,Channel,CH2,,Channel,CH3
Waveform Type,ANALOG,,Waveform Type,ANALOG,,Waveform Type,ANALOG
Horizontal Units,s,,Horizontal Units,s,,Horizontal Units,s
Sample Interval,4.00000000e-11,,Sample Interval,4.00000000e-11,,Sample Interval,4.00000000e-11
Record Length,5000,,Record Length,5000,,Record Length,5000
Zero Index,449.48828125,,Zero Index,449.48828125,,Zero Index,449.48828125
Vertical Units,V,,Vertical Units,V,,Vertical Units,V
,,,,,,,
ANALOG_Thumbnail,,,ANALOG_Thumbnail,,,ANALOG_Thumbnail,

TIME,CH1,CH2,CH3
-1.79795312e-08,3.04687500e-04,2.01468750e-02,7.10937500e-05
-1.79395312e-08,3.87500000e-04,2.02256250e-02,8.20312500e-05
-1.78995312e-08,4.15625000e-04,2.03025000e-02,1.40625000e-04
-1.78595312e-08,3.75000000e-04,2.03462500e-02,1.69531250e-04
-1.78195313e-08,3.00000000e-04,2.03506250e-02,1.09375000e-04
-1.77795312e-08,2.29687500e-04,2.03268750e-02,-2.26562500e-05
-1.77395312e-08,1.67187500e-04,2.02906250e-02,-1.36718750e-04
-1.76995312e-08,8.75000000e-05,2.02575000e-02,-1.45312500e-04
-1.76595312e-08,-9.37500000e-06,2.02406250e-02,-3.75000000e-05
-1.76195312e-08,-7.50000000e-05,2.02500000e-02,1.03906250e-04
-1.75795312e-08,-2.96875000e-05,2.02800000e-02,1.67968750e-04
-1.75395313e-08,1.53125000e-04,2.03087500e-02,1.06250000e-04
-1.74995312e-08,4.09375000e-04,2.03081250e-02,-2.73437500e-05
-1.74595312e-08,5.96875000e-04,2.02693750e-02,-1.25000000e-04
-1.74195313e-08,6.04687500e-04,2.02150000e-02,-1.09375000e-04
-1.73795312e-08,4.40625000e-04,2.01937500e-02,7.81250000e-06
-1.73395312e-08,2.37500000e-04,2.02412500e-02,1.42187500e-04
-1.72995312e-08,1.68750000e-04,2.03512500e-02,2.07031250e-04
-1.72595312e-08,3.12500000e-04,2.04662500e-02,1.76562500e-04
-1.72195312e-08,5.92187500e-04,2.05125000e-02,8.90625000e-05
-1.71795312e-08,8.20312500e-04,2.04500000e-02,0.00000000e+00
-1.71395313e-08,8.39062500e-04,2.02993750e-02,-6.87500000e-05
-1.70995312e-08,6.28125000e-04,2.01343750e-02,-1.35156250e-04
-1.70595312e-08,3.31250000e-04,2.00356250e-02,-2.18750000e-04
-1.70195312e-08,1.45312500e-04,2.00450000e-02,-3.00781250e-04
-1.69795312e-08,1.82812500e-04,2.01462500e-02,-3.23437500e-04
-1.69395312e-08,3.90625000e-04,2.02812500e-02,-2.39843750e-04
-1.68995312e-08,5.92187500e-04,2.03812500e-02,-6.48437500e-05
-1.68595313e-08,6.29687500e-04,2.04012500e-02,1.18750000e-04
-1.68195312e-08,4.73437500e-04,2.03362500e-02,2.10937500e-04
-1.67795312e-08,2.51562500e-04,2.02175000e-02,1.74218750e-04
-1.67395312e-08,1.43750000e-04,2.00981250e-02,6.01562500e-05
-1.66995312e-08,2.42187500e-04,2.00268750e-02,-2.73437500e-05
-1.66595312e-08,4.84375000e-04,2.00312500e-02,-1.32812500e-05
-1.66195312e-08,6.92187500e-04,2.00956250e-02,9.14062500e-05
-1.65795313e-08,7.12500000e-04,2.01725000e-02,2.03125000e-04
-1.65395312e-08,5.29687500e-04,2.02050000e-02,2.35156250e-04
-1.64995312e-08,2.67187500e-04,2.01656250e-02,1.66406250e-04
-1.64595313e-08,1.00000000e-04,2.00725000e-02,5.39062500e-05
-1.64195312e-08,1.28125000e-04,1.99843750e-02,-1.87500000e-05
-1.63795312e-08,3.10937500e-04,1.99587500e-02,-1.56250000e-05
-1.63395312e-08,5.21875000e-04,2.00168750e-02,2.89062500e-05
-1.62995312e-08,6.45312500e-04,2.01293750e-02,4.60937500e-05
-1.62595312e-08,6.54687500e-04,2.02387500e-02,-3.90625000e-06
-1.62195312e-08,6.04687500e-04,2.02943750e-02,-9.21875000e-05
-1.61795313e-08,5.71875000e-04,2.02812500e-02,-1.49218750e-04
-1.61395312e-08,5.89062500e-04,2.02175000e-02,-1.21093750e-04
-1.60995312e-08,6.29687500e-04,2.01375000e-02,-1.95312500e-05
-1.60595312e-08,6.51562500e-04,2.00718750e-02,8.67187500e-05
-1.60195312e-08,6.29687500e-04,2.00412500e-02,1.22656250e-04
-1.59795312e-08,5.73437500e-04,2.00568750e-02,6.64062500e-05
-1.59395312e-08,4.90625000e-04,2.01150000e-02,-3.82812500e-05
-1.58995313e-08,3.78125000e-04,2.01950000e-02,-1.10937500e-04
-1.58595312e-08,2.32812500e-04,2.02593750e-02,-9.37500000e-05
-1.58195312e-08,8.90625000e-05,2.02731250e-02,1.01562500e-05
-1.57795312e-08,2.81250000e-05,2.02312500e-02,1.42187500e-04
-1.57395312e-08,1.18750000e-04,2.01681250e-02,2.27343750e-04
-1.56995312e-08,3.51562500e-04,2.01418750e-02,2.24218750e-04
-1.56595312e-08,6.01562500e-04,2.01900000e-02,1.42187500e-04
-1.56195313e-08,6.93750000e-04,2.02937500e-02,3.28125000e-05
-1.55795312e-08,5.23437500e-04,2.03837500e-02,-4.92187500e-05
-1.55395312e-08,1.54687500e-04,2.03862500e-02,-7.34375000e-05
-1.54995313e-08,-2.00000000e-04,2.02806250e-02,-4.29687500e-05
-1.54595312e-08,-3.21875000e-04,2.01193750e-02,1.87500000e-05
-1.54195312e-08,-1.39062500e-04,1.99950000e-02,8.82812500e-05
-1.53795312e-08,2.17187500e-04,1.99750000e-02,1.47656250e-04
-1.53395313e-08,5.04687500e-04,2.00587500e-02,1.86718750e-04
-1.52995312e-08,5.42187500e-04,2.01812500e-02,1.94531250e-04
-1.52595312e-08,3.35937500e-04,2.02656250e-02,1.59375000e-04
-1.52195313e-08,5.78125000e-05,2.02775000e-02,8.12500000e-05
-1.51795312e-08,-8.59375000e-05,2.02425000e-02,-2.34375000e-05
-1.51395312e-08,-3.12500000e-06,2.02118750e-02,-1.21875000e-04
-1.50995312e-08,2.37500000e-04,2.02187500e-02,-1.83593750e-04
-1.50595312e-08,4.76562500e-04,2.02506250e-02,-1.92187500e-04
-1.50195312e-08,5.98437500e-04,2.02656250e-02,-1.56250000e-04
-1.49795312e-08,5.89062500e-04,2.02306250e-02,-1.02343750e-04
-1.49395313e-08,5.26562500e-04,2.01525000e-02,-5.70312500e-05
-1.48995312e-08,4.92187500e-04,2.00718750e-02,-3.43750000e-05
-1.48595312e-08,5.07812500e-04,2.00362500e-02,-2.81250000e-05
-1.48195312e-08,5.43750000e-04,2.00687500e-02,-1.95312500e-05
-1.47795312e-08,5.68750000e-04,2.01518750e-02,1.09375000e-05
-1.47395312e-08,5.79687500e-04,2.02431250e-02,6.79687500e-05
-1.46995312e-08,6.03125000e-04,2.02968750e-02,1.36718750e-04
-1.46595312e-08,6.50000000e-04,2.02875000e-02,1.86718750e-04
-1.46195312e-08,6.84375000e-04,2.02175000e-02,1.86718750e-04
-1.45795312e-08,6.56250000e-04,2.01131250e-02,1.24218750e-04
-1.45395312e-08,5.46875000e-04,2.00137500e-02,1.95312500e-05
-1.44995312e-08,4.01562500e-04,1.99581250e-02,-8.43750000e-05
-1.44595312e-08,2.95312500e-04,1.99675000e-02,-1.44531250e-04
-1.44195312e-08,2.82812500e-04,2.00375000e-02,-1.42187500e-04
-1.43795312e-08,3.42187500e-04,2.01381250e-02,-9.92187500e-05
-1.43395312e-08,4.00000000e-04,2.02293750e-02,-6.09375000e-05
-1.42995312e-08,3.93750000e-04,2.02800000e-02,-6.40625000e-05
-1.42595312e-08,3.31250000e-04,2.02825000e-02,-1.10937500e-04
-1.42195312e-08,2.79687500e-04,2.02543750e-02,-1.62500000e-04
-1.41795312e-08,3.06250000e-04,2.02243750e-02,-1.65625000e-04
-1.41395312e-08,4.10937500e-04,2.02150000e-02,-8.59375000e-05
-1.40995312e-08,5.21875000e-04,2.02312500e-02,6.09375000e-05
-1.40595312e-08,5.45312500e-04,2.02600000e-02,2.17187500e-04
-1.40195312e-08,4.45312500e-04,2.02800000e-02,3.13281250e-04
-1.39795312e-08,2.70312500e-04,2.02743750e-02,3.06250000e-04
-1.39395312e-08,1.17187500e-04,2.02375000e-02,2.03125000e-04
-1.38995312e-08,6.40625000e-05,2.01787500e-02,5.46875000e-05
-1.38595312e-08,1.15625000e-04,2.01218750e-02,-6.95312500e-05
-1.38195312e-08,2.17187500e-04,2.00931250e-02,-1.19531250e-04
-1.37795312e-08,3.06250000e-04,2.01081250e-02,-8.35937500e-05
-1.37395312e-08,3.62500000e-04,2.01631250e-02,6.25000000e-06
-1.36995312e-08,4.14062500e-04,2.02281250e-02,9.60937500e-05
-1.36595312e-08,4.98437500e-04,2.02625000e-02,1.37500000e-04
-1.36195312e-08,6.15625000e-04,2.02381250e-02,1.21093750e-04
-1.35795312e-08,7.17187500e-04,2.01618750e-02,8.04687500e-05
-1.35395312e-08,7.40625000e-04,2.00806250e-02,6.79687500e-05
-1.34995312e-08,6.62500000e-04,2.00525000e-02,1.21093750e-04
-1.34595312e-08,5.18750000e-04,2.01106250e-02,2.22656250e-04
-1.34195312e-08,3.81250000e-04,2.02350000e-02,3.09375000e-04
-1.33795312e-08,3.09375000e-04,2.03600000e-02,3.09375000e-04
-1.33395312e-08,2.96875000e-04,2.04143750e-02,1.97656250e-04
-1.32995312e-08,2.95312500e-04,2.03700000e-02,1.71875000e-05
-1.32595312e-08,2.57812500e-04,2.02637500e-02,-1.46093750e-04
-1.32195312e-08,1.82812500e-04,2.01743750e-02,-2.20312500e-04
-1.31795312e-08,1.28125000e-04,2.01656250e-02,-1.90625000e-04
-1.31395312e-08,1.53125000e-04,2.02418750e-02,-1.03125000e-04
-1.30995312e-08,2.62500000e-04,2.03468750e-02,-2.10937500e-05
-1.30595312e-08,3.90625000e-04,2.04081250e-02,2.18750000e-05
-1.30195312e-08,4.43750000e-04,2.03893750e-02,3.90625000e-05
-1.29795312e-08,3.81250000e-04,2.03156250e-02,6.25000000e-05
-1.29395312e-08,2.45312500e-04,2.02456250e-02,1.11718750e-04
-1.28995313e-08,1.45312500e-04,2.02212500e-02,1.73437500e-04
-1.28595312e-08,1.64062500e-04,2.02368750e-02,2.19531250e-04
-1.28195312e-08,2.98437500e-04,2.02487500e-02,2.24218750e-04
-1.27795312e-08,4.54687500e-04,2.02193750e-02,1.82031250e-04
-1.27395312e-08,5.23437500e-04,2.01556250e-02,1.04687500e-04
-1.26995312e-08,4.51562500e-04,2.01056250e-02,7.81250000e-06
-1.26595312e-08,2.84375000e-04,2.01175000e-02,-8.59375000e-05
-1.26195312e-08,1.26562500e-04,2.01981250e-02,-1.46093750e-04
-1.25795312e-08,6.71875000e-05,2.03056250e-02,-1.42968750e-04
-1.25395312e-08,1.25000000e-04,2.03856250e-02,-6.64062500e-05
-1.24995312e-08,2.53125000e-04,2.04100000e-02,5.07812500e-05
-1.24595312e-08,3.92187500e-04,2.03981250e-02,1.41406250e-04
-1.24195313e-08,5.17187500e-04,2.03893750e-02,1.39062500e-04
-1.23795312e-08,6.56250000e-04,2.04062500e-02,3.51562500e-05
-1.23395312e-08,8.37500000e-04,2.04331250e-02,-1.09375000e-04
-1.22995312e-08,1.03906250e-03,2.04368750e-02,-1.98437500e-04
-1.22595312e-08,1.18125000e-03,2.04043750e-02,-1.69531250e-04
-1.22195312e-08,1.17187500e-03,2.03587500e-02,-4.53125000e-05
-1.21795312e-08,9.75000000e-04,2.03406250e-02,8.28125000e-05
-1.21395312e-08,6.62500000e-04,2.03662500e-02,1.21875000e-04
-1.20995312e-08,3.76562500e-04,2.04006250e-02,5.31250000e-05
-1.20595312e-08,2.37500000e-04,2.03831250e-02,-5.70312500e-05
-1.20195312e-08,2.65625000e-04,2.02743750e-02,-1.12500000e-04
-1.19795312e-08,3.70312500e-04,2.01006250e-02,-6.56250000e-05
-1.19395313e-08,4.28125000e-04,1.99400000e-02,4.06250000e-05
-1.18995312e-08,3.85937500e-04,1.98737500e-02,1.12500000e-04
-1.18595312e-08,3.04687500e-04,1.99250000e-02,7.96875000e-05
-1.18195312e-08,3.06250000e-04,2.00443750e-02,-4.60937500e-05
-1.17795312e-08,4.60937500e-04,2.01525000e-02,-1.81250000e-04
-1.17395312e-08,7.14062500e-04,2.01975000e-02,-2.42187500e-04
-1.16995312e-08,9.17187500e-04,2.01918750e-02,-2.03906250e-04
-1.16595312e-08,9.46875000e-04,2.01900000e-02,-1.14843750e-04
-1.16195312e-08,8.09375000e-04,2.02387500e-02,-4.60937500e-05
-1.15795312e-08,6.43750000e-04,2.03312500e-02,-3.20312500e-05
-1.15395312e-08,6.10937500e-04,2.04137500e-02,-4.76562500e-05
-1.14995312e-08,7.54687500e-04,2.04237500e-02,-3.59375000e-05
-1.14595313e-08,9.48437500e-04,2.03393750e-02,3.59375000e-05
-1.14195312e-08,9.75000000e-04,2.01931250e-02,1.48437500e-04
-1.13795312e-08,7.07812500e-04,2.00537500e-02,2.42187500e-04
-1.13395312e-08,2.28125000e-04,1.99850000e-02,2.63281250e-04
-1.12995312e-08,-2.10937500e-04,2.00131250e-02,1.99218750e-04
-1.12595312e-08,-3.48437500e-04,2.01212500e-02,8.35937500e-05
-1.12195312e-08,-1.09375000e-04,2.02643750e-02,-2.89062500e-05
-1.11795312e-08,3.40625000e-04,2.03912500e-02,-9.60937500e-05
-1.11395312e-08,7.07812500e-04,2.04625000e-02,-1.07031250e-04
-1.10995312e-08,7.73437500e-04,2.04631250e-02,-7.81250000e-05
-1.10595312e-08,5.40625000e-04,2.04050000e-02,-3.35937500e-05
-1.10195312e-08,2.12500000e-04,2.03193750e-02,9.37500000e-06
-1.09795313e-08,3.75000000e-05,2.02456250e-02,5.07812500e-05
-1.09395312e-08,1.23437500e-04,2.02112500e-02,1.04687500e-04
-1.08995312e-08,3.82812500e-04,2.02193750e-02,1.76562500e-04
-1.08595312e-08,6.10937500e-04,2.02500000e-02,2.53906250e-04
-1.08195312e-08,6.43750000e-04,2.02737500e-02,3.01562500e-04
-1.07795312e-08,4.70312500e-04,2.02668750e-02,2.76562500e-04
-1.07395312e-08,2.12500000e-04,2.02275000e-02,1.58593750e-04
-1.06995313e-08,3.28125000e-05,2.01743750e-02,-2.65625000e-05
-1.06595312e-08,2.03125000e-05,2.01350000e-02,-2.07812500e-04
-1.06195312e-08,1.53125000e-04,2.01343750e-02,-3.01562500e-04
-1.05795312e-08,3.32812500e-04,2.01843750e-02,-2.64062500e-04
-1.05395312e-08,4.59375000e-04,2.02756250e-02,-1.23437500e-04
-1.04995313e-08,4.82812500e-04,2.03812500e-02,3.28125000e-05
-1.04595312e-08,4.12500000e-04,2.04625000e-02,1.10156250e-04
-1.04195312e-08,3.00000000e-04,2.04862500e-02,7.57812500e-05
-1.03795312e-08,2.12500000e-04,2.04443750e-02,-2.18750000e-05
-1.03395312e-08,2.03125000e-04,2.03612500e-02,-7.96875000e-05
-1.02995312e-08,2.89062500e-04,2.02818750e-02,-1.79687500e-05
-1.02595312e-08,4.45312500e-04,2.02456250e-02,1.61718750e-04
-1.02195313e-08,6.06250000e-04,2.02600000e-02,3.74218750e-04
-1.01795312e-08,7.04687500e-04,2.02950000e-02,5.06250000e-04
-1.01395312e-08,7.03125000e-04,2.03087500e-02,4.91406250e-04
-1.00995312e-08,6.26562500e-04,2.02793750e-02,3.50000000e-04
-1.00595312e-08,5.43750000e-04,2.02237500e-02,1.61718750e-04
-1.00195313e-08,5.26562500e-04,2.01793750e-02,5.46875000e-06
-9.97953125e-09,5.95312500e-04,2.01781250e-02,-8.59375000e-05
-9.93953125e-09,7.14062500e-04,2.02181250e-02,-1.26562500e-04
-9.89953125e-09,8.14062500e-04,2.02700000e-02,-1.36718750e-04
-9.85953125e-09,8.48437500e-04,2.02981250e-02,-1.13281250e-04
-9.81953125e-09,8.18750000e-04,2.02862500e-02,-3.28125000e-05
-9.77953125e-09,7.56250000e-04,2.02406250e-02,1.09375000e-04
-9.73953125e-09,6.96875000e-04,2.01818750e-02,2.71093750e-04
-9.69953125e-09,6.43750000e-04,2.01306250e-02,3.78125000e-04
-9.65953125e-09,5.81250000e-04,2.01075000e-02,3.73437500e-04
-9.61953125e-09,5.01562500e-04,2.01312500e-02,2.67968750e-04
-9.57953125e-09,4.17187500e-04,2.02087500e-02,1.35937500e-04
-9.53953125e-09,3.50000000e-04,2.03168750e-02,5.85937500e-05
-9.49953125e-09,3.09375000e-04,2.04006250e-02,6.56250000e-05
-9.45953125e-09,2.81250000e-04,2.03993750e-02,1.10937500e-04
-9.41953125e-09,2.43750000e-04,2.02912500e-02,1.18750000e-04
-9.37953125e-09,2.01562500e-04,2.01256250e-02,4.53125000e-05
-9.33953125e-09,1.90625000e-04,2.00012500e-02,-7.96875000e-05
-9.29953125e-09,2.43750000e-04,1.99987500e-02,-1.78125000e-04
-9.25953125e-09,3.57812500e-04,2.01218750e-02,-1.87500000e-04
-9.21953125e-09,4.78125000e-04,2.02856250e-02,-1.10937500e-04
-9.17953125e-09,5.31250000e-04,2.03762500e-02,-1.25000000e-05
-9.13953125e-09,4.84375000e-04,2.03350000e-02,4.37500000e-05
-9.09953125e-09,3.75000000e-04,2.01987500e-02,4.29687500e-05
-9.05953125e-09,2.82812500e-04,2.00700000e-02,3.28125000e-05
-9.01953125e-09,2.78125000e-04,2.00350000e-02,7.18750000e-05
-8.97953125e-09,3.68750000e-04,2.01018750e-02,1.72656250e-04
-8.93953125e-09,4.96875000e-04,2.01981250e-02,2.82812500e-04
-8.89953125e-09,5.92187500e-04,2.02343750e-02,3.21093750e-04
-8.85953125e-09,6.14062500e-04,2.01750000e-02,2.46093750e-04
-8.81953125e-09,5.64062500e-04,2.00618750e-02,9.29687500e-05
-8.77953125e-09,4.79687500e-04,1.99787500e-02,-4.92187500e-05
-8.73953125e-09,3.95312500e-04,1.99850000e-02,-1.00000000e-04
-8.69953125e-09,3.31250000e-04,2.00768750e-02,-3.98437500e-05
-8.65953125e-09,3.01562500e-04,2.01937500e-02,7.96875000e-05
-8.61953125e-09,3.21875000e-04,2.02725000e-02,1.83593750e-04
-8.57953125e-09,4.01562500e-04,2.02850000e-02,2.21875000e-04
-8.53953125e-09,5.25000000e-04,2.02531250e-02,1.95312500e-04
-8.49953125e-09,6.45312500e-04,2.02156250e-02,1.42968750e-04
-8.45953125e-09,7.09375000e-04,2.02006250e-02,1.04687500e-04
-8.41953125e-09,6.89062500e-04,2.02068750e-02,1.02343750e-04
-8.37953125e-09,6.06250000e-04,2.02181250e-02,1.32812500e-04
-8.33953125e-09,5.25000000e-04,2.02250000e-02,1.84375000e-04
-8.29953125e-09,4.98437500e-04,2.02343750e-02,2.39843750e-04
-8.25953125e-09,5.31250000e-04,2.02525000e-02,2.75000000e-04
-8.21953125e-09,5.76562500e-04,2.02725000e-02,2.64843750e-04
-8.17953125e-09,5.71875000e-04,2.02737500e-02,1.92968750e-04
-8.13953125e-09,4.95312500e-04,2.02381250e-02,6.64062500e-05
-8.09953125e-09,3.81250000e-04,2.01737500e-02,-7.26562500e-05
-8.05953125e-09,2.96875000e-04,2.01187500e-02,-1.69531250e-04
-8.01953125e-09,2.89062500e-04,2.01150000e-02,-1.85156250e-04
-7.97953125e-09,3.46875000e-04,2.01756250e-02,-1.24218750e-04
-7.93953125e-09,4.25000000e-04,2.02706250e-02,-3.20312500e-05
-7.89953125e-09,4.79687500e-04,2.03462500e-02,3.75000000e-05
-7.85953125e-09,5.06250000e-04,2.03643750e-02,5.39062500e-05
-7.81953125e-09,5.26562500e-04,2.03325000e-02,3.28125000e-05
-7.77953125e-09,5.56250000e-04,2.02962500e-02,1.64062500e-05
-7.73953125e-09,5.78125000e-04,2.03025000e-02,4.06250000e-05
-7.69953125e-09,5.57812500e-04,2.03600000e-02,1.07031250e-04
-7.65953125e-09,4.75000000e-04,2.04318750e-02,1.75781250e-04
-7.61953125e-09,3.53125000e-04,2.04612500e-02,1.96875000e-04
-7.57953125e-09,2.43750000e-04,2.04156250e-02,1.41406250e-04
-7.53953125e-09,1.78125000e-04,2.03137500e-02,2.73437500e-05
-7.49953125e-09,1.54687500e-04,2.02131250e-02,-8.59375000e-05
-7.45953125e-09,1.46875000e-04,2.01718750e-02,-1.34375000e-04
-7.41953125e-09,1.48437500e-04,2.02106250e-02,-8.43750000e-05
-7.37953125e-09,1.87500000e-04,2.03006250e-02,3.98437500e-05
-7.33953125e-09,3.06250000e-04,2.03850000e-02,1.66406250e-04
-7.29953125e-09,5.06250000e-04,2.04168750e-02,2.19531250e-04
-7.25953125e-09,7.17187500e-04,2.03893750e-02,1.64843750e-04
-7.21953125e-09,8.39062500e-04,2.03325000e-02,4.21875000e-05
-7.17953125e-09,8.10937500e-04,2.02925000e-02,-6.40625000e-05
-7.13953125e-09,6.73437500e-04,2.02962500e-02,-7.57812500e-05
-7.09953125e-09,5.42187500e-04,2.03381250e-02,1.64062500e-05
-7.05953125e-09,5.23437500e-04,2.03800000e-02,1.46093750e-04
-7.01953125e-09,6.35937500e-04,2.03806250e-02,2.14843750e-04
-6.97953125e-09,7.87500000e-04,2.03162500e-02,1.65625000e-04
-6.93953125e-09,8.48437500e-04,2.01981250e-02,2.10937500e-05
-6.89953125e-09,7.60937500e-04,2.00687500e-02,-1.33593750e-04
-6.85953125e-09,5.78125000e-04,1.99831250e-02,-2.17187500e-04
-6.81953125e-09,4.23437500e-04,1.99806250e-02,-2.14062500e-04
-6.77953125e-09,3.96875000e-04,2.00687500e-02,-1.70312500e-04
-6.73953125e-09,4.93750000e-04,2.02137500e-02,-1.46875000e-04
-6.69953125e-09,6.14062500e-04,2.03537500e-02,-1.60156250e-04
-6.65953125e-09,6.35937500e-04,2.04287500e-02,-1.67968750e-04
-6.61953125e-09,5.14062500e-04,2.04100000e-02,-1.17187500e-04
-6.57953125e-09,3.09375000e-04,2.03131250e-02,4.68750000e-06
-6.53953125e-09,1.43750000e-04,2.01943750e-02,1.47656250e-04
-6.49953125e-09,1.14062500e-04,2.01187500e-02,2.33593750e-04
-6.45953125e-09,2.35937500e-04,2.01268750e-02,2.18750000e-04
-6.41953125e-09,4.40625000e-04,2.02112500e-02,1.22656250e-04
-6.37953125e-09,6.25000000e-04,2.03175000e-02,1.01562500e-05
-6.33953125e-09,7.14062500e-04,2.03737500e-02,-5.78125000e-05
-6.29953125e-09,6.96875000e-04,2.03368750e-02,-6.56250000e-05
-6.25953125e-09,6.09375000e-04,2.02193750e-02,-3.59375000e-05
-6.21953125e-09,5.07812500e-04,2.00850000e-02,-6.25000000e-06
-6.17953125e-09,4.25000000e-04,2.00137500e-02,6.25000000e-06
-6.13953125e-09,3.64062500e-04,2.00481250e-02,7.81250000e-06
-6.09953125e-09,3.01562500e-04,2.01637500e-02,1.01562500e-05
-6.05953125e-09,2.18750000e-04,2.02831250e-02,1.64062500e-05
-6.01953125e-09,1.26562500e-04,2.03287500e-02,2.18750000e-05
-5.97953125e-09,6.87500000e-05,2.02743750e-02,1.95312500e-05
-5.93953125e-09,9.53125000e-05,2.01625000e-02,1.64062500e-05
-5.89953125e-09,2.18750000e-04,2.00743750e-02,2.57812500e-05
-5.85953125e-09,3.96875000e-04,2.00681250e-02,6.25000000e-05
-5.81953125e-09,5.48437500e-04,2.01431250e-02,1.28125000e-04
-5.77953125e-09,5.98437500e-04,2.02412500e-02,2.13281250e-04
-5.73953125e-09,5.28125000e-04,2.02950000e-02,2.98437500e-04
-5.69953125e-09,3.82812500e-04,2.02743750e-02,3.57031250e-04
-5.65953125e-09,2.34375000e-04,2.01993750e-02,3.61718750e-04
-5.61953125e-09,1.32812500e-04,2.01200000e-02,2.96093750e-04
-5.57953125e-09,8.90625000e-05,2.00743750e-02,1.68750000e-04
-5.53953125e-09,9.21875000e-05,2.00731250e-02,1.64062500e-05
-5.49953125e-09,1.35937500e-04,2.01025000e-02,-1.03906250e-04
-5.45953125e-09,2.32812500e-04,2.01493750e-02,-1.45312500e-04
-5.41953125e-09,3.79687500e-04,2.02056250e-02,-1.00781250e-04
-5.37953125e-09,5.28125000e-04,2.02693750e-02,-7.03125000e-06
