waveforms/110924/Tek027.csv

Model,MSO64
Waveform Type,ANALOG
Horizontal Units,s
Sample Interval,4.00000000e-11
Record Length,50000
Zero Index,2999.71093750
Vertical Units,V
ANALOG_Thumbnail,

TIME,CH1
-1.19988438e-07,-1.21875000e-04
-1.19948437e-07,-4.12500000e-05
-1.19908437e-07,1.80000000e-04
-1.19868437e-07,4.20000000e-04
-1.19828438e-07,5.30625000e-04
-1.19788437e-07,4.33125000e-04
-1.19748437e-07,1.89375000e-04
-1.19708438e-07,-4.87500000e-05
-1.19668437e-07,-1.40625000e-04
-1.19628437e-07,-6.37500000e-05
-1.19588437e-07,9.37500000e-05
-1.19548438e-07,2.02500000e-04
-1.19508437e-07,1.93125000e-04
-1.19468437e-07,9.93750000e-05
-1.19428438e-07,1.87500000e-06
-1.19388437e-07,-3.18750000e-05
-1.19348437e-07,-9.37500000e-06
-1.19308437e-07,1.68750000e-05
-1.19268438e-07,5.62500000e-06
-1.19228437e-07,-3.00000000e-05
-1.19188437e-07,-4.31250000e-05
-1.19148437e-07,-3.75000000e-06
-1.19108437e-07,5.81250000e-05
-1.19068437e-07,9.18750000e-05
-1.19028437e-07,6.93750000e-05
-1.18988437e-07,4.12500000e-05
-1.18948437e-07,1.01250000e-04
-1.18908437e-07,3.01875000e-04
-1.18868437e-07,5.90625000e-04
-1.18828437e-07,8.15625000e-04
-1.18788437e-07,8.32500000e-04
-1.18748437e-07,6.03750000e-04
-1.18708437e-07,2.51250000e-04
-1.18668437e-07,-1.87500000e-05
-1.18628437e-07,-4.50000000e-05
-1.18588437e-07,1.76250000e-04
-1.18548437e-07,4.91250000e-04
-1.18508437e-07,6.93750000e-04
-1.18468437e-07,6.56250000e-04
-1.18428437e-07,4.20000000e-04
-1.18388437e-07,1.59375000e-04
-1.18348437e-07,5.81250000e-05
-1.18308437e-07,1.87500000e-04
-1.18268437e-07,4.51875000e-04
-1.18228437e-07,6.65625000e-04
-1.18188437e-07,6.86250000e-04
-1.18148437e-07,5.10000000e-04
-1.18108437e-07,2.75625000e-04
-1.18068437e-07,1.42500000e-04
-1.18028437e-07,1.70625000e-04
-1.17988437e-07,2.71875000e-04
-1.17948437e-07,2.94375000e-04
-1.17908437e-07,1.51875000e-04
-1.17868437e-07,-9.00000000e-05
-1.17828437e-07,-2.66250000e-04
-1.17788437e-07,-2.53125000e-04
-1.17748437e-07,-6.18750000e-05
-1.17708437e-07,1.63125000e-04
-1.17668437e-07,2.73750000e-04
-1.17628437e-07,2.38125000e-04
-1.17588437e-07,1.63125000e-04
-1.17548437e-07,1.83750000e-04
-1.17508437e-07,3.41250000e-04
-1.17468437e-07,5.34375000e-04
-1.17428437e-07,6.00000000e-04
-1.17388437e-07,4.44375000e-04
-1.17348437e-07,1.27500000e-04
-1.17308437e-07,-1.70625000e-04
-1.17268437e-07,-2.83125000e-04
-1.17228437e-07,-1.59375000e-04
-1.17188437e-07,1.05000000e-04
-1.17148437e-07,3.46875000e-04
-1.17108437e-07,4.44375000e-04
-1.17068437e-07,3.84375000e-04
-1.17028437e-07,2.47500000e-04
-1.16988437e-07,1.27500000e-04
-1.16948437e-07,6.93750000e-05
-1.16908437e-07,5.25000000e-05
-1.16868437e-07,2.06250000e-05
-1.16828437e-07,-5.06250000e-05
-1.16788437e-07,-1.35000000e-04
-1.16748437e-07,-1.72500000e-04
-1.16708437e-07,-1.18125000e-04
-1.16668437e-07,3.00000000e-05
-1.16628437e-07,2.26875000e-04
-1.16588437e-07,4.16250000e-04
-1.16548437e-07,5.53125000e-04
-1.16508437e-07,6.20625000e-04
-1.16468437e-07,6.13125000e-04
-1.16428437e-07,5.40000000e-04
-1.16388437e-07,4.08750000e-04
-1.16348437e-07,2.55000000e-04
-1.16308437e-07,1.31250000e-04
-1.16268437e-07,9.00000000e-05
-1.16228437e-07,1.50000000e-04
-1.16188437e-07,2.75625000e-04
-1.16148437e-07,3.86250000e-04
-1.16108437e-07,4.03125000e-04
-1.16068437e-07,2.86875000e-04
-1.16028437e-07,7.68750000e-05
-1.15988437e-07,-1.27500000e-04
-1.15948437e-07,-2.08125000e-04
-1.15908437e-07,-1.01250000e-04
-1.15868437e-07,1.63125000e-04
-1.15828437e-07,4.55625000e-04
-1.15788437e-07,6.15000000e-04
-1.15748437e-07,5.49375000e-04
-1.15708437e-07,3.01875000e-04
-1.15668437e-07,3.75000000e-05
-1.15628437e-07,-6.00000000e-05
-1.15588437e-07,8.62500000e-05
-1.15548437e-07,3.76875000e-04
-1.15508437e-07,6.09375000e-04
-1.15468437e-07,6.05625000e-04
-1.15428437e-07,3.61875000e-04
-1.15388437e-07,4.31250000e-05
-1.15348437e-07,-1.33125000e-04
-1.15308437e-07,-5.43750000e-05
-1.15268437e-07,2.06250000e-04
-1.15228437e-07,4.46250000e-04
-1.15188437e-07,4.98750000e-04
-1.15148437e-07,3.43125000e-04
-1.15108437e-07,1.16250000e-04
-1.15068437e-07,-5.62500000e-06
-1.15028437e-07,7.50000000e-05
-1.14988437e-07,3.11250000e-04
-1.14948437e-07,5.68125000e-04
-1.14908437e-07,7.10625000e-04
-1.14868437e-07,6.86250000e-04
-1.14828437e-07,5.19375000e-04
-1.14788437e-07,2.85000000e-04
-1.14748437e-07,6.00000000e-05
-1.14708437e-07,-9.00000000e-05
-1.14668437e-07,-1.23750000e-04
-1.14628437e-07,-4.12500000e-05
-1.14588437e-07,1.03125000e-04
-1.14548437e-07,2.30625000e-04
-1.14508437e-07,2.77500000e-04
-1.14468437e-07,2.43750000e-04
-1.14428437e-07,2.08125000e-04
-1.14388437e-07,2.55000000e-04
-1.14348437e-07,3.99375000e-04
-1.14308437e-07,5.66250000e-04
-1.14268437e-07,6.28125000e-04
-1.14228437e-07,5.23125000e-04
-1.14188437e-07,3.03750000e-04
-1.14148437e-07,1.20000000e-04
-1.14108437e-07,9.93750000e-05
-1.14068437e-07,2.55000000e-04
-1.14028437e-07,4.70625000e-04
-1.13988437e-07,6.01875000e-04
-1.13948437e-07,5.79375000e-04
-1.13908437e-07,4.66875000e-04
-1.13868437e-07,3.93750000e-04
-1.13828437e-07,4.33125000e-04
-1.13788437e-07,5.34375000e-04
-1.13748437e-07,5.66250000e-04
-1.13708437e-07,4.25625000e-04
-1.13668437e-07,1.50000000e-04
-1.13628437e-07,-1.14375000e-04
-1.13588437e-07,-2.04375000e-04
-1.13548437e-07,-8.43750000e-05
-1.13508437e-07,1.27500000e-04
-1.13468437e-07,2.53125000e-04
-1.13428437e-07,1.93125000e-04
-1.13388437e-07,1.50000000e-05
-1.13348437e-07,-1.08750000e-04
-1.13308437e-07,-4.31250000e-05
-1.13268437e-07,1.95000000e-04
-1.13228437e-07,4.38750000e-04
-1.13188437e-07,5.11875000e-04
-1.13148437e-07,3.63750000e-04
-1.13108437e-07,1.16250000e-04
-1.13068437e-07,-2.81250000e-05
-1.13028437e-07,5.43750000e-05
-1.12988437e-07,3.07500000e-04
-1.12948437e-07,5.47500000e-04
-1.12908437e-07,6.00000000e-04
-1.12868437e-07,4.25625000e-04
-1.12828437e-07,1.42500000e-04
-1.12788437e-07,-7.68750000e-05
-1.12748437e-07,-1.31250000e-04
-1.12708437e-07,-4.87500000e-05
-1.12668437e-07,5.25000000e-05
-1.12628437e-07,7.31250000e-05
-1.12588437e-07,6.93889390e-18
-1.12548437e-07,-9.00000000e-05
-1.12508437e-07,-1.01250000e-04
-1.12468437e-07,1.87500000e-06
-1.12428437e-07,1.78125000e-04
-1.12388437e-07,3.45000000e-04
-1.12348437e-07,4.36875000e-04
-1.12308437e-07,4.40625000e-04
-1.12268437e-07,3.97500000e-04
-1.12228437e-07,3.54375000e-04
-1.12188437e-07,3.31875000e-04
-1.12148437e-07,3.13125000e-04
-1.12108437e-07,2.64375000e-04
-1.12068437e-07,1.72500000e-04
-1.12028437e-07,6.37500000e-05
-1.11988437e-07,-5.62500000e-06
-1.11948437e-07,1.31250000e-05
-1.11908437e-07,1.21875000e-04
-1.11868437e-07,2.58750000e-04
-1.11828437e-07,3.33750000e-04
-1.11788437e-07,2.90625000e-04
-1.11748437e-07,1.46250000e-04
-1.11708437e-07,-9.37500000e-06
-1.11668437e-07,-7.87500000e-05
-1.11628437e-07,-2.81250000e-05
-1.11588437e-07,8.25000000e-05
-1.11548437e-07,1.57500000e-04
-1.11508437e-07,1.38750000e-04
-1.11468437e-07,6.56250000e-05
-1.11428437e-07,3.93750000e-05
-1.11388437e-07,1.36875000e-04
-1.11348437e-07,3.35625000e-04
-1.11308437e-07,5.17500000e-04
-1.11268437e-07,5.51250000e-04
-1.11228437e-07,4.03125000e-04
-1.11188437e-07,1.66875000e-04
-1.11148437e-07,6.93889390e-18
-1.11108437e-07,1.87500000e-05
-1.11068437e-07,2.19375000e-04
-1.11028437e-07,4.80000000e-04
-1.10988437e-07,6.54375000e-04
-1.10948437e-07,6.61875000e-04
-1.10908437e-07,5.26875000e-04
-1.10868437e-07,3.43125000e-04
-1.10828437e-07,2.06250000e-04
-1.10788437e-07,1.53750000e-04
-1.10748437e-07,1.65000000e-04
-1.10708437e-07,1.93125000e-04
-1.10668437e-07,2.00625000e-04
-1.10628437e-07,1.87500000e-04
-1.10588437e-07,1.66875000e-04
-1.10548437e-07,1.61250000e-04
-1.10508437e-07,1.81875000e-04
-1.10468437e-07,2.28750000e-04
-1.10428437e-07,2.92500000e-04
-1.10388437e-07,3.52500000e-04
-1.10348437e-07,3.73125000e-04
-1.10308437e-07,3.28125000e-04
-1.10268437e-07,2.23125000e-04
-1.10228437e-07,1.08750000e-04
-1.10188437e-07,5.81250000e-05
-1.10148437e-07,1.14375000e-04
-1.10108437e-07,2.53125000e-04
-1.10068437e-07,3.80625000e-04
-1.10028437e-07,4.08750000e-04
-1.09988437e-07,3.07500000e-04
-1.09948437e-07,1.40625000e-04
-1.09908437e-07,2.06250000e-05
-1.09868437e-07,1.87500000e-05
-1.09828437e-07,1.21875000e-04
-1.09788437e-07,2.43750000e-04
-1.09748437e-07,2.96250000e-04
-1.09708437e-07,2.45625000e-04
-1.09668437e-07,1.21875000e-04
-1.09628437e-07,-1.12500000e-05
-1.09588437e-07,-1.01250000e-04
-1.09548437e-07,-1.27500000e-04
-1.09508437e-07,-7.68750000e-05
-1.09468437e-07,4.87500000e-05
-1.09428437e-07,2.21250000e-04
-1.09388437e-07,3.90000000e-04
-1.09348437e-07,4.83750000e-04
-1.09308437e-07,4.59375000e-04
-1.09268437e-07,3.45000000e-04
-1.09228437e-07,2.25000000e-04
-1.09188437e-07,1.89375000e-04
-1.09148437e-07,2.58750000e-04
-1.09108437e-07,3.75000000e-04
-1.09068437e-07,4.48125000e-04
-1.09028437e-07,4.33125000e-04
-1.08988437e-07,3.60000000e-04
-1.08948437e-07,3.05625000e-04
-1.08908437e-07,3.15000000e-04
-1.08868437e-07,3.75000000e-04
-1.08828437e-07,4.25625000e-04
-1.08788437e-07,4.33125000e-04
-1.08748437e-07,4.21875000e-04
-1.08708437e-07,4.44375000e-04
-1.08668437e-07,5.19375000e-04
-1.08628437e-07,5.94375000e-04
-1.08588437e-07,5.79375000e-04
-1.08548437e-07,4.35000000e-04
-1.08508437e-07,2.23125000e-04
-1.08468437e-07,6.56250000e-05
-1.08428437e-07,5.81250000e-05
-1.08388437e-07,1.83750000e-04
-1.08348437e-07,3.28125000e-04
-1.08308437e-07,3.78750000e-04
-1.08268437e-07,3.13125000e-04
-1.08228437e-07,2.15625000e-04
-1.08188437e-07,1.95000000e-04
-1.08148437e-07,2.75625000e-04
-1.08108437e-07,3.76875000e-04
-1.08068437e-07,3.84375000e-04
-1.08028437e-07,2.53125000e-04
-1.07988437e-07,4.87500000e-05
-1.07948437e-07,-1.05000000e-04
-1.07908437e-07,-1.27500000e-04
-1.07868437e-07,-5.06250000e-05
-1.07828437e-07,3.37500000e-05
-1.07788437e-07,4.50000000e-05
-1.07748437e-07,-7.50000000e-06
-1.07708437e-07,-5.62500000e-05
-1.07668437e-07,-4.31250000e-05
-1.07628437e-07,1.12500000e-05
-1.07588437e-07,4.12500000e-05
-1.07548437e-07,1.87500000e-06
-1.07508437e-07,-6.18750000e-05
-1.07468437e-07,-5.06250000e-05
-1.07428437e-07,1.03125000e-04
-1.07388437e-07,3.60000000e-04
-1.07348437e-07,5.75625000e-04
-1.07308437e-07,6.03750000e-04
-1.07268437e-07,4.14375000e-04
-1.07228437e-07,1.20000000e-04
-1.07188437e-07,-9.56250000e-05
-1.07148437e-07,-1.16250000e-04
-1.07108437e-07,3.00000000e-05
-1.07068437e-07,1.98750000e-04
-1.07028437e-07,2.47500000e-04
-1.06988437e-07,1.40625000e-04
-1.06948437e-07,-2.62500000e-05
-1.06908437e-07,-1.16250000e-04
-1.06868437e-07,-4.31250000e-05
-1.06828437e-07,1.59375000e-04
-1.06788437e-07,3.71250000e-04
-1.06748437e-07,4.78125000e-04
-1.06708437e-07,4.23750000e-04
-1.06668437e-07,2.49375000e-04
-1.06628437e-07,3.56250000e-05
-1.06588438e-07,-1.29375000e-04
-1.06548437e-07,-2.00625000e-04
-1.06508437e-07,-1.68750000e-04
-1.06468437e-07,-5.81250000e-05
-1.06428437e-07,8.25000000e-05
-1.06388437e-07,2.02500000e-04
-1.06348437e-07,2.58750000e-04
-1.06308437e-07,2.30625000e-04
-1.06268437e-07,1.33125000e-04
-1.06228437e-07,1.31250000e-05
-1.06188437e-07,-8.25000000e-05
-1.06148437e-07,-1.14375000e-04
-1.06108437e-07,-6.56250000e-05
-1.06068437e-07,5.25000000e-05
-1.06028437e-07,2.11875000e-04
-1.05988437e-07,3.67500000e-04
-1.05948437e-07,4.65000000e-04
-1.05908437e-07,4.74375000e-04
-1.05868437e-07,3.91875000e-04
-1.05828437e-07,2.66250000e-04
-1.05788437e-07,1.66875000e-04
-1.05748437e-07,1.53750000e-04
-1.05708437e-07,2.41875000e-04
-1.05668437e-07,3.86250000e-04
-1.05628437e-07,5.04375000e-04
-1.05588437e-07,5.26875000e-04
-1.05548437e-07,4.36875000e-04
-1.05508437e-07,2.81250000e-04
-1.05468437e-07,1.33125000e-04
-1.05428437e-07,6.56250000e-05
-1.05388437e-07,1.06875000e-04
-1.05348437e-07,2.40000000e-04
-1.05308437e-07,4.14375000e-04
-1.05268437e-07,5.62500000e-04
-1.05228437e-07,6.28125000e-04
-1.05188437e-07,5.81250000e-04
-1.05148437e-07,4.33125000e-04
-1.05108437e-07,2.40000000e-04
-1.05068437e-07,8.81250000e-05
-1.05028437e-07,5.06250000e-05
-1.04988437e-07,1.42500000e-04
-1.04948437e-07,3.03750000e-04
-1.04908437e-07,4.25625000e-04
-1.04868437e-07,4.12500000e-04
-1.04828437e-07,2.55000000e-04
-1.04788437e-07,2.81250000e-05
-1.04748437e-07,-1.48125000e-04
-1.04708437e-07,-1.80000000e-04
-1.04668437e-07,-6.37500000e-05
-1.04628437e-07,1.23750000e-04
-1.04588437e-07,2.73750000e-04
-1.04548437e-07,3.16875000e-04
-1.04508437e-07,2.51250000e-04
-1.04468437e-07,1.31250000e-04
-1.04428437e-07,3.56250000e-05
-1.04388437e-07,1.87500000e-05
-1.04348437e-07,9.75000000e-05
-1.04308437e-07,2.56875000e-04
-1.04268437e-07,4.46250000e-04
-1.04228437e-07,6.01875000e-04
-1.04188437e-07,6.48750000e-04
-1.04148437e-07,5.47500000e-04
-1.04108437e-07,3.22500000e-04
-1.04068437e-07,6.75000000e-05
-1.04028437e-07,-9.75000000e-05
-1.03988437e-07,-9.37500000e-05
-1.03948437e-07,5.81250000e-05
-1.03908437e-07,2.47500000e-04
-1.03868437e-07,3.60000000e-04
-1.03828437e-07,3.52500000e-04
-1.03788437e-07,2.75625000e-04
-1.03748437e-07,2.25000000e-04
-1.03708437e-07,2.53125000e-04
-1.03668437e-07,3.28125000e-04
-1.03628437e-07,3.67500000e-04
-1.03588437e-07,3.15000000e-04
-1.03548437e-07,2.00625000e-04
-1.03508437e-07,1.12500000e-04
-1.03468437e-07,1.14375000e-04
-1.03428437e-07,1.91250000e-04
-1.03388437e-07,2.60625000e-04
-1.03348437e-07,2.41875000e-04
-1.03308437e-07,1.29375000e-04
-1.03268437e-07,-1.12500000e-05
-1.03228437e-07,-9.93750000e-05
-1.03188437e-07,-9.93750000e-05
-1.03148437e-07,-4.50000000e-05
-1.03108437e-07,1.12500000e-05
-1.03068437e-07,5.81250000e-05
-1.03028437e-07,1.29375000e-04
-1.02988437e-07,2.66250000e-04
-1.02948437e-07,4.40625000e-04
-1.02908437e-07,5.56875000e-04
-1.02868437e-07,5.08125000e-04
-1.02828437e-07,2.75625000e-04
-1.02788437e-07,-3.56250000e-05
-1.02748438e-07,-2.38125000e-04
-1.02708437e-07,-2.04375000e-04
-1.02668437e-07,4.68750000e-05
-1.02628437e-07,3.41250000e-04
-1.02588437e-07,4.66875000e-04
-1.02548437e-07,3.31875000e-04
-1.02508437e-07,2.62500000e-05
-1.02468438e-07,-2.30625000e-04
-1.02428437e-07,-2.53125000e-04
-1.02388437e-07,-1.68750000e-05
-1.02348437e-07,3.26250000e-04
-1.02308437e-07,5.66250000e-04
-1.02268437e-07,5.75625000e-04
-1.02228437e-07,3.84375000e-04
-1.02188438e-07,1.33125000e-04
-1.02148437e-07,-3.75000000e-05
-1.02108437e-07,-8.06250000e-05
-1.02068437e-07,-3.93750000e-05
-1.02028437e-07,1.12500000e-05
-1.01988437e-07,2.62500000e-05
-1.01948437e-07,1.50000000e-05
-1.01908437e-07,-5.62500000e-06
-1.01868437e-07,-2.81250000e-05
-1.01828437e-07,-5.06250000e-05
-1.01788437e-07,-5.81250000e-05
-1.01748437e-07,-5.62500000e-06
-1.01708437e-07,1.40625000e-04
-1.01668437e-07,3.52500000e-04
-1.01628437e-07,5.32500000e-04
-1.01588437e-07,5.68125000e-04
-1.01548437e-07,4.18125000e-04
-1.01508437e-07,1.59375000e-04
-1.01468437e-07,-6.00000000e-05
-1.01428437e-07,-1.25625000e-04
-1.01388437e-07,-4.31250000e-05
-1.01348437e-07,7.12500000e-05
-1.01308437e-07,9.56250000e-05
-1.01268437e-07,6.93889390e-18
-1.01228437e-07,-1.21875000e-04
-1.01188437e-07,-1.46250000e-04
-1.01148437e-07,-2.43750000e-05
-1.01108437e-07,1.57500000e-04
-1.01068437e-07,2.53125000e-04
-1.01028437e-07,1.76250000e-04
-1.00988437e-07,-1.87500000e-05
-1.00948437e-07,-1.72500000e-04
-1.00908437e-07,-1.51875000e-04
-1.00868437e-07,4.50000000e-05
-1.00828437e-07,2.94375000e-04
-1.00788437e-07,4.38750000e-04
-1.00748437e-07,4.14375000e-04
-1.00708437e-07,2.85000000e-04
-1.00668437e-07,1.83750000e-04
-1.00628437e-07,2.04375000e-04
-1.00588437e-07,3.45000000e-04
-1.00548437e-07,5.26875000e-04
-1.00508437e-07,6.65625000e-04
-1.00468437e-07,7.20000000e-04
-1.00428437e-07,6.86250000e-04
-1.00388437e-07,5.73750000e-04
-1.00348437e-07,3.91875000e-04
-1.00308437e-07,1.72500000e-04
-1.00268437e-07,-2.43750000e-05
-1.00228437e-07,-1.21875000e-04
-1.00188437e-07,-9.18750000e-05
-1.00148437e-07,9.37500000e-06
-1.00108437e-07,7.50000000e-05
-1.00068437e-07,2.62500000e-05
-1.00028437e-07,-1.03125000e-04
-9.99884375e-08,-1.76250000e-04
-9.99484375e-08,-7.12500000e-05
-9.99084375e-08,2.08125000e-04
-9.98684375e-08,4.96875000e-04
-9.98284375e-08,5.77500000e-04
-9.97884375e-08,3.52500000e-04
-9.97484375e-08,-6.00000000e-05
-9.97084375e-08,-3.95625000e-04
-9.96684375e-08,-4.23750000e-04
-9.96284375e-08,-1.18125000e-04
-9.95884375e-08,3.16875000e-04
-9.95484375e-08,5.98125000e-04
-9.95084375e-08,5.56875000e-04
-9.94684375e-08,2.53125000e-04
-9.94284375e-08,-8.43750000e-05
-9.93884375e-08,-2.36250000e-04
-9.93484375e-08,-1.44375000e-04
-9.93084375e-08,7.31250000e-05
-9.92684375e-08,2.28750000e-04
-9.92284375e-08,2.19375000e-04
-9.91884375e-08,8.81250000e-05
-9.91484375e-08,-3.18750000e-05
-9.91084375e-08,-2.81250000e-05
-9.90684375e-08,8.62500000e-05
-9.90284375e-08,2.10000000e-04
-9.89884375e-08,2.30625000e-04
-9.89484375e-08,1.27500000e-04
-9.89084375e-08,-1.68750000e-05
-9.88684375e-08,-9.18750000e-05
-9.88284375e-08,-4.12500000e-05
-9.87884375e-08,9.37500000e-05
-9.87484375e-08,2.17500000e-04
-9.87084375e-08,2.66250000e-04
-9.86684375e-08,2.47500000e-04
-9.86284375e-08,2.25000000e-04
-9.85884375e-08,2.51250000e-04
-9.85484375e-08,3.28125000e-04
-9.85084375e-08,4.14375000e-04
-9.84684375e-08,4.72500000e-04
-9.84284375e-08,5.08125000e-04
-9.83884375e-08,5.41875000e-04
-9.83484375e-08,5.70000000e-04
-9.83084375e-08,5.38125000e-04
-9.82684375e-08,3.80625000e-04
-9.82284375e-08,9.00000000e-05
-9.81884375e-08,-2.34375000e-04
-9.81484375e-08,-4.31250000e-04
-9.81084375e-08,-3.76875000e-04
-9.80684375e-08,-8.81250000e-05
-9.80284375e-08,2.79375000e-04
-9.79884375e-08,5.21250000e-04
-9.79484375e-08,5.08125000e-04
-9.79084375e-08,2.73750000e-04
-9.78684375e-08,-2.62500000e-05
-9.78284375e-08,-2.08125000e-04
-9.77884375e-08,-1.78125000e-04
-9.77484375e-08,2.81250000e-05
-9.77084375e-08,2.83125000e-04
-9.76684375e-08,4.46250000e-04
-9.76284375e-08,4.55625000e-04
-9.75884375e-08,3.28125000e-04
-9.75484375e-08,1.51875000e-04
-9.75084375e-08,9.37500000e-06
-9.74684375e-08,-5.06250000e-05
-9.74284375e-08,-3.75000000e-05
-9.73884375e-08,1.87500000e-06
-9.73484375e-08,2.62500000e-05
-9.73084375e-08,1.50000000e-05
-9.72684375e-08,-2.06250000e-05
-9.72284375e-08,-5.43750000e-05
-9.71884375e-08,-6.18750000e-05
-9.71484375e-08,-2.62500000e-05
-9.71084375e-08,5.43750000e-05
-9.70684375e-08,1.72500000e-04
-9.70284375e-08,3.05625000e-04
-9.69884375e-08,4.12500000e-04
-9.69484375e-08,4.33125000e-04
-9.69084375e-08,3.30000000e-04
-9.68684375e-08,1.18125000e-04
-9.68284375e-08,-1.20000000e-04
-9.67884375e-08,-2.70000000e-04
-9.67484375e-08,-2.51250000e-04
-9.67084375e-08,-7.68750000e-05
-9.66684375e-08,1.53750000e-04
-9.66284375e-08,3.31875000e-04
-9.65884375e-08,4.03125000e-04
-9.65484375e-08,3.97500000e-04
-9.65084375e-08,3.67500000e-04
-9.64684375e-08,3.16875000e-04
-9.64284375e-08,1.95000000e-04
-9.63884375e-08,-4.68750000e-05
-9.63484375e-08,-3.54375000e-04
-9.63084375e-08,-5.71875000e-04
-9.62684375e-08,-5.40000000e-04
-9.62284375e-08,-2.45625000e-04
-9.61884375e-08,1.36875000e-04
-9.61484375e-08,3.52500000e-04
-9.61084375e-08,2.58750000e-04
-9.60684375e-08,-5.06250000e-05
-9.60284375e-08,-3.13125000e-04
-9.59884375e-08,-3.09375000e-04
-9.59484375e-08,-4.50000000e-05
-9.59084375e-08,2.68125000e-04
-9.58684375e-08,3.91875000e-04
-9.58284375e-08,2.68125000e-04
-9.57884375e-08,6.75000000e-05
-9.57484375e-08,2.62500000e-05
-9.57084375e-08,2.28750000e-04
-9.56684375e-08,5.28750000e-04
-9.56284375e-08,6.67500000e-04
-9.55884375e-08,5.04375000e-04
-9.55484375e-08,1.44375000e-04
-9.55084375e-08,-1.46250000e-04
-9.54684375e-08,-1.53750000e-04
-9.54284375e-08,1.10625000e-04
-9.53884375e-08,4.33125000e-04
-9.53484375e-08,5.85000000e-04
-9.53084375e-08,5.04375000e-04
-9.52684375e-08,3.28125000e-04
-9.52284375e-08,2.49375000e-04
-9.51884375e-08,3.35625000e-04
-9.51484375e-08,4.89375000e-04
-9.51084375e-08,5.32500000e-04
-9.50684375e-08,3.90000000e-04
-9.50284375e-08,1.50000000e-04
-9.49884375e-08,-5.62500000e-06
-9.49484375e-08,3.56250000e-05
-9.49084375e-08,2.17500000e-04
-9.48684375e-08,3.67500000e-04
-9.48284375e-08,3.35625000e-04
-9.47884375e-08,1.23750000e-04
-9.47484375e-08,-1.18125000e-04
-9.47084375e-08,-2.21250000e-04
-9.46684375e-08,-1.29375000e-04
