waveforms/110924/Tek028.csv

Model,MSO64
Waveform Type,ANALOG
Horizontal Units,s
Sample Interval,4.00000000e-11
Record Length,50000
Zero Index,2999.84375000
Vertical Units,V
ANALOG_Thumbnail,

TIME,CH1
-1.19993750e-07,7.50000000e-06
-1.19953750e-07,-5.62500000e-06
-1.19913750e-07,-7.87500000e-05
-1.19873750e-07,-1.63125000e-04
-1.19833750e-07,-1.89375000e-04
-1.19793750e-07,-1.35000000e-04
-1.19753750e-07,-5.43750000e-05
-1.19713750e-07,-3.75000000e-05
-1.19673750e-07,-1.27500000e-04
-1.19633750e-07,-2.71875000e-04
-1.19593750e-07,-3.61875000e-04
-1.19553750e-07,-3.11250000e-04
-1.19513750e-07,-1.29375000e-04
-1.19473750e-07,7.68750000e-05
-1.19433750e-07,1.95000000e-04
-1.19393750e-07,1.85625000e-04
-1.19353750e-07,1.05000000e-04
-1.19313750e-07,4.68750000e-05
-1.19273750e-07,5.62500000e-05
-1.19233750e-07,9.56250000e-05
-1.19193750e-07,8.81250000e-05
-1.19153750e-07,-3.75000000e-06
-1.19113750e-07,-1.20000000e-04
-1.19073750e-07,-1.44375000e-04
-1.19033750e-07,1.87500000e-06
-1.18993750e-07,2.85000000e-04
-1.18953750e-07,5.62500000e-04
-1.18913750e-07,6.90000000e-04
-1.18873750e-07,6.07500000e-04
-1.18833750e-07,3.97500000e-04
-1.18793750e-07,2.10000000e-04
-1.18753750e-07,1.57500000e-04
-1.18713750e-07,2.45625000e-04
-1.18673750e-07,3.71250000e-04
-1.18633750e-07,4.16250000e-04
-1.18593750e-07,3.15000000e-04
-1.18553750e-07,1.03125000e-04
-1.18513750e-07,-1.10625000e-04
-1.18473750e-07,-2.19375000e-04
-1.18433750e-07,-1.57500000e-04
-1.18393750e-07,4.87500000e-05
-1.18353750e-07,2.98125000e-04
-1.18313750e-07,4.65000000e-04
-1.18273750e-07,4.57500000e-04
-1.18233750e-07,2.90625000e-04
-1.18193750e-07,7.87500000e-05
-1.18153750e-07,-1.31250000e-05
-1.18113750e-07,1.23750000e-04
-1.18073750e-07,4.53750000e-04
-1.18033750e-07,8.08125000e-04
-1.17993750e-07,9.76875000e-04
-1.17953750e-07,8.47500000e-04
-1.17913750e-07,4.65000000e-04
-1.17873750e-07,1.12500000e-05
-1.17833750e-07,-3.26250000e-04
-1.17793750e-07,-4.57500000e-04
-1.17753750e-07,-4.23750000e-04
-1.17713750e-07,-3.24375000e-04
-1.17673750e-07,-2.34375000e-04
-1.17633750e-07,-1.44375000e-04
-1.17593750e-07,-1.12500000e-05
-1.17553750e-07,1.85625000e-04
-1.17513750e-07,3.95625000e-04
-1.17473750e-07,5.25000000e-04
-1.17433750e-07,5.15625000e-04
-1.17393750e-07,3.80625000e-04
-1.17353750e-07,1.96875000e-04
-1.17313750e-07,4.50000000e-05
-1.17273750e-07,-3.93750000e-05
-1.17233750e-07,-6.93750000e-05
-1.17193750e-07,-6.75000000e-05
-1.17153750e-07,-2.62500000e-05
-1.17113750e-07,6.75000000e-05
-1.17073750e-07,2.02500000e-04
-1.17033750e-07,3.13125000e-04
-1.16993750e-07,3.22500000e-04
-1.16953750e-07,2.04375000e-04
-1.16913750e-07,3.37500000e-05
-1.16873750e-07,-5.43750000e-05
-1.16833750e-07,3.93750000e-05
-1.16793750e-07,2.90625000e-04
-1.16753750e-07,5.49375000e-04
-1.16713750e-07,6.37500000e-04
-1.16673750e-07,4.81875000e-04
-1.16633750e-07,1.65000000e-04
-1.16593750e-07,-1.18125000e-04
-1.16553750e-07,-1.96875000e-04
-1.16513750e-07,-4.31250000e-05
-1.16473750e-07,2.28750000e-04
-1.16433750e-07,4.48125000e-04
-1.16393750e-07,5.19375000e-04
-1.16353750e-07,4.70625000e-04
-1.16313750e-07,4.18125000e-04
-1.16273750e-07,4.46250000e-04
-1.16233750e-07,5.43750000e-04
-1.16193750e-07,6.15000000e-04
-1.16153750e-07,5.73750000e-04
-1.16113750e-07,4.21875000e-04
-1.16073750e-07,2.40000000e-04
-1.16033750e-07,1.23750000e-04
-1.15993750e-07,8.43750000e-05
-1.15953750e-07,5.81250000e-05
-1.15913750e-07,-3.37500000e-05
-1.15873750e-07,-1.81875000e-04
-1.15833750e-07,-2.79375000e-04
-1.15793750e-07,-1.98750000e-04
-1.15753750e-07,8.81250000e-05
-1.15713750e-07,4.55625000e-04
-1.15673750e-07,7.01250000e-04
-1.15633750e-07,6.91875000e-04
-1.15593750e-07,4.57500000e-04
-1.15553750e-07,1.85625000e-04
-1.15513750e-07,6.93750000e-05
-1.15473750e-07,1.80000000e-04
-1.15433750e-07,4.25625000e-04
-1.15393750e-07,6.28125000e-04
-1.15353750e-07,6.65625000e-04
-1.15313750e-07,5.45625000e-04
-1.15273750e-07,3.78750000e-04
-1.15233750e-07,2.73750000e-04
-1.15193750e-07,2.53125000e-04
-1.15153750e-07,2.51250000e-04
-1.15113750e-07,1.89375000e-04
-1.15073750e-07,5.06250000e-05
-1.15033750e-07,-9.37500000e-05
-1.14993750e-07,-1.51875000e-04
-1.14953750e-07,-8.81250000e-05
-1.14913750e-07,3.75000000e-05
-1.14873750e-07,1.12500000e-04
-1.14833750e-07,6.00000000e-05
-1.14793750e-07,-1.01250000e-04
-1.14753750e-07,-2.73750000e-04
-1.14713750e-07,-3.48750000e-04
-1.14673750e-07,-2.94375000e-04
-1.14633750e-07,-1.65000000e-04
-1.14593750e-07,-5.06250000e-05
-1.14553750e-07,-3.75000000e-06
-1.14513750e-07,3.75000000e-06
-1.14473750e-07,4.31250000e-05
-1.14433750e-07,1.57500000e-04
-1.14393750e-07,3.18750000e-04
-1.14353750e-07,4.50000000e-04
-1.14313750e-07,4.81875000e-04
-1.14273750e-07,4.27500000e-04
-1.14233750e-07,3.50625000e-04
-1.14193750e-07,3.20625000e-04
-1.14153750e-07,3.28125000e-04
-1.14113750e-07,3.00000000e-04
-1.14073750e-07,1.68750000e-04
-1.14033750e-07,-4.87500000e-05
-1.13993750e-07,-2.26875000e-04
-1.13953750e-07,-2.25000000e-04
-1.13913750e-07,9.37500000e-06
-1.13873750e-07,3.63750000e-04
-1.13833750e-07,6.28125000e-04
-1.13793750e-07,6.41250000e-04
-1.13753750e-07,4.12500000e-04
-1.13713750e-07,1.21875000e-04
-1.13673750e-07,-3.75000000e-06
-1.13633750e-07,1.40625000e-04
-1.13593750e-07,4.74375000e-04
-1.13553750e-07,7.89375000e-04
-1.13513750e-07,9.00000000e-04
-1.13473750e-07,7.68750000e-04
-1.13433750e-07,5.00625000e-04
-1.13393750e-07,2.70000000e-04
-1.13353750e-07,1.83750000e-04
-1.13313750e-07,2.45625000e-04
-1.13273750e-07,3.76875000e-04
-1.13233750e-07,4.89375000e-04
-1.13193750e-07,5.36250000e-04
-1.13153750e-07,5.25000000e-04
-1.13113750e-07,4.95000000e-04
-1.13073750e-07,4.81875000e-04
-1.13033750e-07,4.93125000e-04
-1.12993750e-07,5.15625000e-04
-1.12953750e-07,5.17500000e-04
-1.12913750e-07,4.70625000e-04
-1.12873750e-07,3.69375000e-04
-1.12833750e-07,2.41875000e-04
-1.12793750e-07,1.36875000e-04
-1.12753750e-07,1.01250000e-04
-1.12713750e-07,1.40625000e-04
-1.12673750e-07,2.21250000e-04
-1.12633750e-07,2.77500000e-04
-1.12593750e-07,2.62500000e-04
-1.12553750e-07,1.76250000e-04
-1.12513750e-07,6.00000000e-05
-1.12473750e-07,-2.81250000e-05
-1.12433750e-07,-5.43750000e-05
-1.12393750e-07,-2.81250000e-05
-1.12353750e-07,1.31250000e-05
-1.12313750e-07,3.18750000e-05
-1.12273750e-07,3.00000000e-05
-1.12233750e-07,3.56250000e-05
-1.12193750e-07,8.62500000e-05
-1.12153750e-07,1.91250000e-04
-1.12113750e-07,3.03750000e-04
-1.12073750e-07,3.61875000e-04
-1.12033750e-07,3.11250000e-04
-1.11993750e-07,1.66875000e-04
-1.11953750e-07,3.75000000e-06
-1.11913750e-07,-8.62500000e-05
-1.11873750e-07,-3.75000000e-05
-1.11833750e-07,1.33125000e-04
-1.11793750e-07,3.46875000e-04
-1.11753750e-07,5.11875000e-04
-1.11713750e-07,5.64375000e-04
-1.11673750e-07,5.10000000e-04
-1.11633750e-07,3.91875000e-04
-1.11593750e-07,2.68125000e-04
-1.11553750e-07,1.72500000e-04
-1.11513750e-07,1.03125000e-04
-1.11473750e-07,4.68750000e-05
-1.11433750e-07,-7.50000000e-06
-1.11393750e-07,-5.06250000e-05
-1.11353750e-07,-6.18750000e-05
-1.11313750e-07,-1.50000000e-05
-1.11273750e-07,1.05000000e-04
-1.11233750e-07,2.79375000e-04
-1.11193750e-07,4.65000000e-04
-1.11153750e-07,5.98125000e-04
-1.11113750e-07,6.26250000e-04
-1.11073750e-07,5.41875000e-04
-1.11033750e-07,3.86250000e-04
-1.10993750e-07,2.32500000e-04
-1.10953750e-07,1.44375000e-04
-1.10913750e-07,1.38750000e-04
-1.10873750e-07,1.81875000e-04
-1.10833750e-07,2.17500000e-04
-1.10793750e-07,2.13750000e-04
-1.10753750e-07,1.76250000e-04
-1.10713750e-07,1.42500000e-04
-1.10673750e-07,1.50000000e-04
-1.10633750e-07,2.21250000e-04
-1.10593750e-07,3.45000000e-04
-1.10553750e-07,4.87500000e-04
-1.10513750e-07,6.03750000e-04
-1.10473750e-07,6.41250000e-04
-1.10433750e-07,5.70000000e-04
-1.10393750e-07,3.95625000e-04
-1.10353750e-07,1.76250000e-04
-1.10313750e-07,-3.75000000e-06
-1.10273750e-07,-7.68750000e-05
-1.10233750e-07,-3.75000000e-05
-1.10193750e-07,4.87500000e-05
-1.10153750e-07,1.03125000e-04
-1.10113750e-07,7.87500000e-05
-1.10073750e-07,5.62500000e-06
-1.10033750e-07,-5.62500000e-05
-1.09993750e-07,-6.18750000e-05
-1.09953750e-07,-2.43750000e-05
-1.09913750e-07,9.37500000e-06
-1.09873750e-07,9.37500000e-06
-1.09833750e-07,-1.50000000e-05
-1.09793750e-07,-2.25000000e-05
-1.09753750e-07,6.93889390e-18
-1.09713750e-07,1.87500000e-05
-1.09673750e-07,-1.68750000e-05
-1.09633750e-07,-1.16250000e-04
-1.09593750e-07,-2.13750000e-04
-1.09553750e-07,-2.21250000e-04
-1.09513750e-07,-1.06875000e-04
-1.09473750e-07,5.81250000e-05
-1.09433750e-07,1.42500000e-04
-1.09393750e-07,7.12500000e-05
-1.09353750e-07,-9.18750000e-05
-1.09313750e-07,-1.81875000e-04
-1.09273750e-07,-6.56250000e-05
-1.09233750e-07,2.30625000e-04
-1.09193750e-07,5.13750000e-04
-1.09153750e-07,5.75625000e-04
-1.09113750e-07,3.63750000e-04
-1.09073750e-07,4.12500000e-05
-1.09033750e-07,-1.31250000e-04
-1.08993750e-07,-2.06250000e-05
-1.08953750e-07,2.64375000e-04
-1.08913750e-07,4.55625000e-04
-1.08873750e-07,3.43125000e-04
-1.08833750e-07,-3.18750000e-05
-1.08793750e-07,-3.97500000e-04
-1.08753750e-07,-4.63125000e-04
-1.08713750e-07,-1.51875000e-04
-1.08673750e-07,3.24375000e-04
-1.08633750e-07,6.31875000e-04
-1.08593750e-07,5.70000000e-04
-1.08553750e-07,2.19375000e-04
-1.08513750e-07,-1.40625000e-04
-1.08473750e-07,-2.56875000e-04
-1.08433750e-07,-9.18750000e-05
-1.08393750e-07,1.81875000e-04
-1.08353750e-07,3.43125000e-04
-1.08313750e-07,3.07500000e-04
-1.08273750e-07,1.65000000e-04
-1.08233750e-07,7.87500000e-05
-1.08193750e-07,1.23750000e-04
-1.08153750e-07,2.41875000e-04
-1.08113750e-07,3.24375000e-04
-1.08073750e-07,3.26250000e-04
-1.08033750e-07,3.09375000e-04
-1.07993750e-07,3.61875000e-04
-1.07953750e-07,4.85625000e-04
-1.07913750e-07,5.73750000e-04
-1.07873750e-07,4.93125000e-04
-1.07833750e-07,2.25000000e-04
-1.07793750e-07,-9.93750000e-05
-1.07753750e-07,-2.96250000e-04
-1.07713750e-07,-2.62500000e-04
-1.07673750e-07,-6.18750000e-05
-1.07633750e-07,1.50000000e-04
-1.07593750e-07,2.51250000e-04
-1.07553750e-07,2.45625000e-04
-1.07513750e-07,2.13750000e-04
-1.07473750e-07,2.17500000e-04
-1.07433750e-07,2.25000000e-04
-1.07393750e-07,1.57500000e-04
-1.07353750e-07,-7.50000000e-06
-1.07313750e-07,-1.87500000e-04
-1.07273750e-07,-2.47500000e-04
-1.07233750e-07,-1.21875000e-04
-1.07193750e-07,1.20000000e-04
-1.07153750e-07,3.13125000e-04
-1.07113750e-07,3.37500000e-04
-1.07073750e-07,2.00625000e-04
-1.07033750e-07,2.81250000e-05
-1.06993750e-07,-4.68750000e-05
-1.06953750e-07,1.50000000e-05
-1.06913750e-07,1.40625000e-04
-1.06873750e-07,2.32500000e-04
-1.06833750e-07,2.56875000e-04
-1.06793750e-07,2.62500000e-04
-1.06753750e-07,3.26250000e-04
-1.06713750e-07,4.63125000e-04
-1.06673750e-07,5.98125000e-04
-1.06633750e-07,6.39375000e-04
-1.06593750e-07,5.56875000e-04
-1.06553750e-07,4.21875000e-04
-1.06513750e-07,3.56250000e-04
-1.06473750e-07,4.27500000e-04
-1.06433750e-07,5.71875000e-04
-1.06393750e-07,6.37500000e-04
-1.06353750e-07,4.85625000e-04
-1.06313750e-07,1.16250000e-04
-1.06273750e-07,-3.13125000e-04
-1.06233750e-07,-5.73750000e-04
-1.06193750e-07,-5.23125000e-04
-1.06153750e-07,-2.00625000e-04
-1.06113750e-07,2.06250000e-04
-1.06073750e-07,4.81875000e-04
-1.06033750e-07,5.28750000e-04
-1.05993750e-07,4.10625000e-04
-1.05953750e-07,2.88750000e-04
-1.05913750e-07,2.88750000e-04
-1.05873750e-07,4.08750000e-04
-1.05833750e-07,5.30625000e-04
-1.05793750e-07,5.11875000e-04
-1.05753750e-07,3.00000000e-04
-1.05713750e-07,-3.56250000e-05
-1.05673750e-07,-3.43125000e-04
-1.05633750e-07,-4.83750000e-04
-1.05593750e-07,-4.01250000e-04
-1.05553750e-07,-1.50000000e-04
-1.05513750e-07,1.55625000e-04
-1.05473750e-07,3.90000000e-04
-1.05433750e-07,4.80000000e-04
-1.05393750e-07,4.12500000e-04
-1.05353750e-07,2.32500000e-04
-1.05313750e-07,2.43750000e-05
-1.05273750e-07,-1.21875000e-04
-1.05233750e-07,-1.48125000e-04
-1.05193750e-07,-4.50000000e-05
-1.05153750e-07,1.25625000e-04
-1.05113750e-07,2.71875000e-04
-1.05073750e-07,3.18750000e-04
-1.05033750e-07,2.47500000e-04
-1.04993750e-07,1.21875000e-04
-1.04953750e-07,3.00000000e-05
-1.04913750e-07,3.75000000e-05
-1.04873750e-07,1.40625000e-04
-1.04833750e-07,2.64375000e-04
-1.04793750e-07,3.22500000e-04
-1.04753750e-07,2.66250000e-04
-1.04713750e-07,1.14375000e-04
-1.04673750e-07,-5.43750000e-05
-1.04633750e-07,-1.46250000e-04
-1.04593750e-07,-1.01250000e-04
-1.04553750e-07,6.75000000e-05
-1.04513750e-07,2.86875000e-04
-1.04473750e-07,4.44375000e-04
-1.04433750e-07,4.51875000e-04
-1.04393750e-07,2.88750000e-04
-1.04353750e-07,3.37500000e-05
-1.04313750e-07,-1.81875000e-04
-1.04273750e-07,-2.43750000e-04
-1.04233750e-07,-1.18125000e-04
-1.04193750e-07,1.10625000e-04
-1.04153750e-07,3.09375000e-04
-1.04113750e-07,3.63750000e-04
-1.04073750e-07,2.55000000e-04
-1.04033750e-07,6.56250000e-05
-1.03993750e-07,-8.62500000e-05
-1.03953750e-07,-1.25625000e-04
-1.03913750e-07,-5.62500000e-05
-1.03873750e-07,4.50000000e-05
-1.03833750e-07,9.18750000e-05
-1.03793750e-07,4.68750000e-05
-1.03753750e-07,-5.25000000e-05
-1.03713750e-07,-1.14375000e-04
-1.03673750e-07,-5.81250000e-05
-1.03633750e-07,1.31250000e-04
-1.03593750e-07,3.82500000e-04
-1.03553750e-07,5.68125000e-04
-1.03513750e-07,5.83125000e-04
-1.03473750e-07,4.10625000e-04
-1.03433750e-07,1.40625000e-04
-1.03393750e-07,-7.68750000e-05
-1.03353750e-07,-1.35000000e-04
-1.03313750e-07,-3.93750000e-05
-1.03273750e-07,9.75000000e-05
-1.03233750e-07,1.35000000e-04
-1.03193750e-07,2.06250000e-05
-1.03153750e-07,-1.70625000e-04
-1.03113750e-07,-2.92500000e-04
-1.03073750e-07,-2.40000000e-04
-1.03033750e-07,-3.00000000e-05
-1.02993750e-07,2.15625000e-04
-1.02953750e-07,3.60000000e-04
-1.02913750e-07,3.63750000e-04
-1.02873750e-07,2.96250000e-04
-1.02833750e-07,2.56875000e-04
-1.02793750e-07,2.94375000e-04
-1.02753750e-07,3.60000000e-04
-1.02713750e-07,3.63750000e-04
-1.02673750e-07,2.64375000e-04
-1.02633750e-07,9.56250000e-05
-1.02593750e-07,-6.00000000e-05
-1.02553750e-07,-1.46250000e-04
-1.02513750e-07,-1.59375000e-04
-1.02473750e-07,-1.27500000e-04
-1.02433750e-07,-6.93750000e-05
-1.02393750e-07,2.06250000e-05
-1.02353750e-07,1.38750000e-04
-1.02313750e-07,2.43750000e-04
-1.02273750e-07,2.75625000e-04
-1.02233750e-07,2.11875000e-04
-1.02193750e-07,1.05000000e-04
-1.02153750e-07,5.25000000e-05
-1.02113750e-07,1.08750000e-04
-1.02073750e-07,2.28750000e-04
-1.02033750e-07,2.86875000e-04
-1.01993750e-07,1.96875000e-04
-1.01953750e-07,-7.50000000e-06
-1.01913750e-07,-1.78125000e-04
-1.01873750e-07,-1.70625000e-04
-1.01833750e-07,3.18750000e-05
-1.01793750e-07,2.98125000e-04
-1.01753750e-07,4.50000000e-04
-1.01713750e-07,4.10625000e-04
-1.01673750e-07,2.60625000e-04
-1.01633750e-07,1.61250000e-04
-1.01593750e-07,2.15625000e-04
-1.01553750e-07,3.86250000e-04
-1.01513750e-07,5.30625000e-04
-1.01473750e-07,5.28750000e-04
-1.01433750e-07,3.78750000e-04
-1.01393750e-07,1.93125000e-04
-1.01353750e-07,8.62500000e-05
-1.01313750e-07,8.43750000e-05
-1.01273750e-07,1.01250000e-04
-1.01233750e-07,3.75000000e-05
-1.01193750e-07,-1.29375000e-04
-1.01153750e-07,-3.11250000e-04
-1.01113750e-07,-3.75000000e-04
-1.01073750e-07,-2.56875000e-04
-1.01033750e-07,-3.75000000e-06
-1.00993750e-07,2.55000000e-04
-1.00953750e-07,4.06875000e-04
-1.00913750e-07,4.23750000e-04
-1.00873750e-07,3.50625000e-04
-1.00833750e-07,2.62500000e-04
-1.00793750e-07,1.98750000e-04
-1.00753750e-07,1.63125000e-04
-1.00713750e-07,1.50000000e-04
-1.00673750e-07,1.46250000e-04
-1.00633750e-07,1.42500000e-04
-1.00593750e-07,1.23750000e-04
-1.00553750e-07,7.87500000e-05
-1.00513750e-07,2.25000000e-05
-1.00473750e-07,3.75000000e-06
-1.00433750e-07,6.75000000e-05
-1.00393750e-07,2.11875000e-04
-1.00353750e-07,3.61875000e-04
-1.00313750e-07,4.18125000e-04
-1.00273750e-07,3.39375000e-04
-1.00233750e-07,1.85625000e-04
-1.00193750e-07,7.31250000e-05
-1.00153750e-07,9.00000000e-05
-1.00113750e-07,2.23125000e-04
-1.00073750e-07,3.60000000e-04
-1.00033750e-07,3.88125000e-04
-9.99937500e-08,2.83125000e-04
-9.99537500e-08,1.12500000e-04
-9.99137500e-08,-1.68750000e-05
-9.98737500e-08,-6.00000000e-05
-9.98337500e-08,-4.31250000e-05
-9.97937500e-08,-2.25000000e-05
-9.97537500e-08,-1.50000000e-05
-9.97137500e-08,2.43750000e-05
-9.96737500e-08,1.42500000e-04
-9.96337500e-08,3.22500000e-04
-9.95937500e-08,4.59375000e-04
-9.95537500e-08,4.46250000e-04
-9.95137500e-08,2.66250000e-04
-9.94737500e-08,3.75000000e-05
-9.94337500e-08,-6.75000000e-05
-9.93937500e-08,5.06250000e-05
-9.93537500e-08,3.26250000e-04
-9.93137500e-08,5.68125000e-04
-9.92737500e-08,5.90625000e-04
-9.92337500e-08,3.69375000e-04
-9.91937500e-08,5.43750000e-05
-9.91537500e-08,-1.35000000e-04
-9.91137500e-08,-7.50000000e-05
-9.90737500e-08,1.80000000e-04
-9.90337500e-08,4.42500000e-04
-9.89937500e-08,5.45625000e-04
-9.89537500e-08,4.65000000e-04
-9.89137500e-08,3.20625000e-04
-9.88737500e-08,2.64375000e-04
-9.88337500e-08,3.46875000e-04
-9.87937500e-08,4.83750000e-04
-9.87537500e-08,5.34375000e-04
-9.87137500e-08,4.25625000e-04
-9.86737500e-08,2.17500000e-04
-9.86337500e-08,4.68750000e-05
-9.85937500e-08,2.25000000e-05
-9.85537500e-08,1.35000000e-04
-9.85137500e-08,2.83125000e-04
-9.84737500e-08,3.73125000e-04
-9.84337500e-08,3.90000000e-04
-9.83937500e-08,4.06875000e-04
-9.83537500e-08,4.89375000e-04
-9.83137500e-08,6.24375000e-04
-9.82737500e-08,7.16250000e-04
-9.82337500e-08,6.65625000e-04
-9.81937500e-08,4.59375000e-04
-9.81537500e-08,1.89375000e-04
-9.81137500e-08,-1.50000000e-05
-9.80737500e-08,-8.43750000e-05
-9.80337500e-08,-5.06250000e-05
-9.79937500e-08,-9.37500000e-06
-9.79537500e-08,-1.50000000e-05
-9.79137500e-08,-4.31250000e-05
-9.78737500e-08,-1.87500000e-05
-9.78337500e-08,1.05000000e-04
-9.77937500e-08,3.01875000e-04
-9.77537500e-08,4.81875000e-04
-9.77137500e-08,5.73750000e-04
-9.76737500e-08,5.66250000e-04
-9.76337500e-08,5.08125000e-04
-9.75937500e-08,4.40625000e-04
-9.75537500e-08,3.58125000e-04
-9.75137500e-08,2.28750000e-04
-9.74737500e-08,5.06250000e-05
-9.74337500e-08,-1.16250000e-04
-9.73937500e-08,-1.74375000e-04
-9.73537500e-08,-7.87500000e-05
-9.73137500e-08,1.16250000e-04
-9.72737500e-08,2.81250000e-04
-9.72337500e-08,3.09375000e-04
-9.71937500e-08,2.08125000e-04
-9.71537500e-08,8.62500000e-05
-9.71137500e-08,6.56250000e-05
-9.70737500e-08,1.81875000e-04
-9.70337500e-08,3.48750000e-04
-9.69937500e-08,4.35000000e-04
-9.69537500e-08,3.73125000e-04
-9.69137500e-08,2.02500000e-04
-9.68737500e-08,3.18750000e-05
-9.68337500e-08,-5.62500000e-05
-9.67937500e-08,-6.00000000e-05
-9.67537500e-08,-3.56250000e-05
-9.67137500e-08,-2.81250000e-05
-9.66737500e-08,-2.62500000e-05
-9.66337500e-08,3.75000000e-06
-9.65937500e-08,7.50000000e-05
-9.65537500e-08,1.38750000e-04
-9.65137500e-08,1.42500000e-04
-9.64737500e-08,7.68750000e-05
-9.64337500e-08,9.37500000e-06
-9.63937500e-08,2.81250000e-05
-9.63537500e-08,1.61250000e-04
-9.63137500e-08,3.39375000e-04
-9.62737500e-08,4.44375000e-04
-9.62337500e-08,3.99375000e-04
-9.61937500e-08,2.34375000e-04
-9.61537500e-08,4.87500000e-05
-9.61137500e-08,-6.75000000e-05
-9.60737500e-08,-9.00000000e-05
-9.60337500e-08,-6.00000000e-05
-9.59937500e-08,-2.06250000e-05
-9.59537500e-08,3.56250000e-05
-9.59137500e-08,1.48125000e-04
-9.58737500e-08,3.20625000e-04
-9.58337500e-08,4.89375000e-04
-9.57937500e-08,5.45625000e-04
-9.57537500e-08,4.27500000e-04
-9.57137500e-08,1.81875000e-04
-9.56737500e-08,-4.87500000e-05
-9.56337500e-08,-1.29375000e-04
-9.55937500e-08,-3.00000000e-05
-9.55537500e-08,1.51875000e-04
-9.55137500e-08,2.60625000e-04
-9.54737500e-08,2.08125000e-04
-9.54337500e-08,3.56250000e-05
-9.53937500e-08,-1.18125000e-04
-9.53537500e-08,-1.14375000e-04
-9.53137500e-08,8.06250000e-05
-9.52737500e-08,3.69375000e-04
-9.52337500e-08,5.98125000e-04
-9.51937500e-08,6.45000000e-04
-9.51537500e-08,5.04375000e-04
-9.51137500e-08,2.77500000e-04
-9.50737500e-08,1.05000000e-04
-9.50337500e-08,8.81250000e-05
-9.49937500e-08,2.23125000e-04
-9.49537500e-08,4.08750000e-04
-9.49137500e-08,5.11875000e-04
-9.48737500e-08,4.36875000e-04
-9.48337500e-08,1.93125000e-04
-9.47937500e-08,-1.12500000e-04
-9.47537500e-08,-3.30000000e-04
-9.47137500e-08,-3.43125000e-04
