waveforms/110924/Tek002_ALL.csv

Model,MSO64
Channel,CH1,,Channel,CH2,,Channel,CH3
Waveform Type,ANALOG,,Waveform Type,ANALOG,,Waveform Type,ANALOG
Horizontal Units,s,,Horizontal Units,s,,Horizontal Units,s
Sample Interval,4.00000000e-11,,Sample Interval,4.00000000e-11,,Sample Interval,4.00000000e-11
Record Length,50000,,Record Length,50000,,Record Length,50000
Zero Index,4499.77734375,,Zero Index,4499.77734375,,Zero Index,4499.77734375
Vertical Units,V,,Vertical Units,V,,Vertical Units,V
,,,,,,,
ANALOG_Thumbnail,,,ANALOG_Thumbnail,,,ANALOG_Thumbnail,

TIME,CH1,CH2,CH3
-1.79991094e-07,1.71875000e-04,2.03818750e-02,6.48437500e-05
-1.79951094e-07,3.62500000e-04,2.03525000e-02,1.34375000e-04
-1.79911094e-07,4.35937500e-04,2.02193750e-02,1.85937500e-04
-1.79871094e-07,3.43750000e-04,2.00487500e-02,2.02343750e-04
-1.79831094e-07,1.60937500e-04,1.99368750e-02,1.74218750e-04
-1.79791094e-07,2.50000000e-05,1.99431250e-02,1.09375000e-04
-1.79751094e-07,4.06250000e-05,2.00518750e-02,2.81250000e-05
-1.79711094e-07,2.07812500e-04,2.01837500e-02,-4.06250000e-05
-1.79671094e-07,4.37500000e-04,2.02581250e-02,-7.65625000e-05
-1.79631094e-07,6.18750000e-04,2.02487500e-02,-7.81250000e-05
-1.79591094e-07,6.92187500e-04,2.01962500e-02,-6.17187500e-05
-1.79551094e-07,6.73437500e-04,2.01637500e-02,-4.37500000e-05
-1.79511094e-07,6.18750000e-04,2.01831250e-02,-2.96875000e-05
-1.79471094e-07,5.84375000e-04,2.02312500e-02,-3.90625000e-06
-1.79431094e-07,5.87500000e-04,2.02618750e-02,5.39062500e-05
-1.79391094e-07,6.10937500e-04,2.02525000e-02,1.44531250e-04
-1.79351094e-07,6.35937500e-04,2.02262500e-02,2.35156250e-04
-1.79311094e-07,6.48437500e-04,2.02231250e-02,2.72656250e-04
-1.79271094e-07,6.46875000e-04,2.02543750e-02,2.17968750e-04
-1.79231094e-07,6.21875000e-04,2.02856250e-02,8.20312500e-05
-1.79191094e-07,5.59375000e-04,2.02650000e-02,-7.10937500e-05
-1.79151094e-07,4.62500000e-04,2.01831250e-02,-1.57812500e-04
-1.79111094e-07,3.65625000e-04,2.00900000e-02,-1.29687500e-04
-1.79071094e-07,3.26562500e-04,2.00612500e-02,-4.68750000e-06
-1.79031094e-07,3.82812500e-04,2.01287500e-02,1.39062500e-04
-1.78991094e-07,5.18750000e-04,2.02437500e-02,2.15625000e-04
-1.78951094e-07,6.59375000e-04,2.03100000e-02,1.84375000e-04
-1.78911094e-07,7.20312500e-04,2.02662500e-02,7.57812500e-05
-1.78871094e-07,6.71875000e-04,2.01418750e-02,-3.35937500e-05
-1.78831094e-07,5.64062500e-04,2.00437500e-02,-7.10937500e-05
-1.78791094e-07,4.95312500e-04,2.00643750e-02,-1.64062500e-05
-1.78751094e-07,5.31250000e-04,2.02062500e-02,8.82812500e-05
-1.78711094e-07,6.48437500e-04,2.03668750e-02,1.71093750e-04
-1.78671094e-07,7.45312500e-04,2.04206250e-02,1.75000000e-04
-1.78631094e-07,7.17187500e-04,2.03125000e-02,1.00781250e-04
-1.78591094e-07,5.51562500e-04,2.01075000e-02,-5.46875000e-06
-1.78551094e-07,3.43750000e-04,1.99387500e-02,-7.81250000e-05
-1.78511094e-07,2.25000000e-04,1.99075000e-02,-8.35937500e-05
-1.78471094e-07,2.60937500e-04,2.00112500e-02,-3.51562500e-05
-1.78431094e-07,3.98437500e-04,2.01562500e-02,2.03125000e-05
-1.78391094e-07,5.12500000e-04,2.02343750e-02,3.98437500e-05
-1.78351094e-07,5.07812500e-04,2.02062500e-02,1.71875000e-05
-1.78311094e-07,4.07812500e-04,2.01193750e-02,-1.32812500e-05
-1.78271094e-07,3.29687500e-04,2.00606250e-02,-8.59375000e-06
-1.78231094e-07,3.89062500e-04,2.00875000e-02,5.07812500e-05
-1.78191094e-07,5.92187500e-04,2.01868750e-02,1.38281250e-04
-1.78151094e-07,8.21875000e-04,2.02925000e-02,1.95312500e-04
-1.78111094e-07,9.26562500e-04,2.03393750e-02,1.72656250e-04
-1.78071094e-07,8.32812500e-04,2.03056250e-02,6.64062500e-05
-1.78031094e-07,6.07812500e-04,2.02193750e-02,-7.26562500e-05
-1.77991094e-07,4.03125000e-04,2.01356250e-02,-1.72656250e-04
-1.77951094e-07,3.46875000e-04,2.00993750e-02,-1.82031250e-04
-1.77911094e-07,4.56250000e-04,2.01243750e-02,-1.07031250e-04
-1.77871094e-07,6.37500000e-04,2.01968750e-02,-3.12500000e-06
-1.77831094e-07,7.57812500e-04,2.02856250e-02,6.09375000e-05
-1.77791094e-07,7.34375000e-04,2.03593750e-02,5.00000000e-05
-1.77751094e-07,5.82812500e-04,2.03912500e-02,-2.10937500e-05
-1.77711094e-07,3.82812500e-04,2.03693750e-02,-1.00781250e-04
-1.77671094e-07,2.25000000e-04,2.02962500e-02,-1.34375000e-04
-1.77631094e-07,1.65625000e-04,2.01931250e-02,-1.00000000e-04
-1.77591094e-07,2.07812500e-04,2.00950000e-02,-1.40625000e-05
-1.77551094e-07,3.21875000e-04,2.00406250e-02,7.96875000e-05
-1.77511094e-07,4.53125000e-04,2.00525000e-02,1.38281250e-04
-1.77471094e-07,5.45312500e-04,2.01218750e-02,1.34375000e-04
-1.77431094e-07,5.46875000e-04,2.02031250e-02,7.34375000e-05
-1.77391094e-07,4.34375000e-04,2.02393750e-02,-1.64062500e-05
-1.77351094e-07,2.26562500e-04,2.01931250e-02,-9.53125000e-05
-1.77311094e-07,-1.25000000e-05,2.00768750e-02,-1.31250000e-04
-1.77271094e-07,-1.93750000e-04,1.99550000e-02,-1.16406250e-04
-1.77231094e-07,-2.46875000e-04,1.99056250e-02,-7.26562500e-05
-1.77191094e-07,-1.53125000e-04,1.99693750e-02,-3.20312500e-05
-1.77151094e-07,5.62500000e-05,2.01131250e-02,-1.32812500e-05
-1.77111094e-07,3.25000000e-04,2.02487500e-02,-9.37500000e-06
-1.77071094e-07,6.01562500e-04,2.02868750e-02,6.25000000e-06
-1.77031094e-07,8.53125000e-04,2.02050000e-02,5.70312500e-05
-1.76991094e-07,1.05468750e-03,2.00681250e-02,1.42968750e-04
-1.76951094e-07,1.17500000e-03,1.99843750e-02,2.40625000e-04
-1.76911094e-07,1.17968750e-03,2.00281250e-02,3.21093750e-04
-1.76871094e-07,1.05625000e-03,2.01850000e-02,3.66406250e-04
-1.76831094e-07,8.28125000e-04,2.03575000e-02,3.72656250e-04
-1.76791094e-07,5.71875000e-04,2.04368750e-02,3.41406250e-04
-1.76751094e-07,3.67187500e-04,2.03775000e-02,2.68750000e-04
-1.76711094e-07,2.59375000e-04,2.02256250e-02,1.57812500e-04
-1.76671094e-07,2.37500000e-04,2.00818750e-02,3.12500000e-05
-1.76631094e-07,2.51562500e-04,2.00262500e-02,-6.17187500e-05
-1.76591094e-07,2.53125000e-04,2.00675000e-02,-7.10937500e-05
-1.76551094e-07,2.34375000e-04,2.01512500e-02,1.79687500e-05
-1.76511094e-07,2.25000000e-04,2.02112500e-02,1.59375000e-04
-1.76471094e-07,2.71875000e-04,2.02237500e-02,2.70312500e-04
-1.76431094e-07,3.87500000e-04,2.02125000e-02,2.83593750e-04
-1.76391094e-07,5.42187500e-04,2.02187500e-02,2.00000000e-04
-1.76351094e-07,6.67187500e-04,2.02581250e-02,8.75000000e-05
-1.76311094e-07,6.90625000e-04,2.03093750e-02,3.43750000e-05
-1.76271094e-07,5.79687500e-04,2.03381250e-02,7.81250000e-05
-1.76231094e-07,3.62500000e-04,2.03318750e-02,1.82031250e-04
-1.76191094e-07,1.28125000e-04,2.03081250e-02,2.59375000e-04
-1.76151094e-07,-2.03125000e-05,2.02918750e-02,2.45312500e-04
-1.76111094e-07,-1.09375000e-05,2.02831250e-02,1.43750000e-04
-1.76071094e-07,1.39062500e-04,2.02550000e-02,1.79687500e-05
-1.76031094e-07,3.32812500e-04,2.01793750e-02,-6.25000000e-05
-1.75991094e-07,4.46875000e-04,2.00687500e-02,-7.50000000e-05
-1.75951094e-07,4.21875000e-04,1.99806250e-02,-5.70312500e-05
-1.75911094e-07,3.00000000e-04,1.99850000e-02,-6.32812500e-05
-1.75871094e-07,2.09375000e-04,2.01025000e-02,-1.17187500e-04
-1.75831094e-07,2.62500000e-04,2.02825000e-02,-1.86718750e-04
-1.75791094e-07,4.79687500e-04,2.04268750e-02,-2.13281250e-04
-1.75751094e-07,7.59375000e-04,2.04575000e-02,-1.59375000e-04
-1.75711094e-07,9.48437500e-04,2.03700000e-02,-4.21875000e-05
-1.75671094e-07,9.57812500e-04,2.02375000e-02,8.20312500e-05
-1.75631094e-07,8.14062500e-04,2.01537500e-02,1.51562500e-04
-1.75591094e-07,6.32812500e-04,2.01681250e-02,1.41406250e-04
-1.75551094e-07,5.31250000e-04,2.02556250e-02,6.79687500e-05
-1.75511094e-07,5.45312500e-04,2.03375000e-02,-2.81250000e-05
-1.75471094e-07,6.15625000e-04,2.03487500e-02,-1.11718750e-04
-1.75431094e-07,6.60937500e-04,2.02800000e-02,-1.74218750e-04
-1.75391094e-07,6.37500000e-04,2.01818750e-02,-2.21875000e-04
-1.75351094e-07,5.79687500e-04,2.01237500e-02,-2.66406250e-04
-1.75311094e-07,5.50000000e-04,2.01387500e-02,-3.00000000e-04
-1.75271094e-07,5.78125000e-04,2.02068750e-02,-3.02343750e-04
-1.75231094e-07,6.34375000e-04,2.02731250e-02,-2.54687500e-04
-1.75191094e-07,6.50000000e-04,2.02900000e-02,-1.58593750e-04
-1.75151094e-07,5.82812500e-04,2.02506250e-02,-4.60937500e-05
-1.75111094e-07,4.45312500e-04,2.01850000e-02,3.43750000e-05
-1.75071094e-07,3.03125000e-04,2.01375000e-02,5.23437500e-05
-1.75031094e-07,2.31250000e-04,2.01350000e-02,1.56250000e-05
-1.74991094e-07,2.54687500e-04,2.01743750e-02,-3.04687500e-05
-1.74951094e-07,3.46875000e-04,2.02325000e-02,-3.98437500e-05
-1.74911094e-07,4.34375000e-04,2.02806250e-02,-4.68750000e-06
-1.74871094e-07,4.50000000e-04,2.02975000e-02,3.75000000e-05
-1.74831094e-07,3.60937500e-04,2.02750000e-02,2.73437500e-05
-1.74791094e-07,1.90625000e-04,2.02200000e-02,-5.70312500e-05
-1.74751094e-07,6.25000000e-06,2.01525000e-02,-1.77343750e-04
-1.74711094e-07,-1.07812500e-04,2.01050000e-02,-2.50000000e-04
-1.74671094e-07,-9.37500000e-05,2.01075000e-02,-2.07031250e-04
-1.74631094e-07,4.68750000e-05,2.01706250e-02,-5.31250000e-05
-1.74591094e-07,2.48437500e-04,2.02718750e-02,1.32812500e-04
-1.74551094e-07,4.20312500e-04,2.03625000e-02,2.49218750e-04
-1.74511094e-07,5.01562500e-04,2.03887500e-02,2.42187500e-04
-1.74471094e-07,5.04687500e-04,2.03287500e-02,1.39843750e-04
-1.74431094e-07,4.98437500e-04,2.02087500e-02,2.73437500e-05
-1.74391094e-07,5.60937500e-04,2.00968750e-02,-1.79687500e-05
-1.74351094e-07,7.10937500e-04,2.00606250e-02,1.95312500e-05
-1.74311094e-07,8.87500000e-04,2.01312500e-02,9.29687500e-05
-1.74271094e-07,9.76562500e-04,2.02737500e-02,1.34375000e-04
-1.74231094e-07,8.95312500e-04,2.04037500e-02,1.10156250e-04
-1.74191094e-07,6.35937500e-04,2.04375000e-02,3.82812500e-05
-1.74151094e-07,2.92187500e-04,2.03418750e-02,-3.43750000e-05
-1.74111094e-07,4.68750000e-06,2.01618750e-02,-7.50000000e-05
-1.74071094e-07,-1.09375000e-04,2.00006250e-02,-8.59375000e-05
-1.74031094e-07,-2.34375000e-05,1.99575000e-02,-9.37500000e-05
-1.73991094e-07,1.84375000e-04,2.00612500e-02,-1.14843750e-04
-1.73951094e-07,3.78125000e-04,2.02512500e-02,-1.38281250e-04
-1.73911094e-07,4.45312500e-04,2.04106250e-02,-1.37500000e-04
-1.73871094e-07,3.65625000e-04,2.04406250e-02,-1.00000000e-04
-1.73831094e-07,2.32812500e-04,2.03268750e-02,-3.98437500e-05
-1.73791094e-07,1.81250000e-04,2.01468750e-02,1.09375000e-05
-1.73751094e-07,2.90625000e-04,2.00187500e-02,3.98437500e-05
-1.73711094e-07,5.15625000e-04,2.00200000e-02,6.32812500e-05
-1.73671094e-07,7.04687500e-04,2.01393750e-02,1.10937500e-04
-1.73631094e-07,7.04687500e-04,2.02850000e-02,1.89843750e-04
-1.73591094e-07,4.76562500e-04,2.03531250e-02,2.60937500e-04
-1.73551094e-07,1.34375000e-04,2.02981250e-02,2.65625000e-04
-1.73511094e-07,-1.21875000e-04,2.01625000e-02,1.75781250e-04
-1.73471094e-07,-1.39062500e-04,2.00425000e-02,2.73437500e-05
-1.73431094e-07,8.90625000e-05,2.00168750e-02,-9.21875000e-05
-1.73391094e-07,4.21875000e-04,2.00987500e-02,-1.05468750e-04
-1.73351094e-07,6.78125000e-04,2.02262500e-02,-7.81250000e-06
-1.73311094e-07,7.57812500e-04,2.03156250e-02,1.26562500e-04
-1.73271094e-07,6.81250000e-04,2.03175000e-02,1.96875000e-04
-1.73231094e-07,5.65625000e-04,2.02412500e-02,1.57031250e-04
-1.73191094e-07,5.14062500e-04,2.01406250e-02,4.76562500e-05
-1.73151094e-07,5.57812500e-04,2.00712500e-02,-3.43750000e-05
-1.73111094e-07,6.48437500e-04,2.00543750e-02,-1.40625000e-05
-1.73071094e-07,7.04687500e-04,2.00806250e-02,1.03906250e-04
-1.73031094e-07,6.79687500e-04,2.01262500e-02,2.39062500e-04
-1.72991094e-07,5.75000000e-04,2.01756250e-02,2.97656250e-04
-1.72951094e-07,4.31250000e-04,2.02200000e-02,2.43750000e-04
-1.72911094e-07,2.95312500e-04,2.02506250e-02,1.18750000e-04
-1.72871094e-07,2.04687500e-04,2.02512500e-02,7.81250000e-07
-1.72831094e-07,1.75000000e-04,2.02143750e-02,-6.17187500e-05
-1.72791094e-07,2.12500000e-04,2.01550000e-02,-7.89062500e-05
-1.72751094e-07,3.10937500e-04,2.01100000e-02,-9.68750000e-05
-1.72711094e-07,4.40625000e-04,2.01175000e-02,-1.44531250e-04
-1.72671094e-07,5.60937500e-04,2.01843750e-02,-1.96875000e-04
-1.72631094e-07,6.23437500e-04,2.02756250e-02,-2.02343750e-04
-1.72591094e-07,5.96875000e-04,2.03325000e-02,-1.28906250e-04
-1.72551094e-07,4.81250000e-04,2.03143750e-02,-1.01562500e-05
-1.72511094e-07,3.07812500e-04,2.02262500e-02,7.96875000e-05
-1.72471094e-07,1.29687500e-04,2.01168750e-02,7.65625000e-05
-1.72431094e-07,1.56250000e-06,2.00493750e-02,-1.56250000e-05
-1.72391094e-07,-2.81250000e-05,2.00637500e-02,-1.30468750e-04
-1.72351094e-07,4.84375000e-05,2.01568750e-02,-1.88281250e-04
-1.72311094e-07,1.92187500e-04,2.02843750e-02,-1.57812500e-04
-1.72271094e-07,3.18750000e-04,2.03862500e-02,-7.57812500e-05
-1.72231094e-07,3.34375000e-04,2.04112500e-02,-8.59375000e-06
-1.72191094e-07,1.98437500e-04,2.03443750e-02,3.12500000e-06
-1.72151094e-07,-3.43750000e-05,2.02131250e-02,-2.50000000e-05
-1.72111094e-07,-2.32812500e-04,2.00837500e-02,-4.68750000e-05
-1.72071094e-07,-2.59375000e-04,2.00312500e-02,-3.12500000e-05
-1.72031094e-07,-7.03125000e-05,2.00918750e-02,2.34375000e-06
-1.71991094e-07,2.45312500e-04,2.02362500e-02,1.01562500e-05
-1.71951094e-07,5.18750000e-04,2.03750000e-02,-3.51562500e-05
-1.71911094e-07,6.12500000e-04,2.04112500e-02,-1.07031250e-04
-1.71871094e-07,5.17187500e-04,2.03106250e-02,-1.42187500e-04
-1.71831094e-07,3.45312500e-04,2.01368750e-02,-9.68750000e-05
-1.71791094e-07,2.43750000e-04,2.00150000e-02,1.40625000e-05
-1.71751094e-07,2.81250000e-04,2.00500000e-02,1.14062500e-04
-1.71711094e-07,4.04687500e-04,2.02450000e-02,1.25781250e-04
-1.71671094e-07,4.92187500e-04,2.04887500e-02,3.35937500e-05
-1.71631094e-07,4.53125000e-04,2.06331250e-02,-1.01562500e-04
-1.71591094e-07,3.01562500e-04,2.05918750e-02,-1.78906250e-04
-1.71551094e-07,1.39062500e-04,2.04050000e-02,-1.36718750e-04
-1.71511094e-07,6.87500000e-05,2.02087500e-02,8.59375000e-06
-1.71471094e-07,1.15625000e-04,2.01337500e-02,1.71875000e-04
-1.71431094e-07,2.18750000e-04,2.02162500e-02,2.66406250e-04
-1.71391094e-07,2.84375000e-04,2.03781250e-02,2.57031250e-04
-1.71351094e-07,2.60937500e-04,2.04975000e-02,1.78906250e-04
-1.71311094e-07,1.78125000e-04,2.04987500e-02,9.60937500e-05
-1.71271094e-07,1.15625000e-04,2.04006250e-02,5.54687500e-05
-1.71231094e-07,1.40625000e-04,2.02843750e-02,6.32812500e-05
-1.71191094e-07,2.60937500e-04,2.02200000e-02,9.45312500e-05
-1.71151094e-07,4.21875000e-04,2.02181250e-02,1.23437500e-04
-1.71111094e-07,5.43750000e-04,2.02375000e-02,1.37500000e-04
-1.71071094e-07,5.76562500e-04,2.02387500e-02,1.34375000e-04
-1.71031094e-07,5.23437500e-04,2.02231250e-02,1.03906250e-04
-1.70991094e-07,4.35937500e-04,2.02231250e-02,3.75000000e-05
-1.70951094e-07,3.76562500e-04,2.02581250e-02,-6.25000000e-05
-1.70911094e-07,3.81250000e-04,2.03037500e-02,-1.67187500e-04
-1.70871094e-07,4.50000000e-04,2.03068750e-02,-2.29687500e-04
-1.70831094e-07,5.48437500e-04,2.02356250e-02,-2.18750000e-04
-1.70791094e-07,6.32812500e-04,2.01168750e-02,-1.44531250e-04
-1.70751094e-07,6.70312500e-04,2.00250000e-02,-5.31250000e-05
-1.70711094e-07,6.59375000e-04,2.00250000e-02,2.34375000e-06
-1.70671094e-07,6.14062500e-04,2.01193750e-02,2.34375000e-06
-1.70631094e-07,5.73437500e-04,2.02462500e-02,-2.34375000e-05
-1.70591094e-07,5.62500000e-04,2.03300000e-02,-2.65625000e-05
-1.70551094e-07,5.93750000e-04,2.03362500e-02,2.03125000e-05
-1.70511094e-07,6.45312500e-04,2.02937500e-02,9.60937500e-05
-1.70471094e-07,6.75000000e-04,2.02556250e-02,1.42968750e-04
-1.70431094e-07,6.46875000e-04,2.02500000e-02,1.10937500e-04
-1.70391094e-07,5.51562500e-04,2.02543750e-02,-4.68750000e-06
-1.70351094e-07,4.26562500e-04,2.02225000e-02,-1.52343750e-04
-1.70311094e-07,3.31250000e-04,2.01375000e-02,-2.60937500e-04
-1.70271094e-07,3.20312500e-04,2.00350000e-02,-2.85156250e-04
-1.70231094e-07,4.04687500e-04,1.99818750e-02,-2.30468750e-04
-1.70191094e-07,5.43750000e-04,2.00218750e-02,-1.46875000e-04
-1.70151094e-07,6.65625000e-04,2.01381250e-02,-8.82812500e-05
-1.70111094e-07,7.06250000e-04,2.02593750e-02,-8.28125000e-05
-1.70071094e-07,6.48437500e-04,2.03118750e-02,-1.21093750e-04
-1.70031094e-07,5.25000000e-04,2.02706250e-02,-1.78125000e-04
-1.69991094e-07,4.04687500e-04,2.01718750e-02,-2.32031250e-04
-1.69951094e-07,3.45312500e-04,2.00775000e-02,-2.72656250e-04
-1.69911094e-07,3.68750000e-04,2.00331250e-02,-2.96093750e-04
-1.69871094e-07,4.50000000e-04,2.00406250e-02,-2.90625000e-04
-1.69831094e-07,5.23437500e-04,2.00737500e-02,-2.43750000e-04
-1.69791094e-07,5.26562500e-04,2.01068750e-02,-1.47656250e-04
-1.69751094e-07,4.29687500e-04,2.01331250e-02,-1.09375000e-05
-1.69711094e-07,2.64062500e-04,2.01575000e-02,1.32812500e-04
-1.69671094e-07,1.04687500e-04,2.01768750e-02,2.46875000e-04
-1.69631094e-07,3.43750000e-05,2.01725000e-02,3.01562500e-04
-1.69591094e-07,9.68750000e-05,2.01300000e-02,2.91406250e-04
-1.69551094e-07,2.59375000e-04,2.00643750e-02,2.35156250e-04
-1.69511094e-07,4.39062500e-04,2.00250000e-02,1.63281250e-04
-1.69471094e-07,5.45312500e-04,2.00637500e-02,1.04687500e-04
-1.69431094e-07,5.51562500e-04,2.01912500e-02,7.10937500e-05
-1.69391094e-07,5.01562500e-04,2.03537500e-02,5.39062500e-05
-1.69351094e-07,4.73437500e-04,2.04625000e-02,3.51562500e-05
-1.69311094e-07,5.12500000e-04,2.04506250e-02,5.46875000e-06
-1.69271094e-07,5.93750000e-04,2.03256250e-02,-2.18750000e-05
-1.69231094e-07,6.35937500e-04,2.01656250e-02,-2.26562500e-05
-1.69191094e-07,5.71875000e-04,2.00668750e-02,1.95312500e-05
-1.69151094e-07,4.07812500e-04,2.00737500e-02,8.82812500e-05
-1.69111094e-07,2.18750000e-04,2.01500000e-02,1.37500000e-04
-1.69071094e-07,1.00000000e-04,2.02131250e-02,1.23437500e-04
-1.69031094e-07,9.21875000e-05,2.02012500e-02,4.14062500e-05
-1.68991094e-07,1.67187500e-04,2.01225000e-02,-6.09375000e-05
-1.68951094e-07,2.59375000e-04,2.00437500e-02,-1.10156250e-04
-1.68911094e-07,3.18750000e-04,2.00375000e-02,-5.85937500e-05
-1.68871094e-07,3.48437500e-04,2.01193750e-02,8.04687500e-05
-1.68831094e-07,3.75000000e-04,2.02356250e-02,2.37500000e-04
-1.68791094e-07,4.21875000e-04,2.03068750e-02,3.40625000e-04
-1.68751094e-07,4.76562500e-04,2.02850000e-02,3.57812500e-04
-1.68711094e-07,5.14062500e-04,2.01875000e-02,3.12500000e-04
-1.68671094e-07,5.25000000e-04,2.00806250e-02,2.53125000e-04
-1.68631094e-07,5.31250000e-04,2.00287500e-02,2.07812500e-04
-1.68591094e-07,5.57812500e-04,2.00600000e-02,1.71093750e-04
-1.68551094e-07,6.04687500e-04,2.01562500e-02,1.22656250e-04
-1.68511094e-07,6.37500000e-04,2.02768750e-02,6.48437500e-05
-1.68471094e-07,6.12500000e-04,2.03812500e-02,3.04687500e-05
-1.68431094e-07,5.12500000e-04,2.04368750e-02,6.09375000e-05
-1.68391094e-07,3.62500000e-04,2.04237500e-02,1.57812500e-04
-1.68351094e-07,2.14062500e-04,2.03343750e-02,2.69531250e-04
-1.68311094e-07,1.17187500e-04,2.01912500e-02,3.21875000e-04
-1.68271094e-07,9.37500000e-05,2.00518750e-02,2.69531250e-04
-1.68231094e-07,1.39062500e-04,1.99868750e-02,1.38281250e-04
-1.68191094e-07,2.31250000e-04,2.00412500e-02,6.25000000e-06
-1.68151094e-07,3.50000000e-04,2.01912500e-02,-4.45312500e-05
-1.68111094e-07,4.71875000e-04,2.03475000e-02,1.32812500e-05
-1.68071094e-07,5.70312500e-04,2.04093750e-02,1.39843750e-04
-1.68031094e-07,6.25000000e-04,2.03312500e-02,2.58593750e-04
-1.67991094e-07,6.35937500e-04,2.01625000e-02,3.04687500e-04
-1.67951094e-07,6.25000000e-04,2.00156250e-02,2.57812500e-04
-1.67911094e-07,6.18750000e-04,1.99868750e-02,1.42187500e-04
-1.67871094e-07,6.21875000e-04,2.00881250e-02,7.81250000e-06
-1.67831094e-07,6.04687500e-04,2.02356250e-02,-9.21875000e-05
-1.67791094e-07,5.26562500e-04,2.03118750e-02,-1.21093750e-04
-1.67751094e-07,3.73437500e-04,2.02500000e-02,-7.18750000e-05
-1.67711094e-07,1.92187500e-04,2.00868750e-02,2.73437500e-05
-1.67671094e-07,6.56250000e-05,1.99318750e-02,1.18750000e-04
-1.67631094e-07,6.56250000e-05,1.98956250e-02,1.39062500e-04
-1.67591094e-07,1.98437500e-04,2.00087500e-02,6.40625000e-05
-1.67551094e-07,3.90625000e-04,2.02068750e-02,-7.73437500e-05
-1.67511094e-07,5.37500000e-04,2.03762500e-02,-2.12500000e-04
-1.67471094e-07,5.67187500e-04,2.04318750e-02,-2.73437500e-04
-1.67431094e-07,4.78125000e-04,2.03668750e-02,-2.35937500e-04
-1.67391094e-07,3.35937500e-04,2.02475000e-02,-1.32812500e-04
