waveforms/110924/Tek016.csv

Model,MSO64
Waveform Type,ANALOG
Horizontal Units,s
Sample Interval,2.00000000e-12
Record Length,1000
Zero Index,99.81250000
Vertical Units,V
ANALOG_Thumbnail,

TIME,CH1
-1.99625000e-10,4.59531250e-03
-1.97625000e-10,4.65507813e-03
-1.95625000e-10,4.68960938e-03
-1.93625000e-10,4.74273438e-03
-1.91625000e-10,4.75468750e-03
-1.89625000e-10,4.79187500e-03
-1.87625000e-10,4.84765625e-03
-1.85625000e-10,4.86625000e-03
-1.83625000e-10,4.93796875e-03
-1.81625000e-10,4.98710938e-03
-1.79625000e-10,5.03093750e-03
-1.77625000e-10,5.00570313e-03
-1.75625000e-10,5.08273438e-03
-1.73625000e-10,5.09734375e-03
-1.71625000e-10,5.14781250e-03
-1.69625000e-10,5.20226563e-03
-1.67625000e-10,5.23015625e-03
-1.65625000e-10,5.25539063e-03
-1.63625000e-10,5.30054688e-03
-1.61625000e-10,5.30851563e-03
-1.59625000e-10,5.36031250e-03
-1.57625000e-10,5.42007813e-03
-1.55625000e-10,5.45195313e-03
-1.53625000e-10,5.50773438e-03
-1.51625000e-10,5.52234375e-03
-1.49625000e-10,5.55953125e-03
-1.47625000e-10,5.61664063e-03
-1.45625000e-10,5.63656250e-03
-1.43625000e-10,5.70828125e-03
-1.41625000e-10,5.75609375e-03
-1.39625000e-10,5.79859375e-03
-1.37625000e-10,5.77601563e-03
-1.35625000e-10,5.85039063e-03
-1.33625000e-10,5.87164063e-03
-1.31625000e-10,5.91546875e-03
-1.29625000e-10,5.97789063e-03
-1.27625000e-10,6.00710938e-03
-1.25625000e-10,6.03765625e-03
-1.23625000e-10,6.08148438e-03
-1.21625000e-10,6.09476563e-03
-1.19625000e-10,6.14789063e-03
-1.17625000e-10,6.21031250e-03
-1.15625000e-10,6.23953125e-03
-1.13625000e-10,6.30062500e-03
-1.11625000e-10,6.32187500e-03
-1.09625000e-10,6.36437500e-03
-1.07625000e-10,6.42546875e-03
-1.05625000e-10,6.44937500e-03
-1.03625000e-10,6.52507813e-03
-1.01625000e-10,6.57820313e-03
-9.96250000e-11,6.62335938e-03
-9.76250000e-11,6.61007813e-03
-9.56250000e-11,6.68312500e-03
-9.36250000e-11,6.71898438e-03
-9.16250000e-11,6.76281250e-03
-8.96250000e-11,6.83718750e-03
-8.76250000e-11,6.87304688e-03
-8.56250000e-11,6.91687500e-03
-8.36250000e-11,6.96734375e-03
-8.16250000e-11,6.99257813e-03
-7.96250000e-11,7.05234375e-03
-7.76250000e-11,7.12539063e-03
-7.56250000e-11,7.16257813e-03
-7.36250000e-11,7.23296875e-03
-7.16250000e-11,7.26882813e-03
-6.96250000e-11,7.32726563e-03
-6.76250000e-11,7.40031250e-03
-6.56250000e-11,7.43750000e-03
-6.36250000e-11,7.52648438e-03
-6.16250000e-11,7.59421875e-03
-5.96250000e-11,7.65531250e-03
-5.76250000e-11,7.66195313e-03
-5.56250000e-11,7.74562500e-03
-5.36250000e-11,7.80273438e-03
-5.16250000e-11,7.86250000e-03
-4.96250000e-11,7.95812500e-03
-4.76250000e-11,8.01257813e-03
-4.56250000e-11,8.08164063e-03
-4.36250000e-11,8.15203125e-03
-4.16250000e-11,8.20515625e-03
-3.96250000e-11,8.28484375e-03
-3.76250000e-11,8.38046875e-03
-3.56250000e-11,8.44156250e-03
-3.36250000e-11,8.53453125e-03
-3.16250000e-11,8.60359375e-03
-2.96250000e-11,8.69257813e-03
-2.76250000e-11,8.79351563e-03
-2.56250000e-11,8.86125000e-03
-2.36250000e-11,8.98078125e-03
-2.16250000e-11,9.08039063e-03
-1.96250000e-11,9.17468750e-03
-1.76250000e-11,9.22382813e-03
-1.56250000e-11,9.33406250e-03
-1.36250000e-11,9.43234375e-03
-1.16250000e-11,9.52929688e-03
-9.62500000e-12,9.66343750e-03
-7.62500000e-12,9.75906250e-03
-5.62500000e-12,9.87593750e-03
-3.62500000e-12,9.99015625e-03
-1.62500000e-12,1.00924219e-02
3.75000000e-13,1.02146094e-02
2.37500000e-12,1.03553906e-02
4.37500000e-12,1.04656250e-02
6.37500000e-12,1.06024219e-02
8.37500000e-12,1.07312500e-02
1.03750000e-11,1.08733594e-02
1.23750000e-11,1.10260938e-02
1.43750000e-11,1.11496094e-02
1.63750000e-11,1.13235938e-02
1.83750000e-11,1.14829688e-02
2.03750000e-11,1.16383594e-02
2.23750000e-11,1.17565625e-02
2.43750000e-11,1.19225781e-02
2.63750000e-11,1.20859375e-02
2.83750000e-11,1.22479688e-02
3.03750000e-11,1.24458594e-02
3.23750000e-11,1.26118750e-02
3.43750000e-11,1.28031250e-02
3.63750000e-11,1.29877344e-02
3.83750000e-11,1.31670313e-02
4.03750000e-11,1.33609375e-02
4.23750000e-11,1.35747656e-02
4.43750000e-11,1.37646875e-02
4.63750000e-11,1.39718750e-02
4.83750000e-11,1.41870313e-02
5.03750000e-11,1.44101563e-02
5.23750000e-11,1.46399219e-02
5.43750000e-11,1.48471094e-02
5.63750000e-11,1.51034375e-02
5.83750000e-11,1.53464844e-02
6.03750000e-11,1.55921875e-02
6.23750000e-11,1.58060156e-02
6.43750000e-11,1.60557031e-02
6.63750000e-11,1.63053906e-02
6.83750000e-11,1.65617188e-02
7.03750000e-11,1.68432813e-02
7.23750000e-11,1.71035938e-02
7.43750000e-11,1.73944531e-02
7.63750000e-11,1.76720313e-02
7.83750000e-11,1.79496094e-02
8.03750000e-11,1.82364844e-02
8.23750000e-11,1.85432813e-02
8.43750000e-11,1.88341406e-02
8.63750000e-11,1.91303125e-02
8.83750000e-11,1.94490625e-02
9.03750000e-11,1.97691406e-02
9.23750000e-11,2.00892188e-02
9.43750000e-11,2.03973438e-02
9.63750000e-11,2.07492969e-02
9.83750000e-11,2.10879688e-02
1.00375000e-10,2.14359375e-02
1.02375000e-10,2.17560156e-02
1.04375000e-10,2.20986719e-02
1.06375000e-10,2.24439844e-02
1.08375000e-10,2.27999219e-02
1.10375000e-10,2.31691406e-02
1.12375000e-10,2.35303906e-02
1.14375000e-10,2.39182031e-02
1.16375000e-10,2.42887500e-02
1.18375000e-10,2.46646094e-02
1.20375000e-10,2.50431250e-02
1.22375000e-10,2.54375781e-02
1.24375000e-10,2.58267188e-02
1.26375000e-10,2.62052344e-02
1.28375000e-10,2.66169531e-02
1.30375000e-10,2.70233594e-02
1.32375000e-10,2.74204688e-02
1.34375000e-10,2.78162500e-02
1.36375000e-10,2.82478906e-02
1.38375000e-10,2.86622656e-02
1.40375000e-10,2.90952344e-02
1.42375000e-10,2.94976563e-02
1.44375000e-10,2.99133594e-02
1.46375000e-10,3.03277344e-02
1.48375000e-10,3.07540625e-02
1.50375000e-10,3.11817188e-02
1.52375000e-10,3.16133594e-02
1.54375000e-10,3.20649219e-02
1.56375000e-10,3.24925781e-02
1.58375000e-10,3.29295313e-02
1.60375000e-10,3.33625000e-02
1.62375000e-10,3.38034375e-02
1.64375000e-10,3.42496875e-02
1.66375000e-10,3.46653906e-02
1.68375000e-10,3.51222656e-02
1.70375000e-10,3.55658594e-02
1.72375000e-10,3.59921875e-02
1.74375000e-10,3.64251563e-02
1.76375000e-10,3.68807031e-02
1.78375000e-10,3.73163281e-02
1.80375000e-10,3.77771875e-02
1.82375000e-10,3.82021875e-02
1.84375000e-10,3.86311719e-02
1.86375000e-10,3.90561719e-02
1.88375000e-10,3.94891406e-02
1.90375000e-10,3.99088281e-02
1.92375000e-10,4.03457813e-02
1.94375000e-10,4.07920313e-02
1.96375000e-10,4.12077344e-02
1.98375000e-10,4.16367188e-02
2.00375000e-10,4.20524219e-02
2.02375000e-10,4.24681250e-02
2.04375000e-10,4.28984375e-02
2.06375000e-10,4.32769531e-02
2.08375000e-10,4.37019531e-02
2.10375000e-10,4.41083594e-02
2.12375000e-10,4.44882031e-02
2.14375000e-10,4.48786719e-02
2.16375000e-10,4.52810938e-02
2.18375000e-10,4.56556250e-02
2.20375000e-10,4.60646875e-02
2.22375000e-10,4.64299219e-02
2.24375000e-10,4.67951563e-02
2.26375000e-10,4.71497656e-02
2.28375000e-10,4.75057031e-02
2.30375000e-10,4.78390625e-02
2.32375000e-10,4.81976563e-02
2.34375000e-10,4.85562500e-02
2.36375000e-10,4.88789844e-02
2.38375000e-10,4.92189844e-02
2.40375000e-10,4.95377344e-02
2.42375000e-10,4.98458594e-02
2.44375000e-10,5.01778906e-02
2.46375000e-10,5.04435156e-02
2.48375000e-10,5.07556250e-02
2.50375000e-10,5.10451563e-02
2.52375000e-10,5.13028125e-02
2.54375000e-10,5.15737500e-02
2.56375000e-10,5.18446875e-02
2.58375000e-10,5.20864063e-02
2.60375000e-10,5.23679688e-02
2.62375000e-10,5.25977344e-02
2.64375000e-10,5.28275000e-02
2.66375000e-10,5.30439844e-02
2.68375000e-10,5.32525000e-02
2.70375000e-10,5.34344531e-02
2.72375000e-10,5.36469531e-02
2.74375000e-10,5.38514844e-02
2.76375000e-10,5.40201563e-02
2.78375000e-10,5.42100781e-02
2.80375000e-10,5.43707813e-02
2.82375000e-10,5.45142188e-02
2.84375000e-10,5.46921875e-02
2.86375000e-10,5.47917969e-02
2.88375000e-10,5.49392188e-02
2.90375000e-10,5.50640625e-02
2.92375000e-10,5.51530469e-02
2.94375000e-10,5.52579688e-02
2.96375000e-10,5.53549219e-02
2.98375000e-10,5.54226563e-02
3.00375000e-10,5.55368750e-02
3.02375000e-10,5.55939844e-02
3.04375000e-10,5.56550781e-02
3.06375000e-10,5.57042188e-02
3.08375000e-10,5.57360938e-02
3.10375000e-10,5.57414063e-02
3.12375000e-10,5.57812500e-02
3.14375000e-10,5.58104688e-02
3.16375000e-10,5.58064844e-02
3.18375000e-10,5.58290625e-02
3.20375000e-10,5.58184375e-02
3.22375000e-10,5.57865625e-02
3.24375000e-10,5.57971875e-02
3.26375000e-10,5.57294531e-02
3.28375000e-10,5.57068750e-02
3.30375000e-10,5.56657031e-02
3.32375000e-10,5.55886719e-02
3.34375000e-10,5.55315625e-02
3.36375000e-10,5.54585156e-02
3.38375000e-10,5.53642188e-02
3.40375000e-10,5.53177344e-02
3.42375000e-10,5.52167969e-02
3.44375000e-10,5.51225000e-02
3.46375000e-10,5.50242188e-02
3.48375000e-10,5.48980469e-02
3.50375000e-10,5.47546094e-02
3.52375000e-10,5.46457031e-02
3.54375000e-10,5.45261719e-02
3.56375000e-10,5.43800781e-02
3.58375000e-10,5.42632031e-02
3.60375000e-10,5.41144531e-02
3.62375000e-10,5.39417969e-02
3.64375000e-10,5.38209375e-02
3.66375000e-10,5.36270313e-02
3.68375000e-10,5.34756250e-02
3.70375000e-10,5.33096094e-02
3.72375000e-10,5.31130469e-02
3.74375000e-10,5.29364063e-02
3.76375000e-10,5.27411719e-02
3.78375000e-10,5.25366406e-02
3.80375000e-10,5.23759375e-02
3.82375000e-10,5.21687500e-02
3.84375000e-10,5.19721875e-02
3.86375000e-10,5.17782813e-02
3.88375000e-10,5.15538281e-02
3.90375000e-10,5.13187500e-02
3.92375000e-10,5.11155469e-02
3.94375000e-10,5.09070313e-02
3.96375000e-10,5.06799219e-02
3.98375000e-10,5.04793750e-02
4.00375000e-10,5.02535938e-02
4.02375000e-10,5.00025781e-02
4.04375000e-10,4.98100000e-02
4.06375000e-10,4.95550000e-02
4.08375000e-10,4.93345313e-02
4.10375000e-10,4.91100781e-02
4.12375000e-10,4.88550781e-02
4.14375000e-10,4.86239844e-02
4.16375000e-10,4.83716406e-02
4.18375000e-10,4.81206250e-02
4.20375000e-10,4.79081250e-02
4.22375000e-10,4.76610938e-02
4.24375000e-10,4.74220313e-02
4.26375000e-10,4.71962500e-02
4.28375000e-10,4.69372656e-02
4.30375000e-10,4.66756250e-02
4.32375000e-10,4.64405469e-02
4.34375000e-10,4.62041406e-02
4.36375000e-10,4.59557813e-02
4.38375000e-10,4.57339844e-02
4.40375000e-10,4.54882813e-02
4.42375000e-10,4.52213281e-02
4.44375000e-10,4.50114844e-02
4.46375000e-10,4.47538281e-02
4.48375000e-10,4.45240625e-02
4.50375000e-10,4.42942969e-02
4.52375000e-10,4.40379688e-02
4.54375000e-10,4.38055469e-02
4.56375000e-10,4.35518750e-02
4.58375000e-10,4.33075000e-02
4.60375000e-10,4.30896875e-02
4.62375000e-10,4.28546094e-02
4.64375000e-10,4.26208594e-02
4.66375000e-10,4.24096875e-02
4.68375000e-10,4.21639844e-02
4.70375000e-10,4.19209375e-02
4.72375000e-10,4.17004688e-02
4.74375000e-10,4.14773438e-02
4.76375000e-10,4.12515625e-02
4.78375000e-10,4.10430469e-02
4.80375000e-10,4.08172656e-02
4.82375000e-10,4.05742188e-02
4.84375000e-10,4.03816406e-02
4.86375000e-10,4.01571875e-02
4.88375000e-10,3.99486719e-02
4.90375000e-10,3.97467969e-02
4.92375000e-10,3.95196875e-02
4.94375000e-10,3.93151563e-02
4.96375000e-10,3.90893750e-02
4.98375000e-10,3.88795313e-02
5.00375000e-10,3.86816406e-02
5.02375000e-10,3.84837500e-02
5.04375000e-10,3.82765625e-02
5.06375000e-10,3.80999219e-02
5.08375000e-10,3.78900781e-02
5.10375000e-10,3.76855469e-02
5.12375000e-10,3.74956250e-02
5.14375000e-10,3.73030469e-02
5.16375000e-10,3.71144531e-02
5.18375000e-10,3.69351563e-02
5.20375000e-10,3.67425781e-02
5.22375000e-10,3.65367188e-02
5.24375000e-10,3.63720313e-02
5.26375000e-10,3.61900781e-02
5.28375000e-10,3.60134375e-02
5.30375000e-10,3.58460938e-02
5.32375000e-10,3.56561719e-02
5.34375000e-10,3.54875000e-02
5.36375000e-10,3.52962500e-02
5.38375000e-10,3.51235938e-02
5.40375000e-10,3.49522656e-02
5.42375000e-10,3.47942188e-02
5.44375000e-10,3.46162500e-02
5.46375000e-10,3.44728125e-02
5.48375000e-10,3.43014844e-02
5.50375000e-10,3.41354688e-02
5.52375000e-10,3.39774219e-02
5.54375000e-10,3.38153906e-02
5.56375000e-10,3.36613281e-02
5.58375000e-10,3.35112500e-02
5.60375000e-10,3.33492188e-02
5.62375000e-10,3.31805469e-02
5.64375000e-10,3.30397656e-02
5.66375000e-10,3.28936719e-02
5.68375000e-10,3.27462500e-02
5.70375000e-10,3.26067969e-02
5.72375000e-10,3.24514063e-02
5.74375000e-10,3.23146094e-02
5.76375000e-10,3.21539063e-02
5.78375000e-10,3.20131250e-02
5.80375000e-10,3.18630469e-02
5.82375000e-10,3.17408594e-02
5.84375000e-10,3.15881250e-02
5.86375000e-10,3.14699219e-02
5.88375000e-10,3.13331250e-02
5.90375000e-10,3.11976563e-02
5.92375000e-10,3.10661719e-02
5.94375000e-10,3.09307031e-02
5.96375000e-10,3.08032031e-02
5.98375000e-10,3.06783594e-02
6.00375000e-10,3.05442188e-02
6.02375000e-10,3.04060938e-02
6.04375000e-10,3.02839063e-02
6.06375000e-10,3.01683594e-02
6.08375000e-10,3.00448438e-02
6.10375000e-10,2.99266406e-02
6.12375000e-10,2.98017969e-02
6.14375000e-10,2.96928906e-02
6.16375000e-10,2.95574219e-02
6.18375000e-10,2.94445313e-02
6.20375000e-10,2.93130469e-02
6.22375000e-10,2.92214063e-02
6.24375000e-10,2.90925781e-02
6.26375000e-10,2.89942969e-02
6.28375000e-10,2.88880469e-02
6.30375000e-10,2.87791406e-02
6.32375000e-10,2.86715625e-02
6.34375000e-10,2.85600000e-02
6.36375000e-10,2.84577344e-02
6.38375000e-10,2.83554688e-02
6.40375000e-10,2.82465625e-02
6.42375000e-10,2.81389844e-02
6.44375000e-10,2.80327344e-02
6.46375000e-10,2.79437500e-02
6.48375000e-10,2.78441406e-02
6.50375000e-10,2.77471875e-02
6.52375000e-10,2.76515625e-02
6.54375000e-10,2.75665625e-02
6.56375000e-10,2.74576563e-02
6.58375000e-10,2.73686719e-02
6.60375000e-10,2.72584375e-02
6.62375000e-10,2.71973438e-02
6.64375000e-10,2.70924219e-02
6.66375000e-10,2.70140625e-02
6.68375000e-10,2.69370313e-02
6.70375000e-10,2.68520313e-02
6.72375000e-10,2.67683594e-02
6.74375000e-10,2.66807031e-02
6.76375000e-10,2.66023438e-02
6.78375000e-10,2.65253125e-02
6.80375000e-10,2.64416406e-02
6.82375000e-10,2.63632813e-02
6.84375000e-10,2.62756250e-02
6.86375000e-10,2.62105469e-02
6.88375000e-10,2.61348438e-02
6.90375000e-10,2.60578125e-02
6.92375000e-10,2.59914063e-02
6.94375000e-10,2.59303125e-02
6.96375000e-10,2.58479688e-02
6.98375000e-10,2.57815625e-02
7.00375000e-10,2.56952344e-02
7.02375000e-10,2.56580469e-02
7.04375000e-10,2.55796875e-02
7.06375000e-10,2.55185938e-02
7.08375000e-10,2.54694531e-02
7.10375000e-10,2.54070313e-02
7.12375000e-10,2.53472656e-02
7.14375000e-10,2.52808594e-02
7.16375000e-10,2.52264063e-02
7.18375000e-10,2.51706250e-02
7.20375000e-10,2.51108594e-02
7.22375000e-10,2.50577344e-02
7.24375000e-10,2.49900000e-02
7.26375000e-10,2.49461719e-02
7.28375000e-10,2.48917188e-02
7.30375000e-10,2.48332813e-02
7.32375000e-10,2.47894531e-02
7.34375000e-10,2.47482813e-02
7.36375000e-10,2.46871875e-02
7.38375000e-10,2.46420313e-02
7.40375000e-10,2.45769531e-02
7.42375000e-10,2.45583594e-02
7.44375000e-10,2.45039063e-02
7.46375000e-10,2.44560938e-02
7.48375000e-10,2.44282031e-02
7.50375000e-10,2.43830469e-02
7.52375000e-10,2.43405469e-02
7.54375000e-10,2.42900781e-02
7.56375000e-10,2.42542188e-02
7.58375000e-10,2.42130469e-02
7.60375000e-10,2.41718750e-02
7.62375000e-10,2.41360156e-02
7.64375000e-10,2.40842188e-02
7.66375000e-10,2.40536719e-02
7.68375000e-10,2.40138281e-02
7.70375000e-10,2.39686719e-02
7.72375000e-10,2.39394531e-02
7.74375000e-10,2.39102344e-02
7.76375000e-10,2.38664063e-02
7.78375000e-10,2.38332031e-02
7.80375000e-10,2.37827344e-02
7.82375000e-10,2.37721094e-02
7.84375000e-10,2.37335938e-02
7.86375000e-10,2.36924219e-02
7.88375000e-10,2.36778125e-02
7.90375000e-10,2.36419531e-02
7.92375000e-10,2.36074219e-02
7.94375000e-10,2.35649219e-02
7.96375000e-10,2.35383594e-02
7.98375000e-10,2.35051563e-02
8.00375000e-10,2.34719531e-02
8.02375000e-10,2.34453906e-02
8.04375000e-10,2.34028906e-02
8.06375000e-10,2.33763281e-02
8.08375000e-10,2.33404688e-02
8.10375000e-10,2.33006250e-02
8.12375000e-10,2.32780469e-02
8.14375000e-10,2.32514844e-02
8.16375000e-10,2.32142969e-02
8.18375000e-10,2.31850781e-02
8.20375000e-10,2.31412500e-02
8.22375000e-10,2.31266406e-02
8.24375000e-10,2.30960938e-02
8.26375000e-10,2.30549219e-02
8.28375000e-10,2.30442969e-02
8.30375000e-10,2.30084375e-02
8.32375000e-10,2.29752344e-02
8.34375000e-10,2.29314063e-02
8.36375000e-10,2.29048438e-02
8.38375000e-10,2.28703125e-02
8.40375000e-10,2.28371094e-02
8.42375000e-10,2.28105469e-02
8.44375000e-10,2.27693750e-02
8.46375000e-10,2.27388281e-02
8.48375000e-10,2.26989844e-02
8.50375000e-10,2.26578125e-02
8.52375000e-10,2.26339063e-02
8.54375000e-10,2.26007031e-02
8.56375000e-10,2.25635156e-02
8.58375000e-10,2.25303125e-02
8.60375000e-10,2.24851563e-02
8.62375000e-10,2.24599219e-02
8.64375000e-10,2.24280469e-02
8.66375000e-10,2.23789063e-02
8.68375000e-10,2.23669531e-02
8.70375000e-10,2.23231250e-02
8.72375000e-10,2.22832813e-02
8.74375000e-10,2.22328125e-02
8.76375000e-10,2.22009375e-02
8.78375000e-10,2.21584375e-02
8.80375000e-10,2.21185938e-02
8.82375000e-10,2.20853906e-02
8.84375000e-10,2.20402344e-02
8.86375000e-10,2.19990625e-02
8.88375000e-10,2.19512500e-02
8.90375000e-10,2.19021094e-02
8.92375000e-10,2.18702344e-02
8.94375000e-10,2.18264063e-02
8.96375000e-10,2.17839063e-02
8.98375000e-10,2.17427344e-02
9.00375000e-10,2.16909375e-02
9.02375000e-10,2.16484375e-02
9.04375000e-10,2.16125781e-02
9.06375000e-10,2.15514844e-02
9.08375000e-10,2.15328906e-02
9.10375000e-10,2.14784375e-02
9.12375000e-10,2.14279688e-02
9.14375000e-10,2.13642188e-02
9.16375000e-10,2.13243750e-02
9.18375000e-10,2.12712500e-02
9.20375000e-10,2.12194531e-02
9.22375000e-10,2.11769531e-02
9.24375000e-10,2.11238281e-02
9.26375000e-10,2.10693750e-02
9.28375000e-10,2.10096094e-02
9.30375000e-10,2.09525000e-02
9.32375000e-10,2.09100000e-02
9.34375000e-10,2.08542188e-02
9.36375000e-10,2.08024219e-02
9.38375000e-10,2.07506250e-02
9.40375000e-10,2.06908594e-02
9.42375000e-10,2.06310938e-02
9.44375000e-10,2.05859375e-02
9.46375000e-10,2.05128906e-02
9.48375000e-10,2.04863281e-02
9.50375000e-10,2.04199219e-02
9.52375000e-10,2.03575000e-02
9.54375000e-10,2.02817969e-02
9.56375000e-10,2.02326563e-02
9.58375000e-10,2.01662500e-02
9.60375000e-10,2.01051563e-02
9.62375000e-10,2.00520313e-02
9.64375000e-10,1.99909375e-02
9.66375000e-10,1.99245313e-02
9.68375000e-10,1.98541406e-02
9.70375000e-10,1.97864063e-02
9.72375000e-10,1.97346094e-02
9.74375000e-10,1.96668750e-02
9.76375000e-10,1.96084375e-02
9.78375000e-10,1.95473438e-02
9.80375000e-10,1.94809375e-02
9.82375000e-10,1.94052344e-02
9.84375000e-10,1.93547656e-02
9.86375000e-10,1.92710938e-02
9.88375000e-10,1.92378906e-02
9.90375000e-10,1.91635156e-02
9.92375000e-10,1.90931250e-02
9.94375000e-10,1.90081250e-02
9.96375000e-10,1.89523438e-02
9.98375000e-10,1.88779688e-02
1.00037500e-09,1.88089063e-02
1.00237500e-09,1.87504688e-02
1.00437500e-09,1.86840625e-02
1.00637500e-09,1.86123438e-02
1.00837500e-09,1.85353125e-02
1.01037500e-09,1.84635938e-02
1.01237500e-09,1.84078125e-02
1.01437500e-09,1.83347656e-02
1.01637500e-09,1.82736719e-02
1.01837500e-09,1.82099219e-02
1.02037500e-09,1.81408594e-02
1.02237500e-09,1.80585156e-02
1.02437500e-09,1.80067188e-02
1.02637500e-09,1.79190625e-02
1.02837500e-09,1.78885156e-02
1.03037500e-09,1.78114844e-02
1.03237500e-09,1.77397656e-02
1.03437500e-09,1.76534375e-02
1.03637500e-09,1.75989844e-02
1.03837500e-09,1.75259375e-02
1.04037500e-09,1.74568750e-02
1.04237500e-09,1.74010938e-02
1.04437500e-09,1.73386719e-02
1.04637500e-09,1.72682813e-02
1.04837500e-09,1.71925781e-02
1.05037500e-09,1.71261719e-02
1.05237500e-09,1.70743750e-02
1.05437500e-09,1.70039844e-02
1.05637500e-09,1.69495313e-02
1.05837500e-09,1.68924219e-02
1.06037500e-09,1.68300000e-02
1.06237500e-09,1.67503125e-02
1.06437500e-09,1.67078125e-02
1.06637500e-09,1.66254688e-02
1.06837500e-09,1.66042188e-02
1.07037500e-09,1.65364844e-02
1.07237500e-09,1.64727344e-02
1.07437500e-09,1.63943750e-02
1.07637500e-09,1.63505469e-02
1.07837500e-09,1.62854688e-02
1.08037500e-09,1.62270313e-02
1.08237500e-09,1.61818750e-02
1.08437500e-09,1.61314063e-02
1.08637500e-09,1.60729688e-02
1.08837500e-09,1.60092188e-02
1.09037500e-09,1.59547656e-02
1.09237500e-09,1.59162500e-02
1.09437500e-09,1.58578125e-02
1.09637500e-09,1.58179688e-02
1.09837500e-09,1.57754688e-02
1.10037500e-09,1.57263281e-02
1.10237500e-09,1.56572656e-02
1.10437500e-09,1.56320313e-02
1.10637500e-09,1.55616406e-02
1.10837500e-09,1.55576563e-02
1.11037500e-09,1.55045313e-02
1.11237500e-09,1.54553906e-02
