waveforms/060924/Осциллограммы переходов/04_09_2024(1).csv

"Record Length",50000,"Points",-5.00000000e-009,3.23429324e-005
"Sample Interval",2.00000000e-013,s,-4.99980000e-009,2.53116820e-005
"Trigger Point",25000,"Samples",-4.99960000e-009,1.96866816e-005
"Trigger Time",1.31732283e-014,s,-4.99940000e-009,1.40616813e-005
"",,,-4.99920000e-009,9.84293103e-006
"Horizontal Offset",-5.00000000e-009,s,-4.99900000e-009,4.21793069e-006
,,,-4.99880000e-009,-8.19563868e-010
,,,-4.99860000e-009,-1.40706965e-006
,,,-4.99840000e-009,-4.21956982e-006
,,,-4.99820000e-009,-5.62581990e-006
,,,-4.99800000e-009,-5.62581990e-006
,,,-4.99780000e-009,-7.03206999e-006
,,,-4.99760000e-009,-7.03206999e-006
,,,-4.99740000e-009,-7.03206999e-006
,,,-4.99720000e-009,-5.62581990e-006
,,,-4.99700000e-009,-4.21956982e-006
,,,-4.99680000e-009,-2.81331973e-006
,,,-4.99660000e-009,-8.19563868e-010
,,,-4.99640000e-009,1.40543052e-006
,,,-4.99620000e-009,5.62418078e-006
,,,-4.99600000e-009,8.43668095e-006
,,,-4.99580000e-009,1.26554312e-005
,,,-4.99560000e-009,1.68741815e-005
,,,-4.99540000e-009,2.10929317e-005
,,,-4.99520000e-009,2.67179321e-005
,,,-4.99500000e-009,3.23429324e-005
,,,-4.99480000e-009,3.79679327e-005
,,,-4.99460000e-009,4.49991832e-005
,,,-4.99440000e-009,5.06241835e-005
,,,-4.99420000e-009,5.76554339e-005
,,,-4.99400000e-009,6.60929344e-005
,,,-4.99380000e-009,7.31241849e-005
,,,-4.99360000e-009,8.15616854e-005
,,,-4.99340000e-009,8.99991859e-005
,,,-4.99320000e-009,9.84366864e-005
,,,-4.99300000e-009,1.08280437e-004
,,,-4.99280000e-009,1.18124188e-004
,,,-4.99260000e-009,1.27967938e-004
,,,-4.99240000e-009,1.37811689e-004
,,,-4.99220000e-009,1.47655439e-004
,,,-4.99200000e-009,1.58905440e-004
,,,-4.99180000e-009,1.70155441e-004
,,,-4.99160000e-009,1.81405441e-004
,,,-4.99140000e-009,1.92655442e-004
,,,-4.99120000e-009,2.05311693e-004
,,,-4.99100000e-009,2.16561694e-004
,,,-4.99080000e-009,2.29217944e-004
,,,-4.99060000e-009,2.41874195e-004
,,,-4.99040000e-009,2.54530446e-004
,,,-4.99020000e-009,2.67186697e-004
,,,-4.99000000e-009,2.79842947e-004
,,,-4.98980000e-009,2.92499198e-004
,,,-4.98960000e-009,3.06561699e-004
,,,-4.98940000e-009,3.19217950e-004
,,,-4.98920000e-009,3.33280451e-004
,,,-4.98900000e-009,3.47342951e-004
,,,-4.98880000e-009,3.59999202e-004
,,,-4.98860000e-009,3.74061703e-004
,,,-4.98840000e-009,3.86717954e-004
,,,-4.98820000e-009,4.00780455e-004
,,,-4.98800000e-009,4.13436705e-004
,,,-4.98780000e-009,4.27499206e-004
,,,-4.98760000e-009,4.40155457e-004
,,,-4.98740000e-009,4.52811708e-004
,,,-4.98720000e-009,4.65467959e-004
,,,-4.98700000e-009,4.79530459e-004
,,,-4.98680000e-009,4.92186710e-004
,,,-4.98660000e-009,5.04842961e-004
,,,-4.98640000e-009,5.16092962e-004
,,,-4.98620000e-009,5.28749212e-004
,,,-4.98600000e-009,5.41405463e-004
,,,-4.98580000e-009,5.52655464e-004
,,,-4.98560000e-009,5.63905465e-004
,,,-4.98540000e-009,5.75155465e-004
,,,-4.98520000e-009,5.86405466e-004
,,,-4.98500000e-009,5.97655467e-004
,,,-4.98480000e-009,6.07499217e-004
,,,-4.98460000e-009,6.18749218e-004
,,,-4.98440000e-009,6.28592968e-004
,,,-4.98420000e-009,6.37030469e-004
,,,-4.98400000e-009,6.46874220e-004
,,,-4.98380000e-009,6.55311720e-004
,,,-4.98360000e-009,6.63749221e-004
,,,-4.98340000e-009,6.72186721e-004
,,,-4.98320000e-009,6.79217971e-004
,,,-4.98300000e-009,6.86249222e-004
,,,-4.98280000e-009,6.93280472e-004
,,,-4.98260000e-009,6.98905473e-004
,,,-4.98240000e-009,7.04530473e-004
,,,-4.98220000e-009,7.10155473e-004
,,,-4.98200000e-009,7.14374224e-004
,,,-4.98180000e-009,7.18592974e-004
,,,-4.98160000e-009,7.22811724e-004
,,,-4.98140000e-009,7.25624224e-004
,,,-4.98120000e-009,7.28436724e-004
,,,-4.98100000e-009,7.31249225e-004
,,,-4.98080000e-009,7.32655475e-004
,,,-4.98060000e-009,7.34061725e-004
,,,-4.98040000e-009,7.34061725e-004
,,,-4.98020000e-009,7.34061725e-004
,,,-4.98000000e-009,7.34061725e-004
,,,-4.97980000e-009,7.32655475e-004
,,,-4.97960000e-009,7.31249225e-004
,,,-4.97940000e-009,7.29842975e-004
,,,-4.97920000e-009,7.27030474e-004
,,,-4.97900000e-009,7.24217974e-004
,,,-4.97880000e-009,7.19999224e-004
,,,-4.97860000e-009,7.15780474e-004
,,,-4.97840000e-009,7.10155473e-004
,,,-4.97820000e-009,7.03124223e-004
,,,-4.97800000e-009,6.96092973e-004
,,,-4.97780000e-009,6.89061722e-004
,,,-4.97760000e-009,6.82030472e-004
,,,-4.97740000e-009,6.73592971e-004
,,,-4.97720000e-009,6.66561721e-004
,,,-4.97700000e-009,6.56717970e-004
,,,-4.97680000e-009,6.48280470e-004
,,,-4.97660000e-009,6.38436719e-004
,,,-4.97640000e-009,6.29999219e-004
,,,-4.97620000e-009,6.20155468e-004
,,,-4.97600000e-009,6.10311717e-004
,,,-4.97580000e-009,5.99061717e-004
,,,-4.97560000e-009,5.89217966e-004
,,,-4.97540000e-009,5.77967965e-004
,,,-4.97520000e-009,5.68124215e-004
,,,-4.97500000e-009,5.56874214e-004
,,,-4.97480000e-009,5.47030463e-004
,,,-4.97460000e-009,5.35780463e-004
,,,-4.97440000e-009,5.24530462e-004
,,,-4.97420000e-009,5.14686712e-004
,,,-4.97400000e-009,5.03436711e-004
,,,-4.97380000e-009,4.93592960e-004
,,,-4.97360000e-009,4.82342960e-004
,,,-4.97340000e-009,4.72499209e-004
,,,-4.97320000e-009,4.62655458e-004
,,,-4.97300000e-009,4.52811708e-004
,,,-4.97280000e-009,4.44374207e-004
,,,-4.97260000e-009,4.34530457e-004
,,,-4.97240000e-009,4.26092956e-004
,,,-4.97220000e-009,4.17655456e-004
,,,-4.97200000e-009,4.09217955e-004
,,,-4.97180000e-009,4.02186705e-004
,,,-4.97160000e-009,3.95155454e-004
,,,-4.97140000e-009,3.88124204e-004
,,,-4.97120000e-009,3.82499204e-004
,,,-4.97100000e-009,3.76874203e-004
,,,-4.97080000e-009,3.72655453e-004
,,,-4.97060000e-009,3.68436703e-004
,,,-4.97040000e-009,3.64217952e-004
,,,-4.97020000e-009,3.61405452e-004
,,,-4.97000000e-009,3.58592952e-004
,,,-4.96980000e-009,3.57186702e-004
,,,-4.96960000e-009,3.55780452e-004
,,,-4.96940000e-009,3.55780452e-004
,,,-4.96920000e-009,3.57186702e-004
,,,-4.96900000e-009,3.58592952e-004
,,,-4.96880000e-009,3.59999202e-004
,,,-4.96860000e-009,3.64217952e-004
,,,-4.96840000e-009,3.67030453e-004
,,,-4.96820000e-009,3.71249203e-004
,,,-4.96800000e-009,3.76874203e-004
,,,-4.96780000e-009,3.82499204e-004
,,,-4.96760000e-009,3.89530454e-004
,,,-4.96740000e-009,3.96561704e-004
,,,-4.96720000e-009,4.04999205e-004
,,,-4.96700000e-009,4.14842956e-004
,,,-4.96680000e-009,4.24686706e-004
,,,-4.96660000e-009,4.35936707e-004
,,,-4.96640000e-009,4.47186707e-004
,,,-4.96620000e-009,4.61249208e-004
,,,-4.96600000e-009,4.73905459e-004
,,,-4.96580000e-009,4.87967960e-004
,,,-4.96560000e-009,5.03436711e-004
,,,-4.96540000e-009,5.20311712e-004
,,,-4.96520000e-009,5.37186713e-004
,,,-4.96500000e-009,5.54061714e-004
,,,-4.96480000e-009,5.73749215e-004
,,,-4.96460000e-009,5.92030466e-004
,,,-4.96440000e-009,6.13124217e-004
,,,-4.96420000e-009,6.34217969e-004
,,,-4.96400000e-009,6.55311720e-004
,,,-4.96380000e-009,6.79217971e-004
,,,-4.96360000e-009,7.01717973e-004
,,,-4.96340000e-009,7.25624224e-004
,,,-4.96320000e-009,7.50936726e-004
,,,-4.96300000e-009,7.76249227e-004
,,,-4.96280000e-009,8.02967979e-004
,,,-4.96260000e-009,8.31092981e-004
,,,-4.96240000e-009,8.57811732e-004
,,,-4.96220000e-009,8.85936734e-004
,,,-4.96200000e-009,9.15467986e-004
,,,-4.96180000e-009,9.44999238e-004
,,,-4.96160000e-009,9.75936739e-004
,,,-4.96140000e-009,1.00687424e-003
,,,-4.96120000e-009,1.03781174e-003
,,,-4.96100000e-009,1.06874925e-003
,,,-4.96080000e-009,1.10109300e-003
,,,-4.96060000e-009,1.13484300e-003
,,,-4.96040000e-009,1.16718675e-003
,,,-4.96020000e-009,1.20093675e-003
,,,-4.96000000e-009,1.23468676e-003
,,,-4.95980000e-009,1.26843676e-003
,,,-4.95960000e-009,1.30218676e-003
,,,-4.95940000e-009,1.33734301e-003
,,,-4.95920000e-009,1.37109301e-003
,,,-4.95900000e-009,1.40624927e-003
,,,-4.95880000e-009,1.43999927e-003
,,,-4.95860000e-009,1.47374927e-003
,,,-4.95840000e-009,1.50468677e-003
,,,-4.95820000e-009,1.53703052e-003
,,,-4.95800000e-009,1.56937428e-003
,,,-4.95780000e-009,1.60031178e-003
,,,-4.95760000e-009,1.63124928e-003
,,,-4.95740000e-009,1.66218678e-003
,,,-4.95720000e-009,1.69312428e-003
,,,-4.95700000e-009,1.72265553e-003
,,,-4.95680000e-009,1.75218679e-003
,,,-4.95660000e-009,1.78171804e-003
,,,-4.95640000e-009,1.80984304e-003
,,,-4.95620000e-009,1.83796804e-003
,,,-4.95600000e-009,1.86468679e-003
,,,-4.95580000e-009,1.89140554e-003
,,,-4.95560000e-009,1.91671805e-003
,,,-4.95540000e-009,1.94203055e-003
,,,-4.95520000e-009,1.96593680e-003
,,,-4.95500000e-009,1.98843680e-003
,,,-4.95480000e-009,2.01093680e-003
,,,-4.95460000e-009,2.03343680e-003
,,,-4.95440000e-009,2.05453055e-003
,,,-4.95420000e-009,2.07421806e-003
,,,-4.95400000e-009,2.09249931e-003
,,,-4.95380000e-009,2.11078056e-003
,,,-4.95360000e-009,2.12624931e-003
,,,-4.95340000e-009,2.14312431e-003
,,,-4.95320000e-009,2.15718681e-003
,,,-4.95300000e-009,2.16984306e-003
,,,-4.95280000e-009,2.18249931e-003
,,,-4.95260000e-009,2.19374931e-003
,,,-4.95240000e-009,2.20359306e-003
,,,-4.95220000e-009,2.21203056e-003
,,,-4.95200000e-009,2.22046806e-003
,,,-4.95180000e-009,2.22609306e-003
,,,-4.95160000e-009,2.23171807e-003
,,,-4.95140000e-009,2.23453057e-003
,,,-4.95120000e-009,2.23734307e-003
,,,-4.95100000e-009,2.23874932e-003
,,,-4.95080000e-009,2.23734307e-003
,,,-4.95060000e-009,2.23593682e-003
,,,-4.95040000e-009,2.23312432e-003
,,,-4.95020000e-009,2.22890557e-003
,,,-4.95000000e-009,2.22328056e-003
,,,-4.94980000e-009,2.21624931e-003
,,,-4.94960000e-009,2.20781181e-003
,,,-4.94940000e-009,2.19796806e-003
,,,-4.94920000e-009,2.18671806e-003
,,,-4.94900000e-009,2.17406181e-003
,,,-4.94880000e-009,2.15999931e-003
,,,-4.94860000e-009,2.14312431e-003
,,,-4.94840000e-009,2.12343681e-003
,,,-4.94820000e-009,2.10234306e-003
,,,-4.94800000e-009,2.07984306e-003
,,,-4.94780000e-009,2.05734305e-003
,,,-4.94760000e-009,2.03343680e-003
,,,-4.94740000e-009,2.00812430e-003
,,,-4.94720000e-009,1.98140555e-003
,,,-4.94700000e-009,1.95328055e-003
,,,-4.94680000e-009,1.92515555e-003
,,,-4.94660000e-009,1.89562429e-003
,,,-4.94640000e-009,1.86468679e-003
,,,-4.94620000e-009,1.83234304e-003
,,,-4.94600000e-009,1.79999929e-003
,,,-4.94580000e-009,1.76624929e-003
,,,-4.94560000e-009,1.73249929e-003
,,,-4.94540000e-009,1.69734303e-003
,,,-4.94520000e-009,1.66218678e-003
,,,-4.94500000e-009,1.62562428e-003
,,,-4.94480000e-009,1.58765553e-003
,,,-4.94460000e-009,1.54968677e-003
,,,-4.94440000e-009,1.51171802e-003
,,,-4.94420000e-009,1.47234302e-003
,,,-4.94400000e-009,1.43296802e-003
,,,-4.94380000e-009,1.39359301e-003
,,,-4.94360000e-009,1.35281176e-003
,,,-4.94340000e-009,1.31203051e-003
,,,-4.94320000e-009,1.27124926e-003
,,,-4.94300000e-009,1.23046800e-003
,,,-4.94280000e-009,1.18828050e-003
,,,-4.94260000e-009,1.14609300e-003
,,,-4.94240000e-009,1.10390550e-003
,,,-4.94220000e-009,1.06171799e-003
,,,-4.94200000e-009,1.01953049e-003
,,,-4.94180000e-009,9.77342989e-004
,,,-4.94160000e-009,9.35155487e-004
,,,-4.94140000e-009,8.92967984e-004
,,,-4.94120000e-009,8.50780482e-004
,,,-4.94100000e-009,8.08592979e-004
,,,-4.94080000e-009,7.66405477e-004
,,,-4.94060000e-009,7.24217974e-004
,,,-4.94040000e-009,6.82030472e-004
,,,-4.94020000e-009,6.41249219e-004
,,,-4.94000000e-009,6.00467967e-004
,,,-4.93980000e-009,5.59686714e-004
,,,-4.93960000e-009,5.18905462e-004
,,,-4.93940000e-009,4.78124209e-004
,,,-4.93920000e-009,4.38749207e-004
,,,-4.93900000e-009,3.99374205e-004
,,,-4.93880000e-009,3.59999202e-004
,,,-4.93860000e-009,3.23436700e-004
,,,-4.93840000e-009,2.85467948e-004
,,,-4.93820000e-009,2.48905445e-004
,,,-4.93800000e-009,2.13749193e-004
,,,-4.93780000e-009,1.78592941e-004
,,,-4.93760000e-009,1.43436689e-004
,,,-4.93740000e-009,1.09686687e-004
,,,-4.93720000e-009,7.73429351e-005
,,,-4.93700000e-009,4.49991832e-005
,,,-4.93680000e-009,1.40616813e-005
,,,-4.93660000e-009,-1.68758206e-005
,,,-4.93640000e-009,-4.78133225e-005
,,,-4.93620000e-009,-7.59383242e-005
,,,-4.93600000e-009,-1.05469576e-004
,,,-4.93580000e-009,-1.32188328e-004
,,,-4.93560000e-009,-1.60313329e-004
,,,-4.93540000e-009,-1.85625831e-004
,,,-4.93520000e-009,-2.10938332e-004
,,,-4.93500000e-009,-2.36250834e-004
,,,-4.93480000e-009,-2.60157085e-004
,,,-4.93460000e-009,-2.84063337e-004
,,,-4.93440000e-009,-3.06563338e-004
,,,-4.93420000e-009,-3.27657089e-004
,,,-4.93400000e-009,-3.48750841e-004
,,,-4.93380000e-009,-3.69844592e-004
,,,-4.93360000e-009,-3.89532093e-004
,,,-4.93340000e-009,-4.09219594e-004
,,,-4.93320000e-009,-4.27500845e-004
,,,-4.93300000e-009,-4.45782097e-004
,,,-4.93280000e-009,-4.64063348e-004
,,,-4.93260000e-009,-4.80938349e-004
,,,-4.93240000e-009,-4.96407100e-004
,,,-4.93220000e-009,-5.11875850e-004
,,,-4.93200000e-009,-5.27344601e-004
,,,-4.93180000e-009,-5.42813352e-004
,,,-4.93160000e-009,-5.56875853e-004
,,,-4.93140000e-009,-5.70938354e-004
,,,-4.93120000e-009,-5.85000855e-004
,,,-4.93100000e-009,-5.97657106e-004
,,,-4.93080000e-009,-6.10313356e-004
,,,-4.93060000e-009,-6.22969607e-004
,,,-4.93040000e-009,-6.34219608e-004
,,,-4.93020000e-009,-6.45469609e-004
,,,-4.93000000e-009,-6.56719609e-004
,,,-4.92980000e-009,-6.67969610e-004
,,,-4.92960000e-009,-6.79219611e-004
,,,-4.92940000e-009,-6.89063361e-004
,,,-4.92920000e-009,-6.98907112e-004
,,,-4.92900000e-009,-7.10157112e-004
,,,-4.92880000e-009,-7.20000863e-004
,,,-4.92860000e-009,-7.27032114e-004
,,,-4.92840000e-009,-7.34063364e-004
,,,-4.92820000e-009,-7.41094614e-004
,,,-4.92800000e-009,-7.48125865e-004
,,,-4.92780000e-009,-7.55157115e-004
,,,-4.92760000e-009,-7.62188366e-004
,,,-4.92740000e-009,-7.69219616e-004
,,,-4.92720000e-009,-7.74844616e-004
,,,-4.92700000e-009,-7.81875867e-004
,,,-4.92680000e-009,-7.87500867e-004
,,,-4.92660000e-009,-7.94532118e-004
,,,-4.92640000e-009,-8.01563368e-004
,,,-4.92620000e-009,-8.07188368e-004
,,,-4.92600000e-009,-8.14219619e-004
,,,-4.92580000e-009,-8.19844619e-004
,,,-4.92560000e-009,-8.26875870e-004
,,,-4.92540000e-009,-8.32500870e-004
,,,-4.92520000e-009,-8.39532120e-004
,,,-4.92500000e-009,-8.46563371e-004
,,,-4.92480000e-009,-8.52188371e-004
,,,-4.92460000e-009,-8.59219621e-004
,,,-4.92440000e-009,-8.66250872e-004
,,,-4.92420000e-009,-8.73282122e-004
,,,-4.92400000e-009,-8.80313373e-004
,,,-4.92380000e-009,-8.87344623e-004
,,,-4.92360000e-009,-8.94375874e-004
,,,-4.92340000e-009,-9.01407124e-004
,,,-4.92320000e-009,-9.08438374e-004
,,,-4.92300000e-009,-9.15469625e-004
,,,-4.92280000e-009,-9.22500875e-004
,,,-4.92260000e-009,-9.30938376e-004
,,,-4.92240000e-009,-9.37969626e-004
,,,-4.92220000e-009,-9.45000877e-004
,,,-4.92200000e-009,-9.53438377e-004
,,,-4.92180000e-009,-9.60469628e-004
,,,-4.92160000e-009,-9.68907128e-004
,,,-4.92140000e-009,-9.77344629e-004
,,,-4.92120000e-009,-9.84375879e-004
,,,-4.92100000e-009,-9.92813380e-004
,,,-4.92080000e-009,-9.99844630e-004
,,,-4.92060000e-009,-1.00828213e-003
,,,-4.92040000e-009,-1.01671963e-003
,,,-4.92020000e-009,-1.02375088e-003
,,,-4.92000000e-009,-1.03218838e-003
,,,-4.91980000e-009,-1.04062588e-003
,,,-4.91960000e-009,-1.04765713e-003
,,,-4.91940000e-009,-1.05609463e-003
,,,-4.91920000e-009,-1.06453213e-003
,,,-4.91900000e-009,-1.07156338e-003
,,,-4.91880000e-009,-1.08000088e-003
,,,-4.91860000e-009,-1.08421964e-003
,,,-4.91840000e-009,-1.08984464e-003
,,,-4.91820000e-009,-1.09406339e-003
,,,-4.91800000e-009,-1.09828214e-003
,,,-4.91780000e-009,-1.10390714e-003
,,,-4.91760000e-009,-1.10812589e-003
,,,-4.91740000e-009,-1.11234464e-003
,,,-4.91720000e-009,-1.11656339e-003
,,,-4.91700000e-009,-1.12078214e-003
,,,-4.91680000e-009,-1.12359464e-003
,,,-4.91660000e-009,-1.12781339e-003
,,,-4.91640000e-009,-1.13062589e-003
,,,-4.91620000e-009,-1.13484464e-003
,,,-4.91600000e-009,-1.13765714e-003
,,,-4.91580000e-009,-1.14046964e-003
,,,-4.91560000e-009,-1.14328214e-003
,,,-4.91540000e-009,-1.14609464e-003
,,,-4.91520000e-009,-1.14750089e-003
,,,-4.91500000e-009,-1.15031339e-003
,,,-4.91480000e-009,-1.15171964e-003
,,,-4.91460000e-009,-1.15312589e-003
,,,-4.91440000e-009,-1.15453214e-003
,,,-4.91420000e-009,-1.15593839e-003
,,,-4.91400000e-009,-1.15734464e-003
,,,-4.91380000e-009,-1.15734464e-003
,,,-4.91360000e-009,-1.15875089e-003
,,,-4.91340000e-009,-1.15875089e-003
,,,-4.91320000e-009,-1.15875089e-003
,,,-4.91300000e-009,-1.15875089e-003
,,,-4.91280000e-009,-1.15734464e-003
,,,-4.91260000e-009,-1.15734464e-003
,,,-4.91240000e-009,-1.15593839e-003
,,,-4.91220000e-009,-1.15453214e-003
,,,-4.91200000e-009,-1.15312589e-003
,,,-4.91180000e-009,-1.15171964e-003
,,,-4.91160000e-009,-1.14890714e-003
,,,-4.91140000e-009,-1.14609464e-003
,,,-4.91120000e-009,-1.14328214e-003
,,,-4.91100000e-009,-1.14046964e-003
,,,-4.91080000e-009,-1.13625089e-003
,,,-4.91060000e-009,-1.13203214e-003
,,,-4.91040000e-009,-1.12781339e-003
,,,-4.91020000e-009,-1.12359464e-003
,,,-4.91000000e-009,-1.11796964e-003
,,,-4.90980000e-009,-1.11234464e-003
,,,-4.90960000e-009,-1.10671964e-003
,,,-4.90940000e-009,-1.10109464e-003
,,,-4.90920000e-009,-1.09406339e-003
,,,-4.90900000e-009,-1.08703214e-003
,,,-4.90880000e-009,-1.08000088e-003
,,,-4.90860000e-009,-1.06734463e-003
,,,-4.90840000e-009,-1.05609463e-003
,,,-4.90820000e-009,-1.04484463e-003
,,,-4.90800000e-009,-1.03218838e-003
,,,-4.90780000e-009,-1.01812588e-003
,,,-4.90760000e-009,-1.00546963e-003
,,,-4.90740000e-009,-9.91407129e-004
,,,-4.90720000e-009,-9.77344629e-004
,,,-4.90700000e-009,-9.61875878e-004
,,,-4.90680000e-009,-9.47813377e-004
,,,-4.90660000e-009,-9.32344626e-004
,,,-4.90640000e-009,-9.15469625e-004
,,,-4.90620000e-009,-9.00000874e-004
,,,-4.90600000e-009,-8.83125873e-004
,,,-4.90580000e-009,-8.64844622e-004
,,,-4.90560000e-009,-8.47969621e-004
,,,-4.90540000e-009,-8.29688370e-004
,,,-4.90520000e-009,-8.11407119e-004
,,,-4.90500000e-009,-7.91719617e-004
,,,-4.90480000e-009,-7.72032116e-004
,,,-4.90460000e-009,-7.52344615e-004
,,,-4.90440000e-009,-7.31250864e-004
,,,-4.90420000e-009,-7.11563363e-004
,,,-4.90400000e-009,-6.90469611e-004
,,,-4.90380000e-009,-6.67969610e-004
,,,-4.90360000e-009,-6.45469609e-004
,,,-4.90340000e-009,-6.22969607e-004
,,,-4.90320000e-009,-6.00469606e-004
,,,-4.90300000e-009,-5.76563354e-004
,,,-4.90280000e-009,-5.52657103e-004
,,,-4.90260000e-009,-5.28750852e-004
,,,-4.90240000e-009,-5.04844600e-004
,,,-4.90220000e-009,-4.79532099e-004
,,,-4.90200000e-009,-4.54219597e-004
,,,-4.90180000e-009,-4.27500845e-004
,,,-4.90160000e-009,-4.00782094e-004
,,,-4.90140000e-009,-3.74063342e-004
,,,-4.90120000e-009,-3.47344591e-004
,,,-4.90100000e-009,-3.20625839e-004
,,,-4.90080000e-009,-2.92500837e-004
,,,-4.90060000e-009,-2.64375836e-004
,,,-4.90040000e-009,-2.36250834e-004
,,,-4.90020000e-009,-2.06719582e-004
,,,-4.90000000e-009,-1.78594580e-004
,,,-4.89980000e-009,-1.49063329e-004
,,,-4.89960000e-009,-1.19532077e-004
,,,-4.89940000e-009,-9.00008250e-005
,,,-4.89920000e-009,-6.04695732e-005
,,,-4.89900000e-009,-2.95320713e-005
,,,-4.89880000e-009,-8.19563868e-010
,,,-4.89860000e-009,3.37491825e-005
,,,-4.89840000e-009,6.60929344e-005
,,,-4.89820000e-009,9.84366864e-005
,,,-4.89800000e-009,1.30780438e-004
,,,-4.89780000e-009,1.61717940e-004
,,,-4.89760000e-009,1.94061692e-004
,,,-4.89740000e-009,2.26405444e-004
,,,-4.89720000e-009,2.57342946e-004
,,,-4.89700000e-009,2.89686698e-004
,,,-4.89680000e-009,3.20624200e-004
,,,-4.89660000e-009,3.51561702e-004
,,,-4.89640000e-009,3.82499204e-004
,,,-4.89620000e-009,4.12030455e-004
,,,-4.89600000e-009,4.41561707e-004
,,,-4.89580000e-009,4.71092959e-004
,,,-4.89560000e-009,5.00624211e-004
,,,-4.89540000e-009,5.28749212e-004
,,,-4.89520000e-009,5.56874214e-004
,,,-4.89500000e-009,5.84999216e-004
,,,-4.89480000e-009,6.11717967e-004
,,,-4.89460000e-009,6.38436719e-004
,,,-4.89440000e-009,6.65155471e-004
,,,-4.89420000e-009,6.90467972e-004
,,,-4.89400000e-009,7.14374224e-004
,,,-4.89380000e-009,7.38280475e-004
,,,-4.89360000e-009,7.62186726e-004
,,,-4.89340000e-009,7.84686728e-004
,,,-4.89320000e-009,8.07186729e-004
,,,-4.89300000e-009,8.28280480e-004
,,,-4.89280000e-009,8.47967982e-004
,,,-4.89260000e-009,8.67655483e-004
,,,-4.89240000e-009,8.87342984e-004
,,,-4.89220000e-009,9.05624235e-004
,,,-4.89200000e-009,9.22499236e-004
,,,-4.89180000e-009,9.37967987e-004
,,,-4.89160000e-009,9.54842988e-004
,,,-4.89140000e-009,9.68905489e-004
,,,-4.89120000e-009,9.82967990e-004
