waveforms/060924/Осциллограммы переходов/04_09_2024(2).csv

"Record Length",50000,"Points",-5.00000000e-009,6.89054346e-005
"Sample Interval",2.00000000e-013,s,-4.99980000e-009,6.32804343e-005
"Trigger Point",25000,"Samples",-4.99960000e-009,5.62491838e-005
"Trigger Time",3.31013825e-014,s,-4.99940000e-009,4.78116833e-005
"",,,-4.99920000e-009,3.93741828e-005
"Horizontal Offset",-5.00000000e-009,s,-4.99900000e-009,3.09366823e-005
,,,-4.99880000e-009,2.10929317e-005
,,,-4.99860000e-009,1.12491811e-005
,,,-4.99840000e-009,-8.19563868e-010
,,,-4.99820000e-009,-1.12508202e-005
,,,-4.99800000e-009,-2.25008209e-005
,,,-4.99780000e-009,-3.65633218e-005
,,,-4.99760000e-009,-4.92195725e-005
,,,-4.99740000e-009,-6.32820734e-005
,,,-4.99720000e-009,-7.73445742e-005
,,,-4.99700000e-009,-9.28133252e-005
,,,-4.99680000e-009,-1.08282076e-004
,,,-4.99660000e-009,-1.25157077e-004
,,,-4.99640000e-009,-1.42032078e-004
,,,-4.99620000e-009,-1.58907079e-004
,,,-4.99600000e-009,-1.77188330e-004
,,,-4.99580000e-009,-1.95469581e-004
,,,-4.99560000e-009,-2.13750832e-004
,,,-4.99540000e-009,-2.33438334e-004
,,,-4.99520000e-009,-2.53125835e-004
,,,-4.99500000e-009,-2.74219586e-004
,,,-4.99480000e-009,-2.93907087e-004
,,,-4.99460000e-009,-3.15000839e-004
,,,-4.99440000e-009,-3.37500840e-004
,,,-4.99420000e-009,-3.60000841e-004
,,,-4.99400000e-009,-3.81094593e-004
,,,-4.99380000e-009,-4.05000844e-004
,,,-4.99360000e-009,-4.27500845e-004
,,,-4.99340000e-009,-4.51407097e-004
,,,-4.99320000e-009,-4.75313348e-004
,,,-4.99300000e-009,-4.99219600e-004
,,,-4.99280000e-009,-5.23125851e-004
,,,-4.99260000e-009,-5.47032103e-004
,,,-4.99240000e-009,-5.72344604e-004
,,,-4.99220000e-009,-5.97657106e-004
,,,-4.99200000e-009,-6.22969607e-004
,,,-4.99180000e-009,-6.48282109e-004
,,,-4.99160000e-009,-6.73594610e-004
,,,-4.99140000e-009,-6.98907112e-004
,,,-4.99120000e-009,-7.24219613e-004
,,,-4.99100000e-009,-7.50938365e-004
,,,-4.99080000e-009,-7.76250866e-004
,,,-4.99060000e-009,-8.01563368e-004
,,,-4.99040000e-009,-8.28282120e-004
,,,-4.99020000e-009,-8.53594621e-004
,,,-4.99000000e-009,-8.78907123e-004
,,,-4.98980000e-009,-9.04219624e-004
,,,-4.98960000e-009,-9.29532126e-004
,,,-4.98940000e-009,-9.56250877e-004
,,,-4.98920000e-009,-9.80157129e-004
,,,-4.98900000e-009,-1.00546963e-003
,,,-4.98880000e-009,-1.03078213e-003
,,,-4.98860000e-009,-1.05468838e-003
,,,-4.98840000e-009,-1.08000088e-003
,,,-4.98820000e-009,-1.10250089e-003
,,,-4.98800000e-009,-1.12640714e-003
,,,-4.98780000e-009,-1.14890714e-003
,,,-4.98760000e-009,-1.17000089e-003
,,,-4.98740000e-009,-1.19250089e-003
,,,-4.98720000e-009,-1.21359464e-003
,,,-4.98700000e-009,-1.23468839e-003
,,,-4.98680000e-009,-1.25437590e-003
,,,-4.98660000e-009,-1.27546965e-003
,,,-4.98640000e-009,-1.29375090e-003
,,,-4.98620000e-009,-1.31203215e-003
,,,-4.98600000e-009,-1.33031340e-003
,,,-4.98580000e-009,-1.34859465e-003
,,,-4.98560000e-009,-1.36546965e-003
,,,-4.98540000e-009,-1.38093840e-003
,,,-4.98520000e-009,-1.39640715e-003
,,,-4.98500000e-009,-1.41187590e-003
,,,-4.98480000e-009,-1.42593841e-003
,,,-4.98460000e-009,-1.44000091e-003
,,,-4.98440000e-009,-1.45265716e-003
,,,-4.98420000e-009,-1.46390716e-003
,,,-4.98400000e-009,-1.47515716e-003
,,,-4.98380000e-009,-1.48500091e-003
,,,-4.98360000e-009,-1.49484466e-003
,,,-4.98340000e-009,-1.50468841e-003
,,,-4.98320000e-009,-1.51171966e-003
,,,-4.98300000e-009,-1.51875091e-003
,,,-4.98280000e-009,-1.52578216e-003
,,,-4.98260000e-009,-1.53140716e-003
,,,-4.98240000e-009,-1.53562591e-003
,,,-4.98220000e-009,-1.53984466e-003
,,,-4.98200000e-009,-1.54265716e-003
,,,-4.98180000e-009,-1.54406341e-003
,,,-4.98160000e-009,-1.54546966e-003
,,,-4.98140000e-009,-1.54546966e-003
,,,-4.98120000e-009,-1.54546966e-003
,,,-4.98100000e-009,-1.54406341e-003
,,,-4.98080000e-009,-1.54125091e-003
,,,-4.98060000e-009,-1.53843841e-003
,,,-4.98040000e-009,-1.53421966e-003
,,,-4.98020000e-009,-1.52859466e-003
,,,-4.98000000e-009,-1.52156341e-003
,,,-4.97980000e-009,-1.51453216e-003
,,,-4.97960000e-009,-1.50750091e-003
,,,-4.97940000e-009,-1.49765716e-003
,,,-4.97920000e-009,-1.48781341e-003
,,,-4.97900000e-009,-1.47656341e-003
,,,-4.97880000e-009,-1.46531341e-003
,,,-4.97860000e-009,-1.45265716e-003
,,,-4.97840000e-009,-1.44000091e-003
,,,-4.97820000e-009,-1.42312591e-003
,,,-4.97800000e-009,-1.40625090e-003
,,,-4.97780000e-009,-1.38937590e-003
,,,-4.97760000e-009,-1.37109465e-003
,,,-4.97740000e-009,-1.35140715e-003
,,,-4.97720000e-009,-1.33171965e-003
,,,-4.97700000e-009,-1.31062590e-003
,,,-4.97680000e-009,-1.28953215e-003
,,,-4.97660000e-009,-1.26703215e-003
,,,-4.97640000e-009,-1.24453214e-003
,,,-4.97620000e-009,-1.22062589e-003
,,,-4.97600000e-009,-1.19671964e-003
,,,-4.97580000e-009,-1.17281339e-003
,,,-4.97560000e-009,-1.14750089e-003
,,,-4.97540000e-009,-1.12078214e-003
,,,-4.97520000e-009,-1.09406339e-003
,,,-4.97500000e-009,-1.06734463e-003
,,,-4.97480000e-009,-1.03921963e-003
,,,-4.97460000e-009,-1.01109463e-003
,,,-4.97440000e-009,-9.82969629e-004
,,,-4.97420000e-009,-9.53438377e-004
,,,-4.97400000e-009,-9.23907125e-004
,,,-4.97380000e-009,-8.94375874e-004
,,,-4.97360000e-009,-8.63438372e-004
,,,-4.97340000e-009,-8.32500870e-004
,,,-4.97320000e-009,-8.01563368e-004
,,,-4.97300000e-009,-7.70625866e-004
,,,-4.97280000e-009,-7.38282114e-004
,,,-4.97260000e-009,-7.05938362e-004
,,,-4.97240000e-009,-6.73594610e-004
,,,-4.97220000e-009,-6.41250858e-004
,,,-4.97200000e-009,-6.07500856e-004
,,,-4.97180000e-009,-5.75157104e-004
,,,-4.97160000e-009,-5.41407102e-004
,,,-4.97140000e-009,-5.07657100e-004
,,,-4.97120000e-009,-4.73907098e-004
,,,-4.97100000e-009,-4.40157096e-004
,,,-4.97080000e-009,-4.06407094e-004
,,,-4.97060000e-009,-3.72657092e-004
,,,-4.97040000e-009,-3.38907090e-004
,,,-4.97020000e-009,-3.05157088e-004
,,,-4.97000000e-009,-2.70000836e-004
,,,-4.96980000e-009,-2.36250834e-004
,,,-4.96960000e-009,-2.02500832e-004
,,,-4.96940000e-009,-1.68750830e-004
,,,-4.96920000e-009,-1.33594578e-004
,,,-4.96900000e-009,-9.98445756e-005
,,,-4.96880000e-009,-6.60945736e-005
,,,-4.96860000e-009,-3.23445715e-005
,,,-4.96840000e-009,-8.19563868e-010
,,,-4.96820000e-009,3.51554326e-005
,,,-4.96800000e-009,6.74991845e-005
,,,-4.96780000e-009,1.01249187e-004
,,,-4.96760000e-009,1.34999189e-004
,,,-4.96740000e-009,1.67342941e-004
,,,-4.96720000e-009,1.99686693e-004
,,,-4.96700000e-009,2.30624194e-004
,,,-4.96680000e-009,2.62967946e-004
,,,-4.96660000e-009,2.93905448e-004
,,,-4.96640000e-009,3.24842950e-004
,,,-4.96620000e-009,3.55780452e-004
,,,-4.96600000e-009,3.85311704e-004
,,,-4.96580000e-009,4.14842956e-004
,,,-4.96560000e-009,4.42967957e-004
,,,-4.96540000e-009,4.72499209e-004
,,,-4.96520000e-009,4.99217961e-004
,,,-4.96500000e-009,5.27342962e-004
,,,-4.96480000e-009,5.54061714e-004
,,,-4.96460000e-009,5.80780466e-004
,,,-4.96440000e-009,6.06092967e-004
,,,-4.96420000e-009,6.31405469e-004
,,,-4.96400000e-009,6.56717970e-004
,,,-4.96380000e-009,6.80624222e-004
,,,-4.96360000e-009,7.04530473e-004
,,,-4.96340000e-009,7.27030474e-004
,,,-4.96320000e-009,7.49530476e-004
,,,-4.96300000e-009,7.72030477e-004
,,,-4.96280000e-009,7.93124228e-004
,,,-4.96260000e-009,8.12811730e-004
,,,-4.96240000e-009,8.32499231e-004
,,,-4.96220000e-009,8.52186732e-004
,,,-4.96200000e-009,8.70467983e-004
,,,-4.96180000e-009,8.88749234e-004
,,,-4.96160000e-009,9.05624235e-004
,,,-4.96140000e-009,9.22499236e-004
,,,-4.96120000e-009,9.37967987e-004
,,,-4.96100000e-009,9.52030488e-004
,,,-4.96080000e-009,9.67499239e-004
,,,-4.96060000e-009,9.80155490e-004
,,,-4.96040000e-009,9.92811740e-004
,,,-4.96020000e-009,1.00546799e-003
,,,-4.96000000e-009,1.01671799e-003
,,,-4.95980000e-009,1.02796799e-003
,,,-4.95960000e-009,1.03781174e-003
,,,-4.95940000e-009,1.04624924e-003
,,,-4.95920000e-009,1.05468674e-003
,,,-4.95900000e-009,1.06312424e-003
,,,-4.95880000e-009,1.06874925e-003
,,,-4.95860000e-009,1.07578050e-003
,,,-4.95840000e-009,1.07999925e-003
,,,-4.95820000e-009,1.08421800e-003
,,,-4.95800000e-009,1.08703050e-003
,,,-4.95780000e-009,1.08843675e-003
,,,-4.95760000e-009,1.08984300e-003
,,,-4.95740000e-009,1.08984300e-003
,,,-4.95720000e-009,1.08984300e-003
,,,-4.95700000e-009,1.08843675e-003
,,,-4.95680000e-009,1.08703050e-003
,,,-4.95660000e-009,1.08421800e-003
,,,-4.95640000e-009,1.07999925e-003
,,,-4.95620000e-009,1.07578050e-003
,,,-4.95600000e-009,1.07015550e-003
,,,-4.95580000e-009,1.06453049e-003
,,,-4.95560000e-009,1.05749924e-003
,,,-4.95540000e-009,1.05046799e-003
,,,-4.95520000e-009,1.04203049e-003
,,,-4.95500000e-009,1.03359299e-003
,,,-4.95480000e-009,1.02374924e-003
,,,-4.95460000e-009,1.01390549e-003
,,,-4.95440000e-009,1.00265549e-003
,,,-4.95420000e-009,9.91405490e-004
,,,-4.95400000e-009,9.78749240e-004
,,,-4.95380000e-009,9.64686739e-004
,,,-4.95360000e-009,9.50624238e-004
,,,-4.95340000e-009,9.36561737e-004
,,,-4.95320000e-009,9.21092986e-004
,,,-4.95300000e-009,9.05624235e-004
,,,-4.95280000e-009,8.88749234e-004
,,,-4.95260000e-009,8.70467983e-004
,,,-4.95240000e-009,8.52186732e-004
,,,-4.95220000e-009,8.33905481e-004
,,,-4.95200000e-009,8.14217980e-004
,,,-4.95180000e-009,7.94530478e-004
,,,-4.95160000e-009,7.73436727e-004
,,,-4.95140000e-009,7.52342976e-004
,,,-4.95120000e-009,7.29842975e-004
,,,-4.95100000e-009,7.07342973e-004
,,,-4.95080000e-009,6.83436722e-004
,,,-4.95060000e-009,6.59530470e-004
,,,-4.95040000e-009,6.35624219e-004
,,,-4.95020000e-009,6.10311717e-004
,,,-4.95000000e-009,5.84999216e-004
,,,-4.94980000e-009,5.58280464e-004
,,,-4.94960000e-009,5.31561713e-004
,,,-4.94940000e-009,5.04842961e-004
,,,-4.94920000e-009,4.76717959e-004
,,,-4.94900000e-009,4.48592958e-004
,,,-4.94880000e-009,4.19061706e-004
,,,-4.94860000e-009,3.90936704e-004
,,,-4.94840000e-009,3.59999202e-004
,,,-4.94820000e-009,3.30467950e-004
,,,-4.94800000e-009,2.99530449e-004
,,,-4.94780000e-009,2.68592947e-004
,,,-4.94760000e-009,2.36249195e-004
,,,-4.94740000e-009,2.05311693e-004
,,,-4.94720000e-009,1.72967941e-004
,,,-4.94700000e-009,1.40624189e-004
,,,-4.94680000e-009,1.09686687e-004
,,,-4.94660000e-009,7.73429351e-005
,,,-4.94640000e-009,4.35929331e-005
,,,-4.94620000e-009,1.12491811e-005
,,,-4.94600000e-009,-2.10945708e-005
,,,-4.94580000e-009,-5.34383228e-005
,,,-4.94560000e-009,-8.71883248e-005
,,,-4.94540000e-009,-1.19532077e-004
,,,-4.94520000e-009,-1.51875829e-004
,,,-4.94500000e-009,-1.84219581e-004
,,,-4.94480000e-009,-2.17969583e-004
,,,-4.94460000e-009,-2.50313335e-004
,,,-4.94440000e-009,-2.82657087e-004
,,,-4.94420000e-009,-3.15000839e-004
,,,-4.94400000e-009,-3.47344591e-004
,,,-4.94380000e-009,-3.78282092e-004
,,,-4.94360000e-009,-4.10625844e-004
,,,-4.94340000e-009,-4.41563346e-004
,,,-4.94320000e-009,-4.73907098e-004
,,,-4.94300000e-009,-5.04844600e-004
,,,-4.94280000e-009,-5.34375852e-004
,,,-4.94260000e-009,-5.65313354e-004
,,,-4.94240000e-009,-5.94844606e-004
,,,-4.94220000e-009,-6.24375857e-004
,,,-4.94200000e-009,-6.53907109e-004
,,,-4.94180000e-009,-6.82032111e-004
,,,-4.94160000e-009,-7.10157112e-004
,,,-4.94140000e-009,-7.38282114e-004
,,,-4.94120000e-009,-7.65000866e-004
,,,-4.94100000e-009,-7.91719617e-004
,,,-4.94080000e-009,-8.18438369e-004
,,,-4.94060000e-009,-8.43750871e-004
,,,-4.94040000e-009,-8.69063372e-004
,,,-4.94020000e-009,-8.92969624e-004
,,,-4.94000000e-009,-9.16875875e-004
,,,-4.93980000e-009,-9.39375876e-004
,,,-4.93960000e-009,-9.61875878e-004
,,,-4.93940000e-009,-9.82969629e-004
,,,-4.93920000e-009,-1.00406338e-003
,,,-4.93900000e-009,-1.02375088e-003
,,,-4.93880000e-009,-1.04343838e-003
,,,-4.93860000e-009,-1.06171963e-003
,,,-4.93840000e-009,-1.08000088e-003
,,,-4.93820000e-009,-1.09546964e-003
,,,-4.93800000e-009,-1.11093839e-003
,,,-4.93780000e-009,-1.12500089e-003
,,,-4.93760000e-009,-1.13765714e-003
,,,-4.93740000e-009,-1.15031339e-003
,,,-4.93720000e-009,-1.16156339e-003
,,,-4.93700000e-009,-1.17140714e-003
,,,-4.93680000e-009,-1.18125089e-003
,,,-4.93660000e-009,-1.18828214e-003
,,,-4.93640000e-009,-1.19671964e-003
,,,-4.93620000e-009,-1.20234464e-003
,,,-4.93600000e-009,-1.20796964e-003
,,,-4.93580000e-009,-1.21218839e-003
,,,-4.93560000e-009,-1.21500089e-003
,,,-4.93540000e-009,-1.21781339e-003
,,,-4.93520000e-009,-1.21921964e-003
,,,-4.93500000e-009,-1.21921964e-003
,,,-4.93480000e-009,-1.21921964e-003
,,,-4.93460000e-009,-1.21640714e-003
,,,-4.93440000e-009,-1.21359464e-003
,,,-4.93420000e-009,-1.21078214e-003
,,,-4.93400000e-009,-1.20515714e-003
,,,-4.93380000e-009,-1.19953214e-003
,,,-4.93360000e-009,-1.19390714e-003
,,,-4.93340000e-009,-1.18546964e-003
,,,-4.93320000e-009,-1.17703214e-003
,,,-4.93300000e-009,-1.16718839e-003
,,,-4.93280000e-009,-1.15734464e-003
,,,-4.93260000e-009,-1.14609464e-003
,,,-4.93240000e-009,-1.13343839e-003
,,,-4.93220000e-009,-1.12078214e-003
,,,-4.93200000e-009,-1.10671964e-003
,,,-4.93180000e-009,-1.09125089e-003
,,,-4.93160000e-009,-1.07578213e-003
,,,-4.93140000e-009,-1.05890713e-003
,,,-4.93120000e-009,-1.04203213e-003
,,,-4.93100000e-009,-1.02375088e-003
,,,-4.93080000e-009,-1.00406338e-003
,,,-4.93060000e-009,-9.84375879e-004
,,,-4.93040000e-009,-9.63282128e-004
,,,-4.93020000e-009,-9.42188377e-004
,,,-4.93000000e-009,-9.19688375e-004
,,,-4.92980000e-009,-8.97188374e-004
,,,-4.92960000e-009,-8.73282122e-004
,,,-4.92940000e-009,-8.49375871e-004
,,,-4.92920000e-009,-8.25469619e-004
,,,-4.92900000e-009,-7.98750868e-004
,,,-4.92880000e-009,-7.73438366e-004
,,,-4.92860000e-009,-7.46719615e-004
,,,-4.92840000e-009,-7.20000863e-004
,,,-4.92820000e-009,-6.91875861e-004
,,,-4.92800000e-009,-6.62344610e-004
,,,-4.92780000e-009,-6.34219608e-004
,,,-4.92760000e-009,-6.04688356e-004
,,,-4.92740000e-009,-5.75157104e-004
,,,-4.92720000e-009,-5.44219602e-004
,,,-4.92700000e-009,-5.14688351e-004
,,,-4.92680000e-009,-4.83750849e-004
,,,-4.92660000e-009,-4.52813347e-004
,,,-4.92640000e-009,-4.20469595e-004
,,,-4.92620000e-009,-3.89532093e-004
,,,-4.92600000e-009,-3.57188341e-004
,,,-4.92580000e-009,-3.26250839e-004
,,,-4.92560000e-009,-2.93907087e-004
,,,-4.92540000e-009,-2.61563335e-004
,,,-4.92520000e-009,-2.29219583e-004
,,,-4.92500000e-009,-1.96875831e-004
,,,-4.92480000e-009,-1.64532080e-004
,,,-4.92460000e-009,-1.32188328e-004
,,,-4.92440000e-009,-9.98445756e-005
,,,-4.92420000e-009,-6.75008236e-005
,,,-4.92400000e-009,-3.65633218e-005
,,,-4.92380000e-009,-4.21956982e-006
,,,-4.92360000e-009,2.81241821e-005
,,,-4.92340000e-009,5.90616840e-005
,,,-4.92320000e-009,9.14054360e-005
,,,-4.92300000e-009,1.22342938e-004
,,,-4.92280000e-009,1.53280440e-004
,,,-4.92260000e-009,1.84217942e-004
,,,-4.92240000e-009,2.13749193e-004
,,,-4.92220000e-009,2.44686695e-004
,,,-4.92200000e-009,2.74217947e-004
,,,-4.92180000e-009,3.03749199e-004
,,,-4.92160000e-009,3.31874200e-004
,,,-4.92140000e-009,3.59999202e-004
,,,-4.92120000e-009,3.88124204e-004
,,,-4.92100000e-009,4.16249206e-004
,,,-4.92080000e-009,4.42967957e-004
,,,-4.92060000e-009,4.69686709e-004
,,,-4.92040000e-009,4.94999210e-004
,,,-4.92020000e-009,5.20311712e-004
,,,-4.92000000e-009,5.45624213e-004
,,,-4.91980000e-009,5.69530465e-004
,,,-4.91960000e-009,5.93436716e-004
,,,-4.91940000e-009,6.15936718e-004
,,,-4.91920000e-009,6.38436719e-004
,,,-4.91900000e-009,6.59530470e-004
,,,-4.91880000e-009,6.80624222e-004
,,,-4.91860000e-009,7.01717973e-004
,,,-4.91840000e-009,7.19999224e-004
,,,-4.91820000e-009,7.38280475e-004
,,,-4.91800000e-009,7.55155476e-004
,,,-4.91780000e-009,7.72030477e-004
,,,-4.91760000e-009,7.87499228e-004
,,,-4.91740000e-009,8.02967979e-004
,,,-4.91720000e-009,8.17030480e-004
,,,-4.91700000e-009,8.29686731e-004
,,,-4.91680000e-009,8.42342981e-004
,,,-4.91660000e-009,8.53592982e-004
,,,-4.91640000e-009,8.64842983e-004
,,,-4.91620000e-009,8.74686733e-004
,,,-4.91600000e-009,8.83124234e-004
,,,-4.91580000e-009,8.91561734e-004
,,,-4.91560000e-009,8.98592985e-004
,,,-4.91540000e-009,9.05624235e-004
,,,-4.91520000e-009,9.11249236e-004
,,,-4.91500000e-009,9.16874236e-004
,,,-4.91480000e-009,9.21092986e-004
,,,-4.91460000e-009,9.25311736e-004
,,,-4.91440000e-009,9.28124237e-004
,,,-4.91420000e-009,9.29530487e-004
,,,-4.91400000e-009,9.30936737e-004
,,,-4.91380000e-009,9.32342987e-004
,,,-4.91360000e-009,9.30936737e-004
,,,-4.91340000e-009,9.30936737e-004
,,,-4.91320000e-009,9.29530487e-004
,,,-4.91300000e-009,9.26717986e-004
,,,-4.91280000e-009,9.23905486e-004
,,,-4.91260000e-009,9.21092986e-004
,,,-4.91240000e-009,9.16874236e-004
,,,-4.91220000e-009,9.11249236e-004
,,,-4.91200000e-009,9.05624235e-004
,,,-4.91180000e-009,8.99999235e-004
,,,-4.91160000e-009,8.94374234e-004
,,,-4.91140000e-009,8.85936734e-004
,,,-4.91120000e-009,8.78905484e-004
,,,-4.91100000e-009,8.70467983e-004
,,,-4.91080000e-009,8.62030483e-004
,,,-4.91060000e-009,8.52186732e-004
,,,-4.91040000e-009,8.42342981e-004
,,,-4.91020000e-009,8.32499231e-004
,,,-4.91000000e-009,8.21249230e-004
,,,-4.90980000e-009,8.09999229e-004
,,,-4.90960000e-009,7.98749229e-004
,,,-4.90940000e-009,7.86092978e-004
,,,-4.90920000e-009,7.73436727e-004
,,,-4.90900000e-009,7.60780476e-004
,,,-4.90880000e-009,7.48124226e-004
,,,-4.90860000e-009,7.34061725e-004
,,,-4.90840000e-009,7.19999224e-004
,,,-4.90820000e-009,7.05936723e-004
,,,-4.90800000e-009,6.90467972e-004
,,,-4.90780000e-009,6.74999221e-004
,,,-4.90760000e-009,6.59530470e-004
,,,-4.90740000e-009,6.44061719e-004
,,,-4.90720000e-009,6.27186718e-004
,,,-4.90700000e-009,6.10311717e-004
,,,-4.90680000e-009,5.94842966e-004
,,,-4.90660000e-009,5.77967965e-004
,,,-4.90640000e-009,5.61092964e-004
,,,-4.90620000e-009,5.44217963e-004
,,,-4.90600000e-009,5.27342962e-004
,,,-4.90580000e-009,5.10467961e-004
,,,-4.90560000e-009,4.93592960e-004
,,,-4.90540000e-009,4.76717959e-004
,,,-4.90520000e-009,4.59842958e-004
,,,-4.90500000e-009,4.42967957e-004
,,,-4.90480000e-009,4.24686706e-004
,,,-4.90460000e-009,4.07811705e-004
,,,-4.90440000e-009,3.92342954e-004
,,,-4.90420000e-009,3.75467953e-004
,,,-4.90400000e-009,3.58592952e-004
,,,-4.90380000e-009,3.41717951e-004
,,,-4.90360000e-009,3.26249200e-004
,,,-4.90340000e-009,3.09374199e-004
,,,-4.90320000e-009,2.93905448e-004
,,,-4.90300000e-009,2.78436697e-004
,,,-4.90280000e-009,2.61561696e-004
,,,-4.90260000e-009,2.47499195e-004
,,,-4.90240000e-009,2.32030444e-004
,,,-4.90220000e-009,2.16561694e-004
,,,-4.90200000e-009,2.02499193e-004
,,,-4.90180000e-009,1.88436692e-004
,,,-4.90160000e-009,1.74374191e-004
,,,-4.90140000e-009,1.60311690e-004
,,,-4.90120000e-009,1.47655439e-004
,,,-4.90100000e-009,1.34999189e-004
,,,-4.90080000e-009,1.22342938e-004
,,,-4.90060000e-009,1.09686687e-004
,,,-4.90040000e-009,9.84366864e-005
,,,-4.90020000e-009,8.71866857e-005
,,,-4.90000000e-009,7.59366850e-005
,,,-4.89980000e-009,6.46866843e-005
,,,-4.89960000e-009,5.48429338e-005
,,,-4.89940000e-009,4.49991832e-005
,,,-4.89920000e-009,3.51554326e-005
,,,-4.89900000e-009,2.53116820e-005
,,,-4.89880000e-009,1.68741815e-005
,,,-4.89860000e-009,8.43668095e-006
,,,-4.89840000e-009,-8.19563868e-010
,,,-4.89820000e-009,-7.03206999e-006
,,,-4.89800000e-009,-1.40633204e-005
,,,-4.89780000e-009,-2.10945708e-005
,,,-4.89760000e-009,-2.81258213e-005
,,,-4.89740000e-009,-3.37508216e-005
,,,-4.89720000e-009,-3.93758219e-005
,,,-4.89700000e-009,-4.50008223e-005
,,,-4.89680000e-009,-5.06258226e-005
,,,-4.89660000e-009,-5.48445729e-005
,,,-4.89640000e-009,-5.90633231e-005
,,,-4.89620000e-009,-6.32820734e-005
,,,-4.89600000e-009,-6.60945736e-005
,,,-4.89580000e-009,-6.89070737e-005
,,,-4.89560000e-009,-7.17195739e-005
,,,-4.89540000e-009,-7.45320741e-005
,,,-4.89520000e-009,-7.59383242e-005
,,,-4.89500000e-009,-7.87508243e-005
,,,-4.89480000e-009,-8.01570744e-005
,,,-4.89460000e-009,-8.01570744e-005
,,,-4.89440000e-009,-8.15633245e-005
,,,-4.89420000e-009,-8.15633245e-005
,,,-4.89400000e-009,-8.15633245e-005
,,,-4.89380000e-009,-8.15633245e-005
,,,-4.89360000e-009,-8.15633245e-005
,,,-4.89340000e-009,-8.01570744e-005
,,,-4.89320000e-009,-8.01570744e-005
,,,-4.89300000e-009,-7.87508243e-005
,,,-4.89280000e-009,-7.73445742e-005
,,,-4.89260000e-009,-7.59383242e-005
,,,-4.89240000e-009,-7.31258240e-005
,,,-4.89220000e-009,-7.17195739e-005
,,,-4.89200000e-009,-6.89070737e-005
,,,-4.89180000e-009,-6.60945736e-005
