waveforms/060924/Осциллограммы переходов/MO 06_09_2024(2).csv

"Record Length",50000,"Points",-5.00000000e-009,1.82804315e-005
"Sample Interval",2.00000000e-013,s,-4.99980000e-009,3.51554326e-005
"Trigger Point",25000,"Samples",-4.99960000e-009,5.06241835e-005
"Trigger Time",2.36153846e-014,s,-4.99940000e-009,6.60929344e-005
"",,,-4.99920000e-009,8.15616854e-005
"Horizontal Offset",-5.00000000e-009,s,-4.99900000e-009,9.70304363e-005
,,,-4.99880000e-009,1.12499187e-004
,,,-4.99860000e-009,1.26561688e-004
,,,-4.99840000e-009,1.40624189e-004
,,,-4.99820000e-009,1.54686690e-004
,,,-4.99800000e-009,1.67342941e-004
,,,-4.99780000e-009,1.79999191e-004
,,,-4.99760000e-009,1.94061692e-004
,,,-4.99740000e-009,2.05311693e-004
,,,-4.99720000e-009,2.17967944e-004
,,,-4.99700000e-009,2.29217944e-004
,,,-4.99680000e-009,2.40467945e-004
,,,-4.99660000e-009,2.51717946e-004
,,,-4.99640000e-009,2.62967946e-004
,,,-4.99620000e-009,2.72811697e-004
,,,-4.99600000e-009,2.82655448e-004
,,,-4.99580000e-009,2.92499198e-004
,,,-4.99560000e-009,3.00936699e-004
,,,-4.99540000e-009,3.09374199e-004
,,,-4.99520000e-009,3.17811700e-004
,,,-4.99500000e-009,3.26249200e-004
,,,-4.99480000e-009,3.33280451e-004
,,,-4.99460000e-009,3.41717951e-004
,,,-4.99440000e-009,3.47342951e-004
,,,-4.99420000e-009,3.54374202e-004
,,,-4.99400000e-009,3.59999202e-004
,,,-4.99380000e-009,3.65624203e-004
,,,-4.99360000e-009,3.71249203e-004
,,,-4.99340000e-009,3.76874203e-004
,,,-4.99320000e-009,3.81092953e-004
,,,-4.99300000e-009,3.85311704e-004
,,,-4.99280000e-009,3.88124204e-004
,,,-4.99260000e-009,3.92342954e-004
,,,-4.99240000e-009,3.95155454e-004
,,,-4.99220000e-009,3.97967954e-004
,,,-4.99200000e-009,4.00780455e-004
,,,-4.99180000e-009,4.02186705e-004
,,,-4.99160000e-009,4.04999205e-004
,,,-4.99140000e-009,4.06405455e-004
,,,-4.99120000e-009,4.07811705e-004
,,,-4.99100000e-009,4.09217955e-004
,,,-4.99080000e-009,4.09217955e-004
,,,-4.99060000e-009,4.10624205e-004
,,,-4.99040000e-009,4.10624205e-004
,,,-4.99020000e-009,4.10624205e-004
,,,-4.99000000e-009,4.10624205e-004
,,,-4.98980000e-009,4.10624205e-004
,,,-4.98960000e-009,4.10624205e-004
,,,-4.98940000e-009,4.09217955e-004
,,,-4.98920000e-009,4.09217955e-004
,,,-4.98900000e-009,4.07811705e-004
,,,-4.98880000e-009,4.06405455e-004
,,,-4.98860000e-009,4.04999205e-004
,,,-4.98840000e-009,4.03592955e-004
,,,-4.98820000e-009,4.02186705e-004
,,,-4.98800000e-009,4.00780455e-004
,,,-4.98780000e-009,3.99374205e-004
,,,-4.98760000e-009,3.97967954e-004
,,,-4.98740000e-009,3.95155454e-004
,,,-4.98720000e-009,3.93749204e-004
,,,-4.98700000e-009,3.90936704e-004
,,,-4.98680000e-009,3.89530454e-004
,,,-4.98660000e-009,3.86717954e-004
,,,-4.98640000e-009,3.85311704e-004
,,,-4.98620000e-009,3.83905454e-004
,,,-4.98600000e-009,3.81092953e-004
,,,-4.98580000e-009,3.78280453e-004
,,,-4.98560000e-009,3.76874203e-004
,,,-4.98540000e-009,3.74061703e-004
,,,-4.98520000e-009,3.72655453e-004
,,,-4.98500000e-009,3.69842953e-004
,,,-4.98480000e-009,3.68436703e-004
,,,-4.98460000e-009,3.67030453e-004
,,,-4.98440000e-009,3.64217952e-004
,,,-4.98420000e-009,3.62811702e-004
,,,-4.98400000e-009,3.59999202e-004
,,,-4.98380000e-009,3.58592952e-004
,,,-4.98360000e-009,3.57186702e-004
,,,-4.98340000e-009,3.54374202e-004
,,,-4.98320000e-009,3.52967952e-004
,,,-4.98300000e-009,3.51561702e-004
,,,-4.98280000e-009,3.50155452e-004
,,,-4.98260000e-009,3.48749202e-004
,,,-4.98240000e-009,3.47342951e-004
,,,-4.98220000e-009,3.47342951e-004
,,,-4.98200000e-009,3.45936701e-004
,,,-4.98180000e-009,3.45936701e-004
,,,-4.98160000e-009,3.44530451e-004
,,,-4.98140000e-009,3.44530451e-004
,,,-4.98120000e-009,3.44530451e-004
,,,-4.98100000e-009,3.43124201e-004
,,,-4.98080000e-009,3.43124201e-004
,,,-4.98060000e-009,3.43124201e-004
,,,-4.98040000e-009,3.43124201e-004
,,,-4.98020000e-009,3.43124201e-004
,,,-4.98000000e-009,3.44530451e-004
,,,-4.97980000e-009,3.44530451e-004
,,,-4.97960000e-009,3.44530451e-004
,,,-4.97940000e-009,3.45936701e-004
,,,-4.97920000e-009,3.45936701e-004
,,,-4.97900000e-009,3.45936701e-004
,,,-4.97880000e-009,3.47342951e-004
,,,-4.97860000e-009,3.47342951e-004
,,,-4.97840000e-009,3.48749202e-004
,,,-4.97820000e-009,3.48749202e-004
,,,-4.97800000e-009,3.50155452e-004
,,,-4.97780000e-009,3.51561702e-004
,,,-4.97760000e-009,3.51561702e-004
,,,-4.97740000e-009,3.52967952e-004
,,,-4.97720000e-009,3.52967952e-004
,,,-4.97700000e-009,3.54374202e-004
,,,-4.97680000e-009,3.54374202e-004
,,,-4.97660000e-009,3.55780452e-004
,,,-4.97640000e-009,3.55780452e-004
,,,-4.97620000e-009,3.57186702e-004
,,,-4.97600000e-009,3.57186702e-004
,,,-4.97580000e-009,3.58592952e-004
,,,-4.97560000e-009,3.58592952e-004
,,,-4.97540000e-009,3.59999202e-004
,,,-4.97520000e-009,3.59999202e-004
,,,-4.97500000e-009,3.59999202e-004
,,,-4.97480000e-009,3.59999202e-004
,,,-4.97460000e-009,3.59999202e-004
,,,-4.97440000e-009,3.59999202e-004
,,,-4.97420000e-009,3.61405452e-004
,,,-4.97400000e-009,3.59999202e-004
,,,-4.97380000e-009,3.59999202e-004
,,,-4.97360000e-009,3.58592952e-004
,,,-4.97340000e-009,3.57186702e-004
,,,-4.97320000e-009,3.55780452e-004
,,,-4.97300000e-009,3.54374202e-004
,,,-4.97280000e-009,3.52967952e-004
,,,-4.97260000e-009,3.51561702e-004
,,,-4.97240000e-009,3.50155452e-004
,,,-4.97220000e-009,3.48749202e-004
,,,-4.97200000e-009,3.47342951e-004
,,,-4.97180000e-009,3.47342951e-004
,,,-4.97160000e-009,3.45936701e-004
,,,-4.97140000e-009,3.44530451e-004
,,,-4.97120000e-009,3.43124201e-004
,,,-4.97100000e-009,3.43124201e-004
,,,-4.97080000e-009,3.41717951e-004
,,,-4.97060000e-009,3.40311701e-004
,,,-4.97040000e-009,3.40311701e-004
,,,-4.97020000e-009,3.38905451e-004
,,,-4.97000000e-009,3.38905451e-004
,,,-4.96980000e-009,3.37499201e-004
,,,-4.96960000e-009,3.37499201e-004
,,,-4.96940000e-009,3.37499201e-004
,,,-4.96920000e-009,3.36092951e-004
,,,-4.96900000e-009,3.36092951e-004
,,,-4.96880000e-009,3.36092951e-004
,,,-4.96860000e-009,3.36092951e-004
,,,-4.96840000e-009,3.36092951e-004
,,,-4.96820000e-009,3.36092951e-004
,,,-4.96800000e-009,3.36092951e-004
,,,-4.96780000e-009,3.36092951e-004
,,,-4.96760000e-009,3.37499201e-004
,,,-4.96740000e-009,3.37499201e-004
,,,-4.96720000e-009,3.37499201e-004
,,,-4.96700000e-009,3.38905451e-004
,,,-4.96680000e-009,3.38905451e-004
,,,-4.96660000e-009,3.40311701e-004
,,,-4.96640000e-009,3.41717951e-004
,,,-4.96620000e-009,3.43124201e-004
,,,-4.96600000e-009,3.44530451e-004
,,,-4.96580000e-009,3.44530451e-004
,,,-4.96560000e-009,3.45936701e-004
,,,-4.96540000e-009,3.47342951e-004
,,,-4.96520000e-009,3.50155452e-004
,,,-4.96500000e-009,3.51561702e-004
,,,-4.96480000e-009,3.52967952e-004
,,,-4.96460000e-009,3.54374202e-004
,,,-4.96440000e-009,3.57186702e-004
,,,-4.96420000e-009,3.58592952e-004
,,,-4.96400000e-009,3.59999202e-004
,,,-4.96380000e-009,3.61405452e-004
,,,-4.96360000e-009,3.62811702e-004
,,,-4.96340000e-009,3.62811702e-004
,,,-4.96320000e-009,3.64217952e-004
,,,-4.96300000e-009,3.65624203e-004
,,,-4.96280000e-009,3.67030453e-004
,,,-4.96260000e-009,3.68436703e-004
,,,-4.96240000e-009,3.69842953e-004
,,,-4.96220000e-009,3.71249203e-004
,,,-4.96200000e-009,3.72655453e-004
,,,-4.96180000e-009,3.74061703e-004
,,,-4.96160000e-009,3.75467953e-004
,,,-4.96140000e-009,3.76874203e-004
,,,-4.96120000e-009,3.78280453e-004
,,,-4.96100000e-009,3.79686703e-004
,,,-4.96080000e-009,3.82499204e-004
,,,-4.96060000e-009,3.83905454e-004
,,,-4.96040000e-009,3.85311704e-004
,,,-4.96020000e-009,3.86717954e-004
,,,-4.96000000e-009,3.88124204e-004
,,,-4.95980000e-009,3.89530454e-004
,,,-4.95960000e-009,3.89530454e-004
,,,-4.95940000e-009,3.90936704e-004
,,,-4.95920000e-009,3.92342954e-004
,,,-4.95900000e-009,3.93749204e-004
,,,-4.95880000e-009,3.93749204e-004
,,,-4.95860000e-009,3.95155454e-004
,,,-4.95840000e-009,3.95155454e-004
,,,-4.95820000e-009,3.95155454e-004
,,,-4.95800000e-009,3.96561704e-004
,,,-4.95780000e-009,3.96561704e-004
,,,-4.95760000e-009,3.96561704e-004
,,,-4.95740000e-009,3.95155454e-004
,,,-4.95720000e-009,3.95155454e-004
,,,-4.95700000e-009,3.95155454e-004
,,,-4.95680000e-009,3.93749204e-004
,,,-4.95660000e-009,3.92342954e-004
,,,-4.95640000e-009,3.90936704e-004
,,,-4.95620000e-009,3.89530454e-004
,,,-4.95600000e-009,3.88124204e-004
,,,-4.95580000e-009,3.86717954e-004
,,,-4.95560000e-009,3.83905454e-004
,,,-4.95540000e-009,3.82499204e-004
,,,-4.95520000e-009,3.79686703e-004
,,,-4.95500000e-009,3.76874203e-004
,,,-4.95480000e-009,3.74061703e-004
,,,-4.95460000e-009,3.71249203e-004
,,,-4.95440000e-009,3.67030453e-004
,,,-4.95420000e-009,3.64217952e-004
,,,-4.95400000e-009,3.59999202e-004
,,,-4.95380000e-009,3.55780452e-004
,,,-4.95360000e-009,3.51561702e-004
,,,-4.95340000e-009,3.47342951e-004
,,,-4.95320000e-009,3.43124201e-004
,,,-4.95300000e-009,3.38905451e-004
,,,-4.95280000e-009,3.33280451e-004
,,,-4.95260000e-009,3.29061700e-004
,,,-4.95240000e-009,3.24842950e-004
,,,-4.95220000e-009,3.19217950e-004
,,,-4.95200000e-009,3.14999199e-004
,,,-4.95180000e-009,3.10780449e-004
,,,-4.95160000e-009,3.06561699e-004
,,,-4.95140000e-009,3.00936699e-004
,,,-4.95120000e-009,2.96717948e-004
,,,-4.95100000e-009,2.92499198e-004
,,,-4.95080000e-009,2.88280448e-004
,,,-4.95060000e-009,2.84061698e-004
,,,-4.95040000e-009,2.81249197e-004
,,,-4.95020000e-009,2.77030447e-004
,,,-4.95000000e-009,2.74217947e-004
,,,-4.94980000e-009,2.69999197e-004
,,,-4.94960000e-009,2.67186697e-004
,,,-4.94940000e-009,2.65780446e-004
,,,-4.94920000e-009,2.62967946e-004
,,,-4.94900000e-009,2.60155446e-004
,,,-4.94880000e-009,2.58749196e-004
,,,-4.94860000e-009,2.57342946e-004
,,,-4.94840000e-009,2.57342946e-004
,,,-4.94820000e-009,2.55936696e-004
,,,-4.94800000e-009,2.55936696e-004
,,,-4.94780000e-009,2.57342946e-004
,,,-4.94760000e-009,2.57342946e-004
,,,-4.94740000e-009,2.58749196e-004
,,,-4.94720000e-009,2.60155446e-004
,,,-4.94700000e-009,2.62967946e-004
,,,-4.94680000e-009,2.65780446e-004
,,,-4.94660000e-009,2.68592947e-004
,,,-4.94640000e-009,2.72811697e-004
,,,-4.94620000e-009,2.77030447e-004
,,,-4.94600000e-009,2.81249197e-004
,,,-4.94580000e-009,2.86874198e-004
,,,-4.94560000e-009,2.92499198e-004
,,,-4.94540000e-009,2.99530449e-004
,,,-4.94520000e-009,3.06561699e-004
,,,-4.94500000e-009,3.13592949e-004
,,,-4.94480000e-009,3.22030450e-004
,,,-4.94460000e-009,3.30467950e-004
,,,-4.94440000e-009,3.40311701e-004
,,,-4.94420000e-009,3.50155452e-004
,,,-4.94400000e-009,3.59999202e-004
,,,-4.94380000e-009,3.71249203e-004
,,,-4.94360000e-009,3.82499204e-004
,,,-4.94340000e-009,3.93749204e-004
,,,-4.94320000e-009,4.04999205e-004
,,,-4.94300000e-009,4.17655456e-004
,,,-4.94280000e-009,4.30311706e-004
,,,-4.94260000e-009,4.42967957e-004
,,,-4.94240000e-009,4.57030458e-004
,,,-4.94220000e-009,4.71092959e-004
,,,-4.94200000e-009,4.85155460e-004
,,,-4.94180000e-009,5.00624211e-004
,,,-4.94160000e-009,5.14686712e-004
,,,-4.94140000e-009,5.30155462e-004
,,,-4.94120000e-009,5.45624213e-004
,,,-4.94100000e-009,5.62499214e-004
,,,-4.94080000e-009,5.77967965e-004
,,,-4.94060000e-009,5.94842966e-004
,,,-4.94040000e-009,6.10311717e-004
,,,-4.94020000e-009,6.27186718e-004
,,,-4.94000000e-009,6.44061719e-004
,,,-4.93980000e-009,6.60936720e-004
,,,-4.93960000e-009,6.77811721e-004
,,,-4.93940000e-009,6.96092973e-004
,,,-4.93920000e-009,7.12967974e-004
,,,-4.93900000e-009,7.29842975e-004
,,,-4.93880000e-009,7.46717976e-004
,,,-4.93860000e-009,7.63592977e-004
,,,-4.93840000e-009,7.80467978e-004
,,,-4.93820000e-009,7.97342979e-004
,,,-4.93800000e-009,8.14217980e-004
,,,-4.93780000e-009,8.31092981e-004
,,,-4.93760000e-009,8.47967982e-004
,,,-4.93740000e-009,8.63436733e-004
,,,-4.93720000e-009,8.78905484e-004
,,,-4.93700000e-009,8.95780485e-004
,,,-4.93680000e-009,9.11249236e-004
,,,-4.93660000e-009,9.25311736e-004
,,,-4.93640000e-009,9.40780487e-004
,,,-4.93620000e-009,9.54842988e-004
,,,-4.93600000e-009,9.68905489e-004
,,,-4.93580000e-009,9.81561740e-004
,,,-4.93560000e-009,9.95624241e-004
,,,-4.93540000e-009,1.00828049e-003
,,,-4.93520000e-009,1.01953049e-003
,,,-4.93500000e-009,1.03078049e-003
,,,-4.93480000e-009,1.04203049e-003
,,,-4.93460000e-009,1.05328049e-003
,,,-4.93440000e-009,1.06312424e-003
,,,-4.93420000e-009,1.07156175e-003
,,,-4.93400000e-009,1.07999925e-003
,,,-4.93380000e-009,1.08703050e-003
,,,-4.93360000e-009,1.09265550e-003
,,,-4.93340000e-009,1.09687425e-003
,,,-4.93320000e-009,1.10249925e-003
,,,-4.93300000e-009,1.10531175e-003
,,,-4.93280000e-009,1.10812425e-003
,,,-4.93260000e-009,1.11093675e-003
,,,-4.93240000e-009,1.11234300e-003
,,,-4.93220000e-009,1.11234300e-003
,,,-4.93200000e-009,1.11234300e-003
,,,-4.93180000e-009,1.11234300e-003
,,,-4.93160000e-009,1.11093675e-003
,,,-4.93140000e-009,1.10953050e-003
,,,-4.93120000e-009,1.10671800e-003
,,,-4.93100000e-009,1.10390550e-003
,,,-4.93080000e-009,1.09968675e-003
,,,-4.93060000e-009,1.09546800e-003
,,,-4.93040000e-009,1.08984300e-003
,,,-4.93020000e-009,1.08421800e-003
,,,-4.93000000e-009,1.07859300e-003
,,,-4.92980000e-009,1.07156175e-003
,,,-4.92960000e-009,1.06453049e-003
,,,-4.92940000e-009,1.05609299e-003
,,,-4.92920000e-009,1.04765549e-003
,,,-4.92900000e-009,1.03921799e-003
,,,-4.92880000e-009,1.02937424e-003
,,,-4.92860000e-009,1.01953049e-003
,,,-4.92840000e-009,1.00968674e-003
,,,-4.92820000e-009,9.98436741e-004
,,,-4.92800000e-009,9.87186740e-004
,,,-4.92780000e-009,9.75936739e-004
,,,-4.92760000e-009,9.64686739e-004
,,,-4.92740000e-009,9.52030488e-004
,,,-4.92720000e-009,9.40780487e-004
,,,-4.92700000e-009,9.28124237e-004
,,,-4.92680000e-009,9.14061736e-004
,,,-4.92660000e-009,9.01405485e-004
,,,-4.92640000e-009,8.88749234e-004
,,,-4.92620000e-009,8.74686733e-004
,,,-4.92600000e-009,8.60624232e-004
,,,-4.92580000e-009,8.46561732e-004
,,,-4.92560000e-009,8.33905481e-004
,,,-4.92540000e-009,8.19842980e-004
,,,-4.92520000e-009,8.05780479e-004
,,,-4.92500000e-009,7.91717978e-004
,,,-4.92480000e-009,7.77655477e-004
,,,-4.92460000e-009,7.63592977e-004
,,,-4.92440000e-009,7.48124226e-004
,,,-4.92420000e-009,7.34061725e-004
,,,-4.92400000e-009,7.19999224e-004
,,,-4.92380000e-009,7.05936723e-004
,,,-4.92360000e-009,6.91874222e-004
,,,-4.92340000e-009,6.77811721e-004
,,,-4.92320000e-009,6.62342970e-004
,,,-4.92300000e-009,6.48280470e-004
,,,-4.92280000e-009,6.35624219e-004
,,,-4.92260000e-009,6.21561718e-004
,,,-4.92240000e-009,6.08905467e-004
,,,-4.92220000e-009,5.94842966e-004
,,,-4.92200000e-009,5.82186716e-004
,,,-4.92180000e-009,5.69530465e-004
,,,-4.92160000e-009,5.58280464e-004
,,,-4.92140000e-009,5.45624213e-004
,,,-4.92120000e-009,5.34374213e-004
,,,-4.92100000e-009,5.23124212e-004
,,,-4.92080000e-009,5.11874211e-004
,,,-4.92060000e-009,5.02030461e-004
,,,-4.92040000e-009,4.92186710e-004
,,,-4.92020000e-009,4.82342960e-004
,,,-4.92000000e-009,4.72499209e-004
,,,-4.91980000e-009,4.62655458e-004
,,,-4.91960000e-009,4.54217958e-004
,,,-4.91940000e-009,4.45780457e-004
,,,-4.91920000e-009,4.38749207e-004
,,,-4.91900000e-009,4.30311706e-004
,,,-4.91880000e-009,4.23280456e-004
,,,-4.91860000e-009,4.17655456e-004
,,,-4.91840000e-009,4.10624205e-004
,,,-4.91820000e-009,4.04999205e-004
,,,-4.91800000e-009,3.99374205e-004
,,,-4.91780000e-009,3.93749204e-004
,,,-4.91760000e-009,3.89530454e-004
,,,-4.91740000e-009,3.85311704e-004
,,,-4.91720000e-009,3.81092953e-004
,,,-4.91700000e-009,3.76874203e-004
,,,-4.91680000e-009,3.74061703e-004
,,,-4.91660000e-009,3.71249203e-004
,,,-4.91640000e-009,3.68436703e-004
,,,-4.91620000e-009,3.65624203e-004
,,,-4.91600000e-009,3.64217952e-004
,,,-4.91580000e-009,3.62811702e-004
,,,-4.91560000e-009,3.61405452e-004
,,,-4.91540000e-009,3.59999202e-004
,,,-4.91520000e-009,3.59999202e-004
,,,-4.91500000e-009,3.58592952e-004
,,,-4.91480000e-009,3.58592952e-004
,,,-4.91460000e-009,3.58592952e-004
,,,-4.91440000e-009,3.58592952e-004
,,,-4.91420000e-009,3.59999202e-004
,,,-4.91400000e-009,3.59999202e-004
,,,-4.91380000e-009,3.61405452e-004
,,,-4.91360000e-009,3.61405452e-004
,,,-4.91340000e-009,3.62811702e-004
,,,-4.91320000e-009,3.64217952e-004
,,,-4.91300000e-009,3.65624203e-004
,,,-4.91280000e-009,3.65624203e-004
,,,-4.91260000e-009,3.67030453e-004
,,,-4.91240000e-009,3.68436703e-004
,,,-4.91220000e-009,3.71249203e-004
,,,-4.91200000e-009,3.72655453e-004
,,,-4.91180000e-009,3.74061703e-004
,,,-4.91160000e-009,3.75467953e-004
,,,-4.91140000e-009,3.78280453e-004
,,,-4.91120000e-009,3.79686703e-004
,,,-4.91100000e-009,3.81092953e-004
,,,-4.91080000e-009,3.82499204e-004
,,,-4.91060000e-009,3.85311704e-004
,,,-4.91040000e-009,3.86717954e-004
,,,-4.91020000e-009,3.88124204e-004
,,,-4.91000000e-009,3.89530454e-004
,,,-4.90980000e-009,3.92342954e-004
,,,-4.90960000e-009,3.93749204e-004
,,,-4.90940000e-009,3.95155454e-004
,,,-4.90920000e-009,3.96561704e-004
,,,-4.90900000e-009,3.97967954e-004
,,,-4.90880000e-009,3.99374205e-004
,,,-4.90860000e-009,3.99374205e-004
,,,-4.90840000e-009,4.00780455e-004
,,,-4.90820000e-009,4.00780455e-004
,,,-4.90800000e-009,4.02186705e-004
,,,-4.90780000e-009,4.02186705e-004
,,,-4.90760000e-009,4.02186705e-004
,,,-4.90740000e-009,4.02186705e-004
,,,-4.90720000e-009,4.02186705e-004
,,,-4.90700000e-009,4.02186705e-004
,,,-4.90680000e-009,4.00780455e-004
,,,-4.90660000e-009,3.99374205e-004
,,,-4.90640000e-009,3.97967954e-004
,,,-4.90620000e-009,3.96561704e-004
,,,-4.90600000e-009,3.95155454e-004
,,,-4.90580000e-009,3.93749204e-004
,,,-4.90560000e-009,3.90936704e-004
,,,-4.90540000e-009,3.88124204e-004
,,,-4.90520000e-009,3.85311704e-004
,,,-4.90500000e-009,3.82499204e-004
,,,-4.90480000e-009,3.78280453e-004
,,,-4.90460000e-009,3.74061703e-004
,,,-4.90440000e-009,3.69842953e-004
,,,-4.90420000e-009,3.65624203e-004
,,,-4.90400000e-009,3.59999202e-004
,,,-4.90380000e-009,3.54374202e-004
,,,-4.90360000e-009,3.47342951e-004
,,,-4.90340000e-009,3.41717951e-004
,,,-4.90320000e-009,3.33280451e-004
,,,-4.90300000e-009,3.26249200e-004
,,,-4.90280000e-009,3.17811700e-004
,,,-4.90260000e-009,3.09374199e-004
,,,-4.90240000e-009,3.00936699e-004
,,,-4.90220000e-009,2.91092948e-004
,,,-4.90200000e-009,2.81249197e-004
,,,-4.90180000e-009,2.71405447e-004
,,,-4.90160000e-009,2.61561696e-004
,,,-4.90140000e-009,2.50311696e-004
,,,-4.90120000e-009,2.39061695e-004
,,,-4.90100000e-009,2.27811694e-004
,,,-4.90080000e-009,2.15155443e-004
,,,-4.90060000e-009,2.02499193e-004
,,,-4.90040000e-009,1.89842942e-004
,,,-4.90020000e-009,1.77186691e-004
,,,-4.90000000e-009,1.63124190e-004
,,,-4.89980000e-009,1.49061689e-004
,,,-4.89960000e-009,1.34999189e-004
,,,-4.89940000e-009,1.20936688e-004
,,,-4.89920000e-009,1.05467937e-004
,,,-4.89900000e-009,8.99991859e-005
,,,-4.89880000e-009,7.45304349e-005
,,,-4.89860000e-009,5.90616840e-005
,,,-4.89840000e-009,4.21866830e-005
,,,-4.89820000e-009,2.67179321e-005
,,,-4.89800000e-009,9.84293103e-006
,,,-4.89780000e-009,-7.03206999e-006
,,,-4.89760000e-009,-2.53133211e-005
,,,-4.89740000e-009,-4.21883221e-005
,,,-4.89720000e-009,-6.04695732e-005
,,,-4.89700000e-009,-7.73445742e-005
,,,-4.89680000e-009,-9.56258253e-005
,,,-4.89660000e-009,-1.13907076e-004
,,,-4.89640000e-009,-1.32188328e-004
,,,-4.89620000e-009,-1.50469579e-004
,,,-4.89600000e-009,-1.70157080e-004
,,,-4.89580000e-009,-1.88438331e-004
,,,-4.89560000e-009,-2.06719582e-004
,,,-4.89540000e-009,-2.26407083e-004
,,,-4.89520000e-009,-2.44688334e-004
,,,-4.89500000e-009,-2.64375836e-004
,,,-4.89480000e-009,-2.84063337e-004
,,,-4.89460000e-009,-3.02344588e-004
,,,-4.89440000e-009,-3.22032089e-004
,,,-4.89420000e-009,-3.40313340e-004
,,,-4.89400000e-009,-3.60000841e-004
,,,-4.89380000e-009,-3.76875842e-004
,,,-4.89360000e-009,-3.95157093e-004
,,,-4.89340000e-009,-4.12032094e-004
,,,-4.89320000e-009,-4.28907095e-004
,,,-4.89300000e-009,-4.45782097e-004
,,,-4.89280000e-009,-4.62657098e-004
,,,-4.89260000e-009,-4.79532099e-004
,,,-4.89240000e-009,-4.95000849e-004
,,,-4.89220000e-009,-5.10469600e-004
,,,-4.89200000e-009,-5.25938351e-004
,,,-4.89180000e-009,-5.41407102e-004
,,,-4.89160000e-009,-5.56875853e-004
,,,-4.89140000e-009,-5.70938354e-004
,,,-4.89120000e-009,-5.85000855e-004
,,,-4.89100000e-009,-5.99063356e-004
,,,-4.89080000e-009,-6.11719607e-004
,,,-4.89060000e-009,-6.24375857e-004
,,,-4.89040000e-009,-6.37032108e-004
,,,-4.89020000e-009,-6.48282109e-004
