waveforms/Tek116_ALL/Tek063_ALL.csv

Model,MSO64
Channel,CH1,,Channel,CH2
Waveform Type,ANALOG,,Waveform Type,ANALOG
Horizontal Units,s,,Horizontal Units,s
Sample Interval,4.00000000e-11,,Sample Interval,4.00000000e-11
Record Length,80000,,Record Length,80000
Zero Index,10399.48437500,,Zero Index,10399.48437500
Vertical Units,V,,Vertical Units,V
,,,,
ANALOG_Thumbnail,,,ANALOG_Thumbnail,

TIME,CH1,CH2
-4.15979375e-07,4.09375000e-04,1.53536563e-02
-4.15939375e-07,1.28125000e-04,1.54981563e-02
-4.15899375e-07,9.21875000e-05,1.55666875e-02
-4.15859375e-07,3.03125000e-04,1.55247188e-02
-4.15819375e-07,5.82812500e-04,1.54025313e-02
-4.15779375e-07,7.04687500e-04,1.52755625e-02
-4.15739375e-07,5.60937500e-04,1.52150000e-02
-4.15699375e-07,2.46875000e-04,1.52426250e-02
-4.15659375e-07,-2.65625000e-05,1.53191250e-02
-4.15619375e-07,-8.59375000e-05,1.53743750e-02
-4.15579375e-07,7.34375000e-05,1.53589688e-02
-4.15539375e-07,3.12500000e-04,1.52776875e-02
-4.15499375e-07,4.59375000e-04,1.51873750e-02
-4.15459375e-07,4.48437500e-04,1.51539063e-02
-4.15419375e-07,3.43750000e-04,1.52054375e-02
-4.15379375e-07,2.76562500e-04,1.53106250e-02
-4.15339375e-07,3.25000000e-04,1.54041250e-02
-4.15299375e-07,4.65625000e-04,1.54344063e-02
-4.15259375e-07,6.04687500e-04,1.54004063e-02
-4.15219375e-07,6.70312500e-04,1.53488750e-02
-4.15179375e-07,6.59375000e-04,1.53329375e-02
-4.15139375e-07,6.23437500e-04,1.53717188e-02
-4.15099375e-07,6.09375000e-04,1.54349375e-02
-4.15059375e-07,6.17187500e-04,1.54726563e-02
-4.15019375e-07,6.14062500e-04,1.54609688e-02
-4.14979375e-07,5.87500000e-04,1.54216563e-02
-4.14939375e-07,5.71875000e-04,1.54020000e-02
-4.14899375e-07,6.20312500e-04,1.54328125e-02
-4.14859375e-07,7.46875000e-04,1.54981563e-02
-4.14819375e-07,8.89062500e-04,1.55475625e-02
-4.14779375e-07,9.43750000e-04,1.55411875e-02
-4.14739375e-07,8.42187500e-04,1.54811563e-02
-4.14699375e-07,6.12500000e-04,1.54120938e-02
-4.14659375e-07,3.71875000e-04,1.53823438e-02
-4.14619375e-07,2.51562500e-04,1.53988125e-02
-4.14579375e-07,3.04687500e-04,1.54253750e-02
-4.14539375e-07,4.68750000e-04,1.54142187e-02
-4.14499375e-07,6.12500000e-04,1.53504688e-02
-4.14459375e-07,6.32812500e-04,1.52697188e-02
-4.14419375e-07,5.14062500e-04,1.52288125e-02
-4.14379375e-07,3.48437500e-04,1.52585625e-02
-4.14339375e-07,2.59375000e-04,1.53403750e-02
-4.14299375e-07,3.23437500e-04,1.54195313e-02
-4.14259375e-07,5.15625000e-04,1.54503438e-02
-4.14219375e-07,7.18750000e-04,1.54296250e-02
-4.14179375e-07,7.98437500e-04,1.53913750e-02
-4.14139375e-07,6.87500000e-04,1.53733125e-02
-4.14099375e-07,4.34375000e-04,1.53823438e-02
-4.14059375e-07,1.78125000e-04,1.53908438e-02
-4.14019375e-07,6.87500000e-05,1.53674688e-02
-4.13979375e-07,1.65625000e-04,1.53074375e-02
-4.13939375e-07,3.95312500e-04,1.52415625e-02
-4.13899375e-07,5.96875000e-04,1.52134063e-02
-4.13859375e-07,6.21875000e-04,1.52436875e-02
-4.13819375e-07,4.40625000e-04,1.53143438e-02
-4.13779375e-07,1.70312500e-04,1.53844688e-02
-4.13739375e-07,-1.09375000e-05,1.54190000e-02
-4.13699375e-07,2.03125000e-05,1.54126250e-02
-4.13659375e-07,2.42187500e-04,1.53834063e-02
-4.13619375e-07,5.10937500e-04,1.53547188e-02
-4.13579375e-07,6.56250000e-04,1.53345313e-02
-4.13539375e-07,5.98437500e-04,1.53212500e-02
-4.13499375e-07,3.89062500e-04,1.53164688e-02
-4.13459375e-07,1.62500000e-04,1.53350625e-02
-4.13419375e-07,5.15625000e-05,1.53929688e-02
-4.13379375e-07,1.09375000e-04,1.54880625e-02
-4.13339375e-07,3.03125000e-04,1.55868750e-02
-4.13299375e-07,5.48437500e-04,1.56426563e-02
-4.13259375e-07,7.57812500e-04,1.56288437e-02
-4.13219375e-07,8.60937500e-04,1.55619063e-02
-4.13179375e-07,8.25000000e-04,1.54949688e-02
-4.13139375e-07,6.56250000e-04,1.54753125e-02
-4.13099375e-07,4.17187500e-04,1.55087813e-02
-4.13059375e-07,2.15625000e-04,1.55534063e-02
-4.13019375e-07,1.64062500e-04,1.55544688e-02
-4.12979375e-07,3.14062500e-04,1.54901875e-02
-4.12939375e-07,6.07812500e-04,1.53924375e-02
-4.12899375e-07,8.90625000e-04,1.53249688e-02
-4.12859375e-07,9.95312500e-04,1.53308125e-02
-4.12819375e-07,8.46875000e-04,1.53988125e-02
-4.12779375e-07,5.21875000e-04,1.54689375e-02
-4.12739375e-07,2.04687500e-04,1.54800937e-02
-4.12699375e-07,7.81250000e-05,1.54136875e-02
-4.12659375e-07,2.06250000e-04,1.53095625e-02
-4.12619375e-07,4.85937500e-04,1.52341250e-02
-4.12579375e-07,7.20312500e-04,1.52304063e-02
-4.12539375e-07,7.42187500e-04,1.52925625e-02
-4.12499375e-07,5.28125000e-04,1.53743750e-02
-4.12459375e-07,2.23437500e-04,1.54243125e-02
-4.12419375e-07,4.53125000e-05,1.54211250e-02
-4.12379375e-07,1.42187500e-04,1.53818125e-02
-4.12339375e-07,4.84375000e-04,1.53446250e-02
-4.12299375e-07,8.75000000e-04,1.53435625e-02
-4.12259375e-07,1.07343750e-03,1.53913750e-02
-4.12219375e-07,9.56250000e-04,1.54763750e-02
-4.12179375e-07,5.98437500e-04,1.55704063e-02
-4.12139375e-07,2.29687500e-04,1.56373438e-02
-4.12099375e-07,7.50000000e-05,1.56458437e-02
-4.12059375e-07,2.07812500e-04,1.55789062e-02
-4.12019375e-07,5.03125000e-04,1.54482188e-02
-4.11979375e-07,7.37500000e-04,1.52989375e-02
-4.11939375e-07,7.53125000e-04,1.51910938e-02
-4.11899375e-07,5.65625000e-04,1.51725000e-02
-4.11859375e-07,3.37500000e-04,1.52505938e-02
-4.11819375e-07,2.42187500e-04,1.53876563e-02
-4.11779375e-07,3.34375000e-04,1.55188750e-02
-4.11739375e-07,5.21875000e-04,1.55921875e-02
-4.11699375e-07,6.45312500e-04,1.55895313e-02
-4.11659375e-07,6.15625000e-04,1.55284375e-02
-4.11619375e-07,4.64062500e-04,1.54445000e-02
-4.11579375e-07,3.01562500e-04,1.53680000e-02
-4.11539375e-07,2.09375000e-04,1.53191250e-02
-4.11499375e-07,1.89062500e-04,1.53058438e-02
-4.11459375e-07,1.79687500e-04,1.53297500e-02
-4.11419375e-07,1.43750000e-04,1.53812812e-02
-4.11379375e-07,1.12500000e-04,1.54365313e-02
-4.11339375e-07,1.48437500e-04,1.54599063e-02
-4.11299375e-07,2.70312500e-04,1.54232500e-02
-4.11259375e-07,4.18750000e-04,1.53292187e-02
-4.11219375e-07,4.93750000e-04,1.52171250e-02
-4.11179375e-07,4.62500000e-04,1.51448750e-02
-4.11139375e-07,3.93750000e-04,1.51533750e-02
-4.11099375e-07,4.10937500e-04,1.52399688e-02
-4.11059375e-07,5.68750000e-04,1.53584375e-02
-4.11019375e-07,7.78125000e-04,1.54514063e-02
-4.10979375e-07,8.57812500e-04,1.54912500e-02
-4.10939375e-07,6.78125000e-04,1.54912500e-02
-4.10899375e-07,2.85937500e-04,1.54923125e-02
-4.10859375e-07,-1.00000000e-04,1.55210000e-02
-4.10819375e-07,-2.34375000e-04,1.55635000e-02
-4.10779375e-07,-2.81250000e-05,1.55751875e-02
-4.10739375e-07,3.90625000e-04,1.55178125e-02
-4.10699375e-07,7.54687500e-04,1.53988125e-02
-4.10659375e-07,8.40625000e-04,1.52787500e-02
-4.10619375e-07,6.20312500e-04,1.52341250e-02
-4.10579375e-07,2.50000000e-04,1.53010625e-02
-4.10539375e-07,-3.75000000e-05,1.54445000e-02
-4.10499375e-07,-9.37500000e-05,1.55773125e-02
-4.10459375e-07,7.50000000e-05,1.56176875e-02
-4.10419375e-07,3.34375000e-04,1.55465000e-02
-4.10379375e-07,5.29687500e-04,1.54200625e-02
-4.10339375e-07,5.70312500e-04,1.53281563e-02
-4.10299375e-07,4.60937500e-04,1.53292187e-02
-4.10259375e-07,2.73437500e-04,1.54152813e-02
-4.10219375e-07,9.53125000e-05,1.55215313e-02
-4.10179375e-07,-4.68750000e-06,1.55794375e-02
-4.10139375e-07,1.25000000e-05,1.55650937e-02
-4.10099375e-07,1.57812500e-04,1.55066563e-02
-4.10059375e-07,4.01562500e-04,1.54567188e-02
-4.10019375e-07,6.81250000e-04,1.54503438e-02
-4.09979375e-07,9.10937500e-04,1.54880625e-02
-4.09939375e-07,1.01718750e-03,1.55449063e-02
-4.09899375e-07,9.71875000e-04,1.55932500e-02
-4.09859375e-07,8.17187500e-04,1.56176875e-02
-4.09819375e-07,6.42187500e-04,1.56123750e-02
-4.09779375e-07,5.32812500e-04,1.55778438e-02
-4.09739375e-07,5.26562500e-04,1.55204688e-02
-4.09699375e-07,5.98437500e-04,1.54599063e-02
-4.09659375e-07,6.76562500e-04,1.54243125e-02
-4.09619375e-07,6.95312500e-04,1.54333438e-02
-4.09579375e-07,6.29687500e-04,1.54779688e-02
-4.09539375e-07,5.06250000e-04,1.55151563e-02
-4.09499375e-07,3.89062500e-04,1.54986875e-02
-4.09459375e-07,3.34375000e-04,1.54131563e-02
-4.09419375e-07,3.60937500e-04,1.52962812e-02
-4.09379375e-07,4.48437500e-04,1.52144688e-02
-4.09339375e-07,5.45312500e-04,1.52165938e-02
-4.09299375e-07,6.10937500e-04,1.52962812e-02
-4.09259375e-07,6.31250000e-04,1.53982813e-02
-4.09219375e-07,6.25000000e-04,1.54583125e-02
-4.09179375e-07,6.14062500e-04,1.54503438e-02
-4.09139375e-07,6.04687500e-04,1.53977500e-02
-4.09099375e-07,5.76562500e-04,1.53435625e-02
-4.09059375e-07,5.00000000e-04,1.53132813e-02
-4.09019375e-07,3.68750000e-04,1.53026563e-02
-4.08979375e-07,2.15625000e-04,1.52909688e-02
-4.08939375e-07,1.09375000e-04,1.52750313e-02
-4.08899375e-07,1.14062500e-04,1.52718437e-02
-4.08859375e-07,2.46875000e-04,1.53005313e-02
-4.08819375e-07,4.59375000e-04,1.53552500e-02
-4.08779375e-07,6.53125000e-04,1.54067813e-02
-4.08739375e-07,7.39062500e-04,1.54232500e-02
-4.08699375e-07,6.85937500e-04,1.54046563e-02
-4.08659375e-07,5.39062500e-04,1.53796875e-02
-4.08619375e-07,3.92187500e-04,1.53802188e-02
-4.08579375e-07,3.23437500e-04,1.54030625e-02
-4.08539375e-07,3.59375000e-04,1.54105000e-02
-4.08499375e-07,4.64062500e-04,1.53658750e-02
-4.08459375e-07,5.73437500e-04,1.52771562e-02
-4.08419375e-07,6.39062500e-04,1.52006563e-02
-4.08379375e-07,6.43750000e-04,1.52001250e-02
-4.08339375e-07,5.92187500e-04,1.52915000e-02
-4.08299375e-07,4.95312500e-04,1.54211250e-02
-4.08259375e-07,3.68750000e-04,1.55055938e-02
-4.08219375e-07,2.42187500e-04,1.54992187e-02
-4.08179375e-07,1.68750000e-04,1.54269688e-02
-4.08139375e-07,1.96875000e-04,1.53685313e-02
-4.08099375e-07,3.26562500e-04,1.53919063e-02
-4.08059375e-07,4.89062500e-04,1.54997500e-02
-4.08019375e-07,5.82812500e-04,1.56309688e-02
-4.07979375e-07,5.35937500e-04,1.57074688e-02
-4.07939375e-07,3.82812500e-04,1.56856875e-02
-4.07899375e-07,2.43750000e-04,1.55799688e-02
-4.07859375e-07,2.39062500e-04,1.54434375e-02
-4.07819375e-07,3.92187500e-04,1.53302813e-02
-4.07779375e-07,6.01562500e-04,1.52750313e-02
-4.07739375e-07,7.12500000e-04,1.52840625e-02
-4.07699375e-07,6.40625000e-04,1.53446250e-02
-4.07659375e-07,4.48437500e-04,1.54253750e-02
-4.07619375e-07,2.95312500e-04,1.54870000e-02
-4.07579375e-07,3.14062500e-04,1.54917813e-02
-4.07539375e-07,5.01562500e-04,1.54312188e-02
-4.07499375e-07,7.17187500e-04,1.53403750e-02
-4.07459375e-07,7.93750000e-04,1.52808750e-02
-4.07419375e-07,6.60937500e-04,1.53037188e-02
-4.07379375e-07,4.04687500e-04,1.54115625e-02
-4.07339375e-07,1.93750000e-04,1.55534063e-02
-4.07299375e-07,1.56250000e-04,1.56591250e-02
-4.07259375e-07,2.95312500e-04,1.56840937e-02
-4.07219375e-07,5.00000000e-04,1.56325625e-02
-4.07179375e-07,6.37500000e-04,1.55459687e-02
-4.07139375e-07,6.34375000e-04,1.54646875e-02
-4.07099375e-07,5.12500000e-04,1.54089062e-02
-4.07059375e-07,3.40625000e-04,1.53770313e-02
-4.07019375e-07,1.90625000e-04,1.53653438e-02
-4.06979375e-07,1.00000000e-04,1.53733125e-02
-4.06939375e-07,9.21875000e-05,1.53988125e-02
-4.06899375e-07,1.73437500e-04,1.54269688e-02
-4.06859375e-07,3.35937500e-04,1.54365313e-02
-4.06819375e-07,5.25000000e-04,1.54205938e-02
-4.06779375e-07,6.54687500e-04,1.53977500e-02
-4.06739375e-07,6.45312500e-04,1.54004063e-02
-4.06699375e-07,4.93750000e-04,1.54402500e-02
-4.06659375e-07,2.84375000e-04,1.54870000e-02
-4.06619375e-07,1.48437500e-04,1.54827500e-02
-4.06579375e-07,1.68750000e-04,1.53929688e-02
-4.06539375e-07,3.23437500e-04,1.52447500e-02
-4.06499375e-07,4.96875000e-04,1.51209688e-02
-4.06459375e-07,5.81250000e-04,1.51029063e-02
-4.06419375e-07,5.48437500e-04,1.52091563e-02
-4.06379375e-07,4.70312500e-04,1.53775625e-02
-4.06339375e-07,4.46875000e-04,1.55077187e-02
-4.06299375e-07,5.21875000e-04,1.55279063e-02
-4.06259375e-07,6.37500000e-04,1.54402500e-02
-4.06219375e-07,6.81250000e-04,1.53063750e-02
-4.06179375e-07,5.81250000e-04,1.51980000e-02
-4.06139375e-07,3.62500000e-04,1.51507188e-02
-4.06099375e-07,1.37500000e-04,1.51597500e-02
-4.06059375e-07,2.96875000e-05,1.52065000e-02
-4.06019375e-07,1.01562500e-04,1.52814063e-02
-4.05979375e-07,3.15625000e-04,1.53850000e-02
-4.05939375e-07,5.67187500e-04,1.55018750e-02
-4.05899375e-07,7.53125000e-04,1.55900625e-02
-4.05859375e-07,8.07812500e-04,1.56001563e-02
-4.05819375e-07,7.26562500e-04,1.55140938e-02
-4.05779375e-07,5.48437500e-04,1.53727813e-02
-4.05739375e-07,3.39062500e-04,1.52548438e-02
-4.05699375e-07,1.70312500e-04,1.52245625e-02
-4.05659375e-07,9.21875000e-05,1.52814063e-02
-4.05619375e-07,1.15625000e-04,1.53595000e-02
-4.05579375e-07,2.01562500e-04,1.53770313e-02
-4.05539375e-07,2.70312500e-04,1.53058438e-02
-4.05499375e-07,2.64062500e-04,1.51932188e-02
-4.05459375e-07,1.76562500e-04,1.51315938e-02
-4.05419375e-07,7.96875000e-05,1.51831250e-02
-4.05379375e-07,6.71875000e-05,1.53318750e-02
-4.05339375e-07,1.95312500e-04,1.54939063e-02
-4.05299375e-07,4.32812500e-04,1.55783750e-02
-4.05259375e-07,6.81250000e-04,1.55539375e-02
-4.05219375e-07,8.34375000e-04,1.54668125e-02
-4.05179375e-07,8.48437500e-04,1.53993438e-02
-4.05139375e-07,7.46875000e-04,1.54078438e-02
-4.05099375e-07,5.98437500e-04,1.54832813e-02
-4.05059375e-07,4.56250000e-04,1.55666875e-02
-4.05019375e-07,3.45312500e-04,1.55975000e-02
-4.04979375e-07,2.71875000e-04,1.55555313e-02
-4.04939375e-07,2.54687500e-04,1.54694688e-02
-4.04899375e-07,3.12500000e-04,1.53924375e-02
-4.04859375e-07,4.39062500e-04,1.53648125e-02
-4.04819375e-07,5.82812500e-04,1.53998750e-02
-4.04779375e-07,6.67187500e-04,1.54822188e-02
-4.04739375e-07,6.56250000e-04,1.55778438e-02
-4.04699375e-07,5.81250000e-04,1.56485000e-02
-4.04659375e-07,5.31250000e-04,1.56564687e-02
-4.04619375e-07,5.68750000e-04,1.55847500e-02
-4.04579375e-07,6.68750000e-04,1.54476875e-02
-4.04539375e-07,7.29687500e-04,1.52946875e-02
-4.04499375e-07,6.54687500e-04,1.51905625e-02
-4.04459375e-07,4.43750000e-04,1.51794063e-02
-4.04419375e-07,2.07812500e-04,1.52532500e-02
-4.04379375e-07,9.68750000e-05,1.53547188e-02
-4.04339375e-07,1.79687500e-04,1.54136875e-02
-4.04299375e-07,3.98437500e-04,1.53945625e-02
-4.04259375e-07,6.12500000e-04,1.53217813e-02
-4.04219375e-07,7.09375000e-04,1.52596250e-02
-4.04179375e-07,6.76562500e-04,1.52665313e-02
-4.04139375e-07,5.90625000e-04,1.53488750e-02
-4.04099375e-07,5.32812500e-04,1.54561875e-02
-4.04059375e-07,5.10937500e-04,1.55146250e-02
-4.04019375e-07,4.78125000e-04,1.54769063e-02
-4.03979375e-07,3.85937500e-04,1.53579063e-02
-4.03939375e-07,2.48437500e-04,1.52224375e-02
-4.03899375e-07,1.37500000e-04,1.51470000e-02
-4.03859375e-07,1.09375000e-04,1.51735625e-02
-4.03819375e-07,1.64062500e-04,1.52856563e-02
-4.03779375e-07,2.43750000e-04,1.54253750e-02
-4.03739375e-07,2.92187500e-04,1.55310938e-02
-4.03699375e-07,3.15625000e-04,1.55735938e-02
-4.03659375e-07,3.60937500e-04,1.55645625e-02
-4.03619375e-07,4.54687500e-04,1.55401250e-02
-4.03579375e-07,5.62500000e-04,1.55268438e-02
-4.03539375e-07,6.07812500e-04,1.55247188e-02
-4.03499375e-07,5.39062500e-04,1.55114375e-02
-4.03459375e-07,3.98437500e-04,1.54625625e-02
-4.03419375e-07,3.04687500e-04,1.53780938e-02
-4.03379375e-07,3.53125000e-04,1.52883125e-02
-4.03339375e-07,5.34375000e-04,1.52362500e-02
-4.03299375e-07,7.20312500e-04,1.52516563e-02
-4.03259375e-07,7.53125000e-04,1.53308125e-02
-4.03219375e-07,5.70312500e-04,1.54386563e-02
-4.03179375e-07,2.65625000e-04,1.55300313e-02
-4.03139375e-07,3.75000000e-05,1.55757188e-02
-4.03099375e-07,5.00000000e-05,1.55751875e-02
-4.03059375e-07,3.18750000e-04,1.55502188e-02
-4.03019375e-07,6.95312500e-04,1.55295000e-02
-4.02979375e-07,9.57812500e-04,1.55295000e-02
-4.02939375e-07,9.53125000e-04,1.55502188e-02
-4.02899375e-07,7.00000000e-04,1.55783750e-02
-4.02859375e-07,3.70312500e-04,1.55932500e-02
-4.02819375e-07,1.78125000e-04,1.55762500e-02
-4.02779375e-07,2.43750000e-04,1.55172813e-02
-4.02739375e-07,5.20312500e-04,1.54216563e-02
-4.02699375e-07,8.26562500e-04,1.53196563e-02
-4.02659375e-07,9.64062500e-04,1.52575000e-02
-4.02619375e-07,8.48437500e-04,1.52755625e-02
-4.02579375e-07,5.62500000e-04,1.53802188e-02
-4.02539375e-07,3.00000000e-04,1.55252500e-02
-4.02499375e-07,2.39062500e-04,1.56320313e-02
-4.02459375e-07,4.14062500e-04,1.56336250e-02
-4.02419375e-07,7.00000000e-04,1.55236563e-02
-4.02379375e-07,8.98437500e-04,1.53648125e-02
-4.02339375e-07,8.70312500e-04,1.52521875e-02
-4.02299375e-07,6.35937500e-04,1.52490000e-02
-4.02259375e-07,3.42187500e-04,1.53414375e-02
-4.02219375e-07,1.67187500e-04,1.54535313e-02
-4.02179375e-07,1.95312500e-04,1.55013438e-02
-4.02139375e-07,3.79687500e-04,1.54540625e-02
-4.02099375e-07,5.92187500e-04,1.53531250e-02
-4.02059375e-07,7.10937500e-04,1.52739688e-02
-4.02019375e-07,6.85937500e-04,1.52675938e-02
-4.01979375e-07,5.37500000e-04,1.53255000e-02
-4.01939375e-07,3.25000000e-04,1.53956250e-02
-4.01899375e-07,1.06250000e-04,1.54280313e-02
-4.01859375e-07,-6.56250000e-05,1.54094375e-02
-4.01819375e-07,-1.39062500e-04,1.53653438e-02
-4.01779375e-07,-8.59375000e-05,1.53244375e-02
-4.01739375e-07,8.12500000e-05,1.52957500e-02
-4.01699375e-07,2.95312500e-04,1.52675938e-02
-4.01659375e-07,4.56250000e-04,1.52325313e-02
-4.01619375e-07,4.90625000e-04,1.52065000e-02
-4.01579375e-07,4.00000000e-04,1.52181875e-02
-4.01539375e-07,2.54687500e-04,1.52771562e-02
-4.01499375e-07,1.45312500e-04,1.53552500e-02
-4.01459375e-07,1.21875000e-04,1.54020000e-02
-4.01419375e-07,1.65625000e-04,1.53834063e-02
-4.01379375e-07,2.25000000e-04,1.53185938e-02
-4.01339375e-07,2.48437500e-04,1.52691875e-02
-4.01299375e-07,2.28125000e-04,1.52936250e-02
-4.01259375e-07,1.89062500e-04,1.53982813e-02
-4.01219375e-07,1.57812500e-04,1.55257813e-02
-4.01179375e-07,1.51562500e-04,1.55932500e-02
-4.01139375e-07,1.75000000e-04,1.55550000e-02
-4.01099375e-07,2.34375000e-04,1.54338750e-02
-4.01059375e-07,3.34375000e-04,1.53074375e-02
-4.01019375e-07,4.67187500e-04,1.52511250e-02
-4.00979375e-07,5.98437500e-04,1.52904375e-02
-4.00939375e-07,6.76562500e-04,1.53881875e-02
-4.00899375e-07,6.76562500e-04,1.54726563e-02
-4.00859375e-07,6.20312500e-04,1.54901875e-02
-4.00819375e-07,5.65625000e-04,1.54312188e-02
-4.00779375e-07,5.67187500e-04,1.53292187e-02
-4.00739375e-07,6.26562500e-04,1.52335938e-02
-4.00699375e-07,6.85937500e-04,1.51778125e-02
-4.00659375e-07,6.73437500e-04,1.51719688e-02
-4.00619375e-07,5.73437500e-04,1.52038438e-02
-4.00579375e-07,4.45312500e-04,1.52548438e-02
-4.00539375e-07,3.85937500e-04,1.53074375e-02
-4.00499375e-07,4.50000000e-04,1.53440938e-02
-4.00459375e-07,5.92187500e-04,1.53531250e-02
-4.00419375e-07,6.98437500e-04,1.53292187e-02
-4.00379375e-07,6.65625000e-04,1.52808750e-02
-4.00339375e-07,4.82812500e-04,1.52288125e-02
-4.00299375e-07,2.50000000e-04,1.51969375e-02
-4.00259375e-07,1.07812500e-04,1.51948125e-02
-4.00219375e-07,1.40625000e-04,1.52134063e-02
-4.00179375e-07,3.12500000e-04,1.52309375e-02
-4.00139375e-07,5.04687500e-04,1.52314688e-02
-4.00099375e-07,5.95312500e-04,1.52197813e-02
-4.00059375e-07,5.34375000e-04,1.52197813e-02
-4.00019375e-07,3.71875000e-04,1.52559063e-02
-3.99979375e-07,2.04687500e-04,1.53340000e-02
-3.99939375e-07,1.06250000e-04,1.54338750e-02
-3.99899375e-07,1.01562500e-04,1.55210000e-02
-3.99859375e-07,1.62500000e-04,1.55677500e-02
-3.99819375e-07,2.54687500e-04,1.55746563e-02
-3.99779375e-07,3.56250000e-04,1.55635000e-02
-3.99739375e-07,4.59375000e-04,1.55640313e-02
-3.99699375e-07,5.56250000e-04,1.55905938e-02
-3.99659375e-07,6.31250000e-04,1.56346875e-02
-3.99619375e-07,6.64062500e-04,1.56729375e-02
-3.99579375e-07,6.50000000e-04,1.56835625e-02
-3.99539375e-07,5.98437500e-04,1.56580625e-02
-3.99499375e-07,5.29687500e-04,1.56049375e-02
-3.99459375e-07,4.50000000e-04,1.55395938e-02
-3.99419375e-07,3.62500000e-04,1.54779688e-02
-3.99379375e-07,2.70312500e-04,1.54296250e-02
-3.99339375e-07,1.95312500e-04,1.53993438e-02
-3.99299375e-07,1.76562500e-04,1.53860625e-02
-3.99259375e-07,2.50000000e-04,1.53871250e-02
-3.99219375e-07,4.18750000e-04,1.53945625e-02
-3.99179375e-07,6.34375000e-04,1.53998750e-02
-3.99139375e-07,8.09375000e-04,1.53993438e-02
-3.99099375e-07,8.60937500e-04,1.53966875e-02
-3.99059375e-07,7.50000000e-04,1.54004063e-02
-3.99019375e-07,5.20312500e-04,1.54163438e-02
-3.98979375e-07,2.79687500e-04,1.54402500e-02
