waveforms/Tek116_ALL/Tek073_ALL.csv

Model,MSO64
Channel,CH1,,Channel,CH2
Waveform Type,ANALOG,,Waveform Type,ANALOG
Horizontal Units,s,,Horizontal Units,s
Sample Interval,4.00000000e-11,,Sample Interval,4.00000000e-11
Record Length,80000,,Record Length,80000
Zero Index,10399.53125000,,Zero Index,10399.53125000
Vertical Units,V,,Vertical Units,V
,,,,
ANALOG_Thumbnail,,,ANALOG_Thumbnail,

TIME,CH1,CH2
-4.15981250e-07,2.17187500e-04,1.58725000e-02
-4.15941250e-07,2.73437500e-04,1.57975000e-02
-4.15901250e-07,4.00000000e-04,1.56043750e-02
-4.15861250e-07,5.20312500e-04,1.53931250e-02
-4.15821250e-07,5.76562500e-04,1.52718750e-02
-4.15781250e-07,5.56250000e-04,1.52893750e-02
-4.15741250e-07,4.93750000e-04,1.54081250e-02
-4.15701250e-07,4.32812500e-04,1.55293750e-02
-4.15661250e-07,3.95312500e-04,1.55656250e-02
-4.15621250e-07,3.73437500e-04,1.54956250e-02
-4.15581250e-07,3.54687500e-04,1.53762500e-02
-4.15541250e-07,3.35937500e-04,1.53000000e-02
-4.15501250e-07,3.34375000e-04,1.53356250e-02
-4.15461250e-07,3.59375000e-04,1.54831250e-02
-4.15421250e-07,3.93750000e-04,1.56743750e-02
-4.15381250e-07,4.01562500e-04,1.58175000e-02
-4.15341250e-07,3.54687500e-04,1.58475000e-02
-4.15301250e-07,2.65625000e-04,1.57568750e-02
-4.15261250e-07,1.85937500e-04,1.55906250e-02
-4.15221250e-07,1.70312500e-04,1.54193750e-02
-4.15181250e-07,2.31250000e-04,1.53006250e-02
-4.15141250e-07,3.26562500e-04,1.52618750e-02
-4.15101250e-07,3.78125000e-04,1.52950000e-02
-4.15061250e-07,3.32812500e-04,1.53706250e-02
-4.15021250e-07,2.06250000e-04,1.54493750e-02
-4.14981250e-07,8.12500000e-05,1.54968750e-02
-4.14941250e-07,5.46875000e-05,1.54943750e-02
-4.14901250e-07,1.73437500e-04,1.54443750e-02
-4.14861250e-07,3.93750000e-04,1.53737500e-02
-4.14821250e-07,5.93750000e-04,1.53237500e-02
-4.14781250e-07,6.51562500e-04,1.53337500e-02
-4.14741250e-07,5.28125000e-04,1.54175000e-02
-4.14701250e-07,2.98437500e-04,1.55518750e-02
-4.14661250e-07,1.15625000e-04,1.56806250e-02
-4.14621250e-07,1.12500000e-04,1.57400000e-02
-4.14581250e-07,3.14062500e-04,1.56931250e-02
-4.14541250e-07,6.10937500e-04,1.55506250e-02
-4.14501250e-07,8.35937500e-04,1.53718750e-02
-4.14461250e-07,8.64062500e-04,1.52356250e-02
-4.14421250e-07,6.90625000e-04,1.52037500e-02
-4.14381250e-07,4.29687500e-04,1.52906250e-02
-4.14341250e-07,2.26562500e-04,1.54556250e-02
-4.14301250e-07,1.57812500e-04,1.56231250e-02
-4.14261250e-07,1.93750000e-04,1.57206250e-02
-4.14221250e-07,2.42187500e-04,1.57125000e-02
-4.14181250e-07,2.26562500e-04,1.56125000e-02
-4.14141250e-07,1.53125000e-04,1.54750000e-02
-4.14101250e-07,1.01562500e-04,1.53662500e-02
-4.14061250e-07,1.50000000e-04,1.53275000e-02
-4.14021250e-07,3.10937500e-04,1.53531250e-02
-4.13981250e-07,5.14062500e-04,1.53981250e-02
-4.13941250e-07,6.51562500e-04,1.54068750e-02
-4.13901250e-07,6.54687500e-04,1.53550000e-02
-4.13861250e-07,5.31250000e-04,1.52668750e-02
-4.13821250e-07,3.51562500e-04,1.52031250e-02
-4.13781250e-07,1.95312500e-04,1.52231250e-02
-4.13741250e-07,1.12500000e-04,1.53368750e-02
-4.13701250e-07,1.15625000e-04,1.54962500e-02
-4.13661250e-07,1.95312500e-04,1.56212500e-02
-4.13621250e-07,3.34375000e-04,1.56531250e-02
-4.13581250e-07,4.98437500e-04,1.55918750e-02
-4.13541250e-07,6.31250000e-04,1.54950000e-02
-4.13501250e-07,6.59375000e-04,1.54356250e-02
-4.13461250e-07,5.46875000e-04,1.54481250e-02
-4.13421250e-07,3.32812500e-04,1.55075000e-02
-4.13381250e-07,1.35937500e-04,1.55468750e-02
-4.13341250e-07,8.90625000e-05,1.55075000e-02
-4.13301250e-07,2.40625000e-04,1.53881250e-02
-4.13261250e-07,5.07812500e-04,1.52462500e-02
-4.13221250e-07,7.03125000e-04,1.51656250e-02
-4.13181250e-07,6.64062500e-04,1.51987500e-02
-4.13141250e-07,3.71875000e-04,1.53300000e-02
-4.13101250e-07,-2.34375000e-05,1.54825000e-02
-4.13061250e-07,-2.84375000e-04,1.55650000e-02
-4.13021250e-07,-2.50000000e-04,1.55275000e-02
-4.12981250e-07,6.25000000e-05,1.53925000e-02
-4.12941250e-07,4.71875000e-04,1.52431250e-02
-4.12901250e-07,7.45312500e-04,1.51706250e-02
-4.12861250e-07,7.51562500e-04,1.52206250e-02
-4.12821250e-07,5.31250000e-04,1.53706250e-02
-4.12781250e-07,2.51562500e-04,1.55475000e-02
-4.12741250e-07,8.75000000e-05,1.56725000e-02
-4.12701250e-07,1.25000000e-04,1.57031250e-02
-4.12661250e-07,3.21875000e-04,1.56462500e-02
-4.12621250e-07,5.50000000e-04,1.55462500e-02
-4.12581250e-07,6.84375000e-04,1.54518750e-02
-4.12541250e-07,6.45312500e-04,1.54012500e-02
-4.12501250e-07,4.43750000e-04,1.54062500e-02
-4.12461250e-07,1.57812500e-04,1.54593750e-02
-4.12421250e-07,-8.59375000e-05,1.55350000e-02
-4.12381250e-07,-1.79687500e-04,1.55912500e-02
-4.12341250e-07,-7.96875000e-05,1.55856250e-02
-4.12301250e-07,1.53125000e-04,1.54975000e-02
-4.12261250e-07,3.82812500e-04,1.53493750e-02
-4.12221250e-07,4.82812500e-04,1.52068750e-02
-4.12181250e-07,4.17187500e-04,1.51450000e-02
-4.12141250e-07,2.81250000e-04,1.52043750e-02
-4.12101250e-07,2.28125000e-04,1.53531250e-02
-4.12061250e-07,3.51562500e-04,1.55075000e-02
-4.12021250e-07,6.06250000e-04,1.55812500e-02
-4.11981250e-07,8.28125000e-04,1.55450000e-02
-4.11941250e-07,8.54687500e-04,1.54456250e-02
-4.11901250e-07,6.50000000e-04,1.53656250e-02
-4.11861250e-07,3.35937500e-04,1.53631250e-02
-4.11821250e-07,1.07812500e-04,1.54281250e-02
-4.11781250e-07,9.84375000e-05,1.54912500e-02
-4.11741250e-07,2.82812500e-04,1.54812500e-02
-4.11701250e-07,5.14062500e-04,1.53800000e-02
-4.11661250e-07,6.31250000e-04,1.52393750e-02
-4.11621250e-07,5.75000000e-04,1.51443750e-02
-4.11581250e-07,4.10937500e-04,1.51518750e-02
-4.11541250e-07,2.60937500e-04,1.52531250e-02
-4.11501250e-07,2.00000000e-04,1.53793750e-02
-4.11461250e-07,2.14062500e-04,1.54481250e-02
-4.11421250e-07,2.29687500e-04,1.54212500e-02
-4.11381250e-07,1.93750000e-04,1.53243750e-02
-4.11341250e-07,1.31250000e-04,1.52300000e-02
-4.11301250e-07,1.09375000e-04,1.52050000e-02
-4.11261250e-07,1.75000000e-04,1.52693750e-02
-4.11221250e-07,3.03125000e-04,1.53818750e-02
-4.11181250e-07,4.07812500e-04,1.54700000e-02
-4.11141250e-07,4.23437500e-04,1.54775000e-02
-4.11101250e-07,3.67187500e-04,1.54000000e-02
-4.11061250e-07,3.32812500e-04,1.52900000e-02
-4.11021250e-07,4.17187500e-04,1.52200000e-02
-4.10981250e-07,6.23437500e-04,1.52393750e-02
-4.10941250e-07,8.50000000e-04,1.53431250e-02
-4.10901250e-07,9.50000000e-04,1.54756250e-02
-4.10861250e-07,8.42187500e-04,1.55693750e-02
-4.10821250e-07,5.76562500e-04,1.55806250e-02
-4.10781250e-07,3.14062500e-04,1.55137500e-02
-4.10741250e-07,2.10937500e-04,1.54125000e-02
-4.10701250e-07,3.14062500e-04,1.53325000e-02
-4.10661250e-07,5.29687500e-04,1.53100000e-02
-4.10621250e-07,6.89062500e-04,1.53481250e-02
-4.10581250e-07,6.68750000e-04,1.54262500e-02
-4.10541250e-07,4.78125000e-04,1.55143750e-02
-4.10501250e-07,2.48437500e-04,1.55887500e-02
-4.10461250e-07,1.39062500e-04,1.56337500e-02
-4.10421250e-07,2.21875000e-04,1.56375000e-02
-4.10381250e-07,4.29687500e-04,1.55925000e-02
-4.10341250e-07,6.01562500e-04,1.55031250e-02
-4.10301250e-07,6.03125000e-04,1.53950000e-02
-4.10261250e-07,4.32812500e-04,1.53143750e-02
-4.10221250e-07,2.23437500e-04,1.53056250e-02
-4.10181250e-07,1.54687500e-04,1.53856250e-02
-4.10141250e-07,3.15625000e-04,1.55218750e-02
-4.10101250e-07,6.32812500e-04,1.56475000e-02
-4.10061250e-07,9.10937500e-04,1.56975000e-02
-4.10021250e-07,9.64062500e-04,1.56518750e-02
-4.09981250e-07,7.45312500e-04,1.55456250e-02
-4.09941250e-07,3.82812500e-04,1.54468750e-02
-4.09901250e-07,8.75000000e-05,1.54068750e-02
-4.09861250e-07,2.50000000e-05,1.54306250e-02
-4.09821250e-07,2.09375000e-04,1.54750000e-02
-4.09781250e-07,5.07812500e-04,1.54925000e-02
-4.09741250e-07,7.34375000e-04,1.54656250e-02
-4.09701250e-07,7.68750000e-04,1.54225000e-02
-4.09661250e-07,6.15625000e-04,1.54106250e-02
-4.09621250e-07,3.82812500e-04,1.54537500e-02
-4.09581250e-07,2.04687500e-04,1.55237500e-02
-4.09541250e-07,1.60937500e-04,1.55587500e-02
-4.09501250e-07,2.39062500e-04,1.55031250e-02
-4.09461250e-07,3.67187500e-04,1.53568750e-02
-4.09421250e-07,4.53125000e-04,1.51868750e-02
-4.09381250e-07,4.48437500e-04,1.50925000e-02
-4.09341250e-07,3.59375000e-04,1.51475000e-02
-4.09301250e-07,2.37500000e-04,1.53431250e-02
-4.09261250e-07,1.43750000e-04,1.55906250e-02
-4.09221250e-07,1.18750000e-04,1.57662500e-02
-4.09181250e-07,1.56250000e-04,1.57862500e-02
-4.09141250e-07,2.18750000e-04,1.56543750e-02
-4.09101250e-07,2.56250000e-04,1.54612500e-02
-4.09061250e-07,2.39062500e-04,1.53237500e-02
-4.09021250e-07,1.76562500e-04,1.53150000e-02
-4.08981250e-07,1.18750000e-04,1.54206250e-02
-4.08941250e-07,1.20312500e-04,1.55562500e-02
-4.08901250e-07,2.14062500e-04,1.56243750e-02
-4.08861250e-07,3.75000000e-04,1.55812500e-02
-4.08821250e-07,5.34375000e-04,1.54593750e-02
-4.08781250e-07,6.03125000e-04,1.53425000e-02
-4.08741250e-07,5.37500000e-04,1.53106250e-02
-4.08701250e-07,3.68750000e-04,1.53918750e-02
-4.08661250e-07,1.93750000e-04,1.55506250e-02
-4.08621250e-07,1.25000000e-04,1.57118750e-02
-4.08581250e-07,2.21875000e-04,1.58081250e-02
-4.08541250e-07,4.42187500e-04,1.58068750e-02
-4.08501250e-07,6.71875000e-04,1.57212500e-02
-4.08461250e-07,7.75000000e-04,1.55912500e-02
-4.08421250e-07,6.90625000e-04,1.54643750e-02
-4.08381250e-07,4.62500000e-04,1.53762500e-02
-4.08341250e-07,2.26562500e-04,1.53443750e-02
-4.08301250e-07,1.10937500e-04,1.53618750e-02
-4.08261250e-07,1.71875000e-04,1.54081250e-02
-4.08221250e-07,3.51562500e-04,1.54562500e-02
-4.08181250e-07,5.29687500e-04,1.54875000e-02
-4.08141250e-07,6.14062500e-04,1.55018750e-02
-4.08101250e-07,6.00000000e-04,1.55131250e-02
-4.08061250e-07,5.64062500e-04,1.55318750e-02
-4.08021250e-07,5.85937500e-04,1.55500000e-02
-4.07981250e-07,6.82812500e-04,1.55437500e-02
-4.07941250e-07,7.76562500e-04,1.54918750e-02
-4.07901250e-07,7.70312500e-04,1.54000000e-02
-4.07861250e-07,6.20312500e-04,1.53100000e-02
-4.07821250e-07,3.90625000e-04,1.52731250e-02
-4.07781250e-07,2.01562500e-04,1.53175000e-02
-4.07741250e-07,1.48437500e-04,1.54193750e-02
-4.07701250e-07,2.32812500e-04,1.55143750e-02
-4.07661250e-07,3.67187500e-04,1.55400000e-02
-4.07621250e-07,4.57812500e-04,1.54793750e-02
-4.07581250e-07,4.79687500e-04,1.53743750e-02
-4.07541250e-07,4.79687500e-04,1.52925000e-02
-4.07501250e-07,5.14062500e-04,1.52825000e-02
-4.07461250e-07,5.78125000e-04,1.53387500e-02
-4.07421250e-07,5.89062500e-04,1.54143750e-02
-4.07381250e-07,4.65625000e-04,1.54600000e-02
-4.07341250e-07,2.07812500e-04,1.54606250e-02
-4.07301250e-07,-6.56250000e-05,1.54418750e-02
-4.07261250e-07,-1.87500000e-04,1.54387500e-02
-4.07221250e-07,-7.18750000e-05,1.54612500e-02
-4.07181250e-07,2.14062500e-04,1.54868750e-02
-4.07141250e-07,4.93750000e-04,1.54837500e-02
-4.07101250e-07,6.06250000e-04,1.54475000e-02
-4.07061250e-07,5.25000000e-04,1.54118750e-02
-4.07021250e-07,3.70312500e-04,1.54187500e-02
-4.06981250e-07,3.04687500e-04,1.54775000e-02
-4.06941250e-07,4.00000000e-04,1.55487500e-02
-4.06901250e-07,5.79687500e-04,1.55687500e-02
-4.06861250e-07,6.87500000e-04,1.55037500e-02
-4.06821250e-07,6.17187500e-04,1.53831250e-02
-4.06781250e-07,3.93750000e-04,1.52793750e-02
-4.06741250e-07,1.53125000e-04,1.52550000e-02
-4.06701250e-07,3.43750000e-05,1.53131250e-02
-4.06661250e-07,8.75000000e-05,1.53993750e-02
-4.06621250e-07,2.48437500e-04,1.54475000e-02
-4.06581250e-07,4.07812500e-04,1.54312500e-02
-4.06541250e-07,5.01562500e-04,1.53800000e-02
-4.06501250e-07,5.43750000e-04,1.53481250e-02
-4.06461250e-07,5.82812500e-04,1.53650000e-02
-4.06421250e-07,6.40625000e-04,1.54137500e-02
-4.06381250e-07,6.81250000e-04,1.54525000e-02
-4.06341250e-07,6.43750000e-04,1.54543750e-02
-4.06301250e-07,5.04687500e-04,1.54300000e-02
-4.06261250e-07,3.12500000e-04,1.54156250e-02
-4.06221250e-07,1.60937500e-04,1.54343750e-02
-4.06181250e-07,1.15625000e-04,1.54731250e-02
-4.06141250e-07,1.65625000e-04,1.54918750e-02
-4.06101250e-07,2.43750000e-04,1.54568750e-02
-4.06061250e-07,2.78125000e-04,1.53725000e-02
-4.06021250e-07,2.57812500e-04,1.52818750e-02
-4.05981250e-07,2.32812500e-04,1.52337500e-02
-4.05941250e-07,2.73437500e-04,1.52493750e-02
-4.05901250e-07,4.00000000e-04,1.53100000e-02
-4.05861250e-07,5.71875000e-04,1.53756250e-02
-4.05821250e-07,7.07812500e-04,1.54143750e-02
-4.05781250e-07,7.51562500e-04,1.54250000e-02
-4.05741250e-07,7.01562500e-04,1.54243750e-02
-4.05701250e-07,6.04687500e-04,1.54300000e-02
-4.05661250e-07,5.15625000e-04,1.54406250e-02
-4.05621250e-07,4.70312500e-04,1.54481250e-02
-4.05581250e-07,4.76562500e-04,1.54556250e-02
-4.05541250e-07,5.15625000e-04,1.54843750e-02
-4.05501250e-07,5.62500000e-04,1.55637500e-02
-4.05461250e-07,5.85937500e-04,1.56981250e-02
-4.05421250e-07,5.64062500e-04,1.58500000e-02
-4.05381250e-07,4.98437500e-04,1.59562500e-02
-4.05341250e-07,4.31250000e-04,1.59631250e-02
-4.05301250e-07,4.31250000e-04,1.58650000e-02
-4.05261250e-07,5.39062500e-04,1.57093750e-02
-4.05221250e-07,7.18750000e-04,1.55656250e-02
-4.05181250e-07,8.65625000e-04,1.54850000e-02
-4.05141250e-07,8.62500000e-04,1.54756250e-02
-4.05101250e-07,6.71875000e-04,1.55100000e-02
-4.05061250e-07,3.81250000e-04,1.55456250e-02
-4.05021250e-07,1.40625000e-04,1.55543750e-02
-4.04981250e-07,6.09375000e-05,1.55250000e-02
-4.04941250e-07,1.32812500e-04,1.54656250e-02
-4.04901250e-07,2.39062500e-04,1.53968750e-02
-4.04861250e-07,2.59375000e-04,1.53456250e-02
-4.04821250e-07,1.76562500e-04,1.53362500e-02
-4.04781250e-07,8.75000000e-05,1.53781250e-02
-4.04741250e-07,1.18750000e-04,1.54537500e-02
-4.04701250e-07,3.06250000e-04,1.55225000e-02
-4.04661250e-07,5.45312500e-04,1.55468750e-02
-4.04621250e-07,6.73437500e-04,1.55250000e-02
-4.04581250e-07,5.87500000e-04,1.54968750e-02
-4.04541250e-07,3.40625000e-04,1.55150000e-02
-4.04501250e-07,1.06250000e-04,1.56006250e-02
-4.04461250e-07,5.78125000e-05,1.57143750e-02
-4.04421250e-07,2.48437500e-04,1.57737500e-02
-4.04381250e-07,5.70312500e-04,1.57137500e-02
-4.04341250e-07,8.43750000e-04,1.55406250e-02
-4.04301250e-07,9.25000000e-04,1.53387500e-02
-4.04261250e-07,7.90625000e-04,1.52125000e-02
-4.04221250e-07,5.26562500e-04,1.52206250e-02
-4.04181250e-07,2.54687500e-04,1.53312500e-02
-4.04141250e-07,7.65625000e-05,1.54550000e-02
-4.04101250e-07,3.59375000e-05,1.55118750e-02
-4.04061250e-07,1.20312500e-04,1.54868750e-02
-4.04021250e-07,2.78125000e-04,1.54306250e-02
-4.03981250e-07,4.28125000e-04,1.54112500e-02
-4.03941250e-07,4.93750000e-04,1.54543750e-02
-4.03901250e-07,4.35937500e-04,1.55312500e-02
-4.03861250e-07,2.90625000e-04,1.55887500e-02
-4.03821250e-07,1.60937500e-04,1.55937500e-02
-4.03781250e-07,1.56250000e-04,1.55593750e-02
-4.03741250e-07,3.03125000e-04,1.55200000e-02
-4.03701250e-07,5.20312500e-04,1.54956250e-02
-4.03661250e-07,6.68750000e-04,1.54756250e-02
-4.03621250e-07,6.48437500e-04,1.54325000e-02
-4.03581250e-07,4.84375000e-04,1.53612500e-02
-4.03541250e-07,3.10937500e-04,1.52950000e-02
-4.03501250e-07,2.67187500e-04,1.52868750e-02
-4.03461250e-07,3.92187500e-04,1.53637500e-02
-4.03421250e-07,5.95312500e-04,1.54987500e-02
-4.03381250e-07,7.35937500e-04,1.56218750e-02
-4.03341250e-07,7.23437500e-04,1.56625000e-02
-4.03301250e-07,5.81250000e-04,1.55987500e-02
-4.03261250e-07,4.09375000e-04,1.54737500e-02
-4.03221250e-07,2.90625000e-04,1.53643750e-02
-4.03181250e-07,2.32812500e-04,1.53318750e-02
-4.03141250e-07,1.93750000e-04,1.53856250e-02
-4.03101250e-07,1.45312500e-04,1.54793750e-02
-4.03061250e-07,1.14062500e-04,1.55468750e-02
-4.03021250e-07,1.60937500e-04,1.55462500e-02
-4.02981250e-07,2.95312500e-04,1.54818750e-02
-4.02941250e-07,4.45312500e-04,1.53968750e-02
-4.02901250e-07,4.98437500e-04,1.53425000e-02
-4.02861250e-07,4.00000000e-04,1.53468750e-02
-4.02821250e-07,2.17187500e-04,1.54012500e-02
-4.02781250e-07,9.84375000e-05,1.54687500e-02
-4.02741250e-07,1.60937500e-04,1.55081250e-02
-4.02701250e-07,3.79687500e-04,1.54968750e-02
-4.02661250e-07,5.95312500e-04,1.54468750e-02
-4.02621250e-07,6.39062500e-04,1.53975000e-02
-4.02581250e-07,4.62500000e-04,1.53993750e-02
-4.02541250e-07,1.84375000e-04,1.54787500e-02
-4.02501250e-07,3.12500000e-06,1.56168750e-02
-4.02461250e-07,3.90625000e-05,1.57487500e-02
-4.02421250e-07,2.50000000e-04,1.57912500e-02
-4.02381250e-07,4.76562500e-04,1.56975000e-02
-4.02341250e-07,5.56250000e-04,1.54937500e-02
-4.02301250e-07,4.48437500e-04,1.52743750e-02
-4.02261250e-07,2.45312500e-04,1.51518750e-02
-4.02221250e-07,8.75000000e-05,1.51831250e-02
-4.02181250e-07,6.56250000e-05,1.53306250e-02
-4.02141250e-07,1.78125000e-04,1.54812500e-02
-4.02101250e-07,3.54687500e-04,1.55306250e-02
-4.02061250e-07,5.20312500e-04,1.54525000e-02
-4.02021250e-07,6.31250000e-04,1.53231250e-02
-4.01981250e-07,6.75000000e-04,1.52618750e-02
-4.01941250e-07,6.56250000e-04,1.53400000e-02
-4.01901250e-07,6.00000000e-04,1.55212500e-02
-4.01861250e-07,5.46875000e-04,1.56862500e-02
-4.01821250e-07,5.50000000e-04,1.57156250e-02
-4.01781250e-07,6.35937500e-04,1.55812500e-02
-4.01741250e-07,7.75000000e-04,1.53662500e-02
-4.01701250e-07,8.84375000e-04,1.52062500e-02
-4.01661250e-07,8.81250000e-04,1.51925000e-02
-4.01621250e-07,7.42187500e-04,1.53118750e-02
-4.01581250e-07,5.28125000e-04,1.54625000e-02
-4.01541250e-07,3.43750000e-04,1.55275000e-02
-4.01501250e-07,2.62500000e-04,1.54575000e-02
-4.01461250e-07,2.84375000e-04,1.52975000e-02
-4.01421250e-07,3.46875000e-04,1.51475000e-02
-4.01381250e-07,3.85937500e-04,1.50943750e-02
-4.01341250e-07,3.79687500e-04,1.51625000e-02
-4.01301250e-07,3.45312500e-04,1.53050000e-02
-4.01261250e-07,3.03125000e-04,1.54456250e-02
-4.01221250e-07,2.56250000e-04,1.55256250e-02
-4.01181250e-07,2.04687500e-04,1.55275000e-02
-4.01141250e-07,1.73437500e-04,1.54743750e-02
-4.01101250e-07,2.07812500e-04,1.54068750e-02
-4.01061250e-07,3.32812500e-04,1.53625000e-02
-4.01021250e-07,5.07812500e-04,1.53606250e-02
-4.00981250e-07,6.21875000e-04,1.54062500e-02
-4.00941250e-07,5.73437500e-04,1.54881250e-02
-4.00901250e-07,3.45312500e-04,1.55893750e-02
-4.00861250e-07,4.37500000e-05,1.56831250e-02
-4.00821250e-07,-1.65625000e-04,1.57431250e-02
-4.00781250e-07,-1.68750000e-04,1.57518750e-02
-4.00741250e-07,2.65625000e-05,1.57125000e-02
-4.00701250e-07,3.04687500e-04,1.56500000e-02
-4.00661250e-07,5.32812500e-04,1.56000000e-02
-4.00621250e-07,6.42187500e-04,1.55881250e-02
-4.00581250e-07,6.56250000e-04,1.56137500e-02
-4.00541250e-07,6.35937500e-04,1.56500000e-02
-4.00501250e-07,6.23437500e-04,1.56612500e-02
-4.00461250e-07,6.14062500e-04,1.56318750e-02
-4.00421250e-07,5.78125000e-04,1.55775000e-02
-4.00381250e-07,5.01562500e-04,1.55337500e-02
-4.00341250e-07,3.93750000e-04,1.55256250e-02
-4.00301250e-07,2.75000000e-04,1.55506250e-02
-4.00261250e-07,1.62500000e-04,1.55762500e-02
-4.00221250e-07,7.50000000e-05,1.55725000e-02
-4.00181250e-07,5.31250000e-05,1.55393750e-02
-4.00141250e-07,1.50000000e-04,1.55087500e-02
-4.00101250e-07,3.79687500e-04,1.55218750e-02
-4.00061250e-07,6.79687500e-04,1.55900000e-02
-4.00021250e-07,9.12500000e-04,1.56793750e-02
-3.99981250e-07,9.51562500e-04,1.57325000e-02
-3.99941250e-07,7.73437500e-04,1.57050000e-02
-3.99901250e-07,4.90625000e-04,1.56018750e-02
-3.99861250e-07,2.85937500e-04,1.54725000e-02
-3.99821250e-07,2.78125000e-04,1.53750000e-02
-3.99781250e-07,4.35937500e-04,1.53381250e-02
-3.99741250e-07,5.96875000e-04,1.53493750e-02
-3.99701250e-07,5.96875000e-04,1.53750000e-02
-3.99661250e-07,4.06250000e-04,1.53950000e-02
-3.99621250e-07,1.54687500e-04,1.54181250e-02
-3.99581250e-07,3.59375000e-05,1.54637500e-02
-3.99541250e-07,1.60937500e-04,1.55300000e-02
-3.99501250e-07,4.60937500e-04,1.55825000e-02
-3.99461250e-07,7.35937500e-04,1.55756250e-02
-3.99421250e-07,7.93750000e-04,1.54918750e-02
-3.99381250e-07,5.79687500e-04,1.53693750e-02
-3.99341250e-07,2.14062500e-04,1.52812500e-02
-3.99301250e-07,-9.84375000e-05,1.52825000e-02
-3.99261250e-07,-1.93750000e-04,1.53668750e-02
-3.99221250e-07,-5.31250000e-05,1.54681250e-02
-3.99181250e-07,2.12500000e-04,1.55143750e-02
-3.99141250e-07,4.37500000e-04,1.54818750e-02
-3.99101250e-07,5.12500000e-04,1.54193750e-02
-3.99061250e-07,4.26562500e-04,1.54031250e-02
-3.99021250e-07,2.57812500e-04,1.54725000e-02
-3.98981250e-07,1.15625000e-04,1.55906250e-02
