waveforms/Tek116_ALL/Tek054_ALL.csv

Model,MSO64
Channel,CH1,,Channel,CH2
Waveform Type,ANALOG,,Waveform Type,ANALOG
Horizontal Units,s,,Horizontal Units,s
Sample Interval,4.00000000e-11,,Sample Interval,4.00000000e-11
Record Length,80000,,Record Length,80000
Zero Index,10399.08984375,,Zero Index,10399.08984375
Vertical Units,V,,Vertical Units,V
,,,,
ANALOG_Thumbnail,,,ANALOG_Thumbnail,

TIME,CH1,CH2
-4.15963594e-07,5.28125000e-04,1.53042500e-02
-4.15923594e-07,4.51562500e-04,1.52367813e-02
-4.15883594e-07,3.53125000e-04,1.51751563e-02
-4.15843594e-07,2.35937500e-04,1.51555000e-02
-4.15803594e-07,1.20312500e-04,1.51985313e-02
-4.15763594e-07,2.96875000e-05,1.52909688e-02
-4.15723594e-07,-7.81250000e-06,1.53834063e-02
-4.15683594e-07,2.18750000e-05,1.54158125e-02
-4.15643594e-07,1.07812500e-04,1.53600313e-02
-4.15603594e-07,2.09375000e-04,1.52452813e-02
-4.15563594e-07,2.73437500e-04,1.51395625e-02
-4.15523594e-07,2.75000000e-04,1.51050313e-02
-4.15483594e-07,2.53125000e-04,1.51507188e-02
-4.15443594e-07,2.98437500e-04,1.52261563e-02
-4.15403594e-07,4.96875000e-04,1.52612188e-02
-4.15363594e-07,8.40625000e-04,1.52187188e-02
-4.15323594e-07,1.19531250e-03,1.51236250e-02
-4.15283594e-07,1.35937500e-03,1.50439375e-02
-4.15243594e-07,1.20000000e-03,1.50380938e-02
-4.15203594e-07,7.62500000e-04,1.51161875e-02
-4.15163594e-07,2.62500000e-04,1.52320000e-02
-4.15123594e-07,-3.59375000e-05,1.53223125e-02
-4.15083594e-07,-9.37500000e-06,1.53440938e-02
-4.15043594e-07,2.51562500e-04,1.52989375e-02
-4.15003594e-07,5.09375000e-04,1.52219063e-02
-4.14963594e-07,5.62500000e-04,1.51549688e-02
-4.14923594e-07,3.85937500e-04,1.51257500e-02
-4.14883594e-07,1.42187500e-04,1.51379688e-02
-4.14843594e-07,4.53125000e-05,1.51756875e-02
-4.14803594e-07,1.89062500e-04,1.52102188e-02
-4.14763594e-07,4.78125000e-04,1.52123438e-02
-4.14723594e-07,7.20312500e-04,1.51677188e-02
-4.14683594e-07,7.65625000e-04,1.50901563e-02
-4.14643594e-07,6.15625000e-04,1.50274688e-02
-4.14603594e-07,4.00000000e-04,1.50386250e-02
-4.14563594e-07,2.57812500e-04,1.51560313e-02
-4.14523594e-07,2.35937500e-04,1.53504688e-02
-4.14483594e-07,2.84375000e-04,1.55369375e-02
-4.14443594e-07,3.26562500e-04,1.56171562e-02
-4.14403594e-07,3.39062500e-04,1.55454375e-02
-4.14363594e-07,3.60937500e-04,1.53637500e-02
-4.14323594e-07,4.39062500e-04,1.51772813e-02
-4.14283594e-07,5.62500000e-04,1.50922813e-02
-4.14243594e-07,6.57812500e-04,1.51464688e-02
-4.14203594e-07,6.65625000e-04,1.52904375e-02
-4.14163594e-07,6.06250000e-04,1.54275000e-02
-4.14123594e-07,5.75000000e-04,1.54848750e-02
-4.14083594e-07,6.65625000e-04,1.54556563e-02
-4.14043594e-07,8.70312500e-04,1.53940313e-02
-4.14003594e-07,1.06406250e-03,1.53621562e-02
-4.13963594e-07,1.08593750e-03,1.53775625e-02
-4.13923594e-07,8.73437500e-04,1.54046563e-02
-4.13883594e-07,5.29687500e-04,1.53876563e-02
-4.13843594e-07,2.54687500e-04,1.53000000e-02
-4.13803594e-07,2.01562500e-04,1.51719688e-02
-4.13763594e-07,3.64062500e-04,1.50683750e-02
-4.13723594e-07,5.82812500e-04,1.50444688e-02
-4.13683594e-07,6.76562500e-04,1.51098125e-02
-4.13643594e-07,5.73437500e-04,1.52250937e-02
-4.13603594e-07,3.68750000e-04,1.53334688e-02
-4.13563594e-07,2.21875000e-04,1.53956250e-02
-4.13523594e-07,2.35937500e-04,1.54089062e-02
-4.13483594e-07,3.70312500e-04,1.53956250e-02
-4.13443594e-07,5.00000000e-04,1.53802188e-02
-4.13403594e-07,5.21875000e-04,1.53743750e-02
-4.13363594e-07,4.39062500e-04,1.53717188e-02
-4.13323594e-07,3.39062500e-04,1.53605625e-02
-4.13283594e-07,3.06250000e-04,1.53345313e-02
-4.13243594e-07,3.40625000e-04,1.52978750e-02
-4.13203594e-07,3.79687500e-04,1.52612188e-02
-4.13163594e-07,3.70312500e-04,1.52341250e-02
-4.13123594e-07,3.28125000e-04,1.52203125e-02
-4.13083594e-07,3.14062500e-04,1.52144688e-02
-4.13043594e-07,3.71875000e-04,1.52107500e-02
-4.13003594e-07,4.64062500e-04,1.52049063e-02
-4.12963594e-07,5.10937500e-04,1.52022500e-02
-4.12923594e-07,4.68750000e-04,1.52080938e-02
-4.12883594e-07,3.79687500e-04,1.52229688e-02
-4.12843594e-07,3.51562500e-04,1.52325313e-02
-4.12803594e-07,4.53125000e-04,1.52181875e-02
-4.12763594e-07,6.45312500e-04,1.51725000e-02
-4.12723594e-07,8.04687500e-04,1.51108750e-02
-4.12683594e-07,8.25000000e-04,1.50694375e-02
-4.12643594e-07,7.09375000e-04,1.50795313e-02
-4.12603594e-07,5.64062500e-04,1.51406250e-02
-4.12563594e-07,5.12500000e-04,1.52176563e-02
-4.12523594e-07,5.79687500e-04,1.52617500e-02
-4.12483594e-07,6.78125000e-04,1.52490000e-02
-4.12443594e-07,6.92187500e-04,1.52006563e-02
-4.12403594e-07,5.82812500e-04,1.51693125e-02
-4.12363594e-07,4.29687500e-04,1.51969375e-02
-4.12323594e-07,3.65625000e-04,1.52766250e-02
-4.12283594e-07,4.70312500e-04,1.53552500e-02
-4.12243594e-07,7.00000000e-04,1.53711875e-02
-4.12203594e-07,9.25000000e-04,1.53031875e-02
-4.12163594e-07,1.02968750e-03,1.51916250e-02
-4.12123594e-07,9.73437500e-04,1.51114063e-02
-4.12083594e-07,8.09375000e-04,1.51172500e-02
-4.12043594e-07,6.10937500e-04,1.52059687e-02
-4.12003594e-07,4.25000000e-04,1.53207188e-02
-4.11963594e-07,2.64062500e-04,1.53961563e-02
-4.11923594e-07,1.43750000e-04,1.54030625e-02
-4.11883594e-07,1.04687500e-04,1.53610938e-02
-4.11843594e-07,1.79687500e-04,1.53159375e-02
-4.11803594e-07,3.60937500e-04,1.52973438e-02
-4.11763594e-07,5.73437500e-04,1.53005313e-02
-4.11723594e-07,7.14062500e-04,1.53037188e-02
-4.11683594e-07,7.35937500e-04,1.52941563e-02
-4.11643594e-07,6.78125000e-04,1.52840625e-02
-4.11603594e-07,6.40625000e-04,1.52936250e-02
-4.11563594e-07,6.96875000e-04,1.53207188e-02
-4.11523594e-07,8.25000000e-04,1.53329375e-02
-4.11483594e-07,9.15625000e-04,1.52899063e-02
-4.11443594e-07,8.54687500e-04,1.51847188e-02
-4.11403594e-07,6.17187500e-04,1.50604063e-02
-4.11363594e-07,2.92187500e-04,1.49881563e-02
-4.11323594e-07,4.06250000e-05,1.50152500e-02
-4.11283594e-07,-1.09375000e-05,1.51262812e-02
-4.11243594e-07,1.43750000e-04,1.52532500e-02
-4.11203594e-07,3.98437500e-04,1.53265625e-02
-4.11163594e-07,5.95312500e-04,1.53244375e-02
-4.11123594e-07,6.20312500e-04,1.52851250e-02
-4.11083594e-07,4.76562500e-04,1.52681250e-02
-4.11043594e-07,2.62500000e-04,1.53037188e-02
-4.11003594e-07,1.17187500e-04,1.53685313e-02
-4.10963594e-07,1.32812500e-04,1.54120938e-02
-4.10923594e-07,2.98437500e-04,1.54020000e-02
-4.10883594e-07,5.17187500e-04,1.53520625e-02
-4.10843594e-07,6.62500000e-04,1.53079688e-02
-4.10803594e-07,6.54687500e-04,1.53063750e-02
-4.10763594e-07,5.09375000e-04,1.53425000e-02
-4.10723594e-07,3.12500000e-04,1.53802188e-02
-4.10683594e-07,1.70312500e-04,1.53865938e-02
-4.10643594e-07,1.32812500e-04,1.53616250e-02
-4.10603594e-07,1.73437500e-04,1.53361250e-02
-4.10563594e-07,2.21875000e-04,1.53387813e-02
-4.10523594e-07,2.25000000e-04,1.53658750e-02
-4.10483594e-07,2.01562500e-04,1.53823438e-02
-4.10443594e-07,2.31250000e-04,1.53499375e-02
-4.10403594e-07,3.89062500e-04,1.52665313e-02
-4.10363594e-07,6.78125000e-04,1.51709063e-02
-4.10323594e-07,9.95312500e-04,1.51183125e-02
-4.10283594e-07,1.19218750e-03,1.51390313e-02
-4.10243594e-07,1.15781250e-03,1.52176563e-02
-4.10203594e-07,8.98437500e-04,1.53058438e-02
-4.10163594e-07,5.42187500e-04,1.53547188e-02
-4.10123594e-07,2.59375000e-04,1.53462188e-02
-4.10083594e-07,1.65625000e-04,1.52989375e-02
-4.10043594e-07,2.64062500e-04,1.52495313e-02
-4.10003594e-07,4.54687500e-04,1.52277500e-02
-4.09963594e-07,6.10937500e-04,1.52357188e-02
-4.09923594e-07,6.57812500e-04,1.52559063e-02
-4.09883594e-07,5.92187500e-04,1.52622813e-02
-4.09843594e-07,4.73437500e-04,1.52410313e-02
-4.09803594e-07,3.60937500e-04,1.51990625e-02
-4.09763594e-07,2.89062500e-04,1.51608125e-02
-4.09723594e-07,2.54687500e-04,1.51528438e-02
-4.09683594e-07,2.46875000e-04,1.51857813e-02
-4.09643594e-07,2.53125000e-04,1.52474063e-02
-4.09603594e-07,2.70312500e-04,1.53047813e-02
-4.09563594e-07,3.03125000e-04,1.53233750e-02
-4.09523594e-07,3.46875000e-04,1.52893750e-02
-4.09483594e-07,3.96875000e-04,1.52203125e-02
-4.09443594e-07,4.39062500e-04,1.51608125e-02
-4.09403594e-07,4.56250000e-04,1.51528438e-02
-4.09363594e-07,4.35937500e-04,1.52128750e-02
-4.09323594e-07,3.85937500e-04,1.53185938e-02
-4.09283594e-07,3.40625000e-04,1.54211250e-02
-4.09243594e-07,3.50000000e-04,1.54747812e-02
-4.09203594e-07,4.35937500e-04,1.54641563e-02
-4.09163594e-07,5.70312500e-04,1.54083750e-02
-4.09123594e-07,6.81250000e-04,1.53467500e-02
-4.09083594e-07,7.01562500e-04,1.53095625e-02
-4.09043594e-07,6.25000000e-04,1.53010625e-02
-4.09003594e-07,5.29687500e-04,1.53042500e-02
-4.08963594e-07,5.17187500e-04,1.53015938e-02
-4.08923594e-07,6.28125000e-04,1.52968125e-02
-4.08883594e-07,7.92187500e-04,1.53106250e-02
-4.08843594e-07,8.75000000e-04,1.53653438e-02
-4.08803594e-07,7.92187500e-04,1.54551250e-02
-4.08763594e-07,5.90625000e-04,1.55427813e-02
-4.08723594e-07,4.31250000e-04,1.55789062e-02
-4.08683594e-07,4.59375000e-04,1.55358750e-02
-4.08643594e-07,6.79687500e-04,1.54322813e-02
-4.08603594e-07,9.29687500e-04,1.53223125e-02
-4.08563594e-07,9.98437500e-04,1.52622813e-02
-4.08523594e-07,8.09375000e-04,1.52691875e-02
-4.08483594e-07,4.82812500e-04,1.53132813e-02
-4.08443594e-07,2.64062500e-04,1.53398438e-02
-4.08403594e-07,3.18750000e-04,1.53148750e-02
-4.08363594e-07,6.01562500e-04,1.52468750e-02
-4.08323594e-07,8.85937500e-04,1.51778125e-02
-4.08283594e-07,9.40625000e-04,1.51470000e-02
-4.08243594e-07,7.09375000e-04,1.51570938e-02
-4.08203594e-07,3.42187500e-04,1.51783437e-02
-4.08163594e-07,7.81250000e-05,1.51746250e-02
-4.08123594e-07,5.93750000e-05,1.51416875e-02
-4.08083594e-07,2.46875000e-04,1.51124688e-02
-4.08043594e-07,4.84375000e-04,1.51273438e-02
-4.08003594e-07,6.35937500e-04,1.51974688e-02
-4.07963594e-07,6.71875000e-04,1.52883125e-02
-4.07923594e-07,6.48437500e-04,1.53456875e-02
-4.07883594e-07,6.15625000e-04,1.53403750e-02
-4.07843594e-07,5.62500000e-04,1.52888438e-02
-4.07803594e-07,4.56250000e-04,1.52399688e-02
-4.07763594e-07,3.07812500e-04,1.52282813e-02
-4.07723594e-07,2.03125000e-04,1.52452813e-02
-4.07683594e-07,2.42187500e-04,1.52468750e-02
-4.07643594e-07,4.28125000e-04,1.51969375e-02
-4.07603594e-07,6.40625000e-04,1.51045000e-02
-4.07563594e-07,7.07812500e-04,1.50221562e-02
-4.07523594e-07,5.54687500e-04,1.50062188e-02
-4.07483594e-07,2.73437500e-04,1.50657188e-02
-4.07443594e-07,6.71875000e-05,1.51555000e-02
-4.07403594e-07,8.90625000e-05,1.52102188e-02
-4.07363594e-07,3.18750000e-04,1.51974688e-02
-4.07323594e-07,5.76562500e-04,1.51416875e-02
-4.07283594e-07,6.64062500e-04,1.51045000e-02
-4.07243594e-07,5.23437500e-04,1.51294688e-02
-4.07203594e-07,2.78125000e-04,1.52102188e-02
-4.07163594e-07,1.32812500e-04,1.52925625e-02
-4.07123594e-07,2.04687500e-04,1.53223125e-02
-4.07083594e-07,4.40625000e-04,1.52824688e-02
-4.07043594e-07,6.73437500e-04,1.52033125e-02
-4.07003594e-07,7.50000000e-04,1.51337188e-02
-4.06963594e-07,6.42187500e-04,1.51055625e-02
-4.06923594e-07,4.43750000e-04,1.51204375e-02
-4.06883594e-07,2.75000000e-04,1.51608125e-02
-4.06843594e-07,1.93750000e-04,1.52128750e-02
-4.06803594e-07,1.71875000e-04,1.52734375e-02
-4.06763594e-07,1.64062500e-04,1.53371875e-02
-4.06723594e-07,1.59375000e-04,1.53887188e-02
-4.06683594e-07,1.95312500e-04,1.54035938e-02
-4.06643594e-07,3.04687500e-04,1.53690625e-02
-4.06603594e-07,4.62500000e-04,1.53005313e-02
-4.06563594e-07,6.01562500e-04,1.52346563e-02
-4.06523594e-07,6.57812500e-04,1.52017188e-02
-4.06483594e-07,6.37500000e-04,1.52043750e-02
-4.06443594e-07,5.96875000e-04,1.52176563e-02
-4.06403594e-07,5.95312500e-04,1.52181875e-02
-4.06363594e-07,6.26562500e-04,1.52043750e-02
-4.06323594e-07,6.23437500e-04,1.51969375e-02
-4.06283594e-07,5.25000000e-04,1.52128750e-02
-4.06243594e-07,3.42187500e-04,1.52458125e-02
-4.06203594e-07,1.65625000e-04,1.52660000e-02
-4.06163594e-07,8.90625000e-05,1.52521875e-02
-4.06123594e-07,1.32812500e-04,1.52144688e-02
-4.06083594e-07,2.25000000e-04,1.51868438e-02
-4.06043594e-07,2.57812500e-04,1.51974688e-02
-4.06003594e-07,1.93750000e-04,1.52346563e-02
-4.05963594e-07,1.04687500e-04,1.52564375e-02
-4.05923594e-07,1.09375000e-04,1.52240313e-02
-4.05883594e-07,2.67187500e-04,1.51443438e-02
-4.05843594e-07,5.17187500e-04,1.50694375e-02
-4.05803594e-07,7.09375000e-04,1.50540313e-02
-4.05763594e-07,7.23437500e-04,1.51092813e-02
-4.05723594e-07,5.73437500e-04,1.51873750e-02
-4.05683594e-07,3.89062500e-04,1.52213750e-02
-4.05643594e-07,3.10937500e-04,1.51841875e-02
-4.05603594e-07,3.75000000e-04,1.51161875e-02
-4.05563594e-07,4.85937500e-04,1.50928125e-02
-4.05523594e-07,5.06250000e-04,1.51618750e-02
-4.05483594e-07,3.79687500e-04,1.52920313e-02
-4.05443594e-07,1.85937500e-04,1.53913750e-02
-4.05403594e-07,7.18750000e-05,1.53690625e-02
-4.05363594e-07,1.32812500e-04,1.52128750e-02
-4.05323594e-07,3.31250000e-04,1.50009063e-02
-4.05283594e-07,5.35937500e-04,1.48564063e-02
-4.05243594e-07,6.34375000e-04,1.48601250e-02
-4.05203594e-07,6.20312500e-04,1.49961250e-02
-4.05163594e-07,5.84375000e-04,1.51682500e-02
-4.05123594e-07,6.18750000e-04,1.52649375e-02
-4.05083594e-07,7.23437500e-04,1.52383750e-02
-4.05043594e-07,8.07812500e-04,1.51300000e-02
-4.05003594e-07,7.85937500e-04,1.50327813e-02
-4.04963594e-07,6.62500000e-04,1.50226875e-02
-4.04923594e-07,5.39062500e-04,1.51045000e-02
-4.04883594e-07,5.23437500e-04,1.52144688e-02
-4.04843594e-07,6.17187500e-04,1.52670625e-02
-4.04803594e-07,7.12500000e-04,1.52187188e-02
-4.04763594e-07,6.71875000e-04,1.50991875e-02
-4.04723594e-07,4.65625000e-04,1.49918750e-02
-4.04683594e-07,2.15625000e-04,1.49785938e-02
-4.04643594e-07,1.07812500e-04,1.50896250e-02
-4.04603594e-07,2.31250000e-04,1.52792813e-02
-4.04563594e-07,5.01562500e-04,1.54535313e-02
-4.04523594e-07,7.10937500e-04,1.55241875e-02
-4.04483594e-07,6.96875000e-04,1.54609688e-02
-4.04443594e-07,4.71875000e-04,1.53063750e-02
-4.04403594e-07,2.07812500e-04,1.51517813e-02
-4.04363594e-07,1.00000000e-04,1.50827188e-02
-4.04323594e-07,2.06250000e-04,1.51294688e-02
-4.04283594e-07,4.03125000e-04,1.52553750e-02
-4.04243594e-07,5.03125000e-04,1.53865938e-02
-4.04203594e-07,4.15625000e-04,1.54636250e-02
-4.04163594e-07,2.15625000e-04,1.54737188e-02
-4.04123594e-07,8.28125000e-05,1.54471562e-02
-4.04083594e-07,1.37500000e-04,1.54205938e-02
-4.04043594e-07,3.54687500e-04,1.54014688e-02
-4.04003594e-07,5.87500000e-04,1.53632188e-02
-4.03963594e-07,7.03125000e-04,1.52745000e-02
-4.03923594e-07,6.92187500e-04,1.51406250e-02
-4.03883594e-07,6.56250000e-04,1.50141875e-02
-4.03843594e-07,7.03125000e-04,1.49637188e-02
-4.03803594e-07,8.23437500e-04,1.50210938e-02
-4.03763594e-07,8.92187500e-04,1.51512500e-02
-4.03723594e-07,7.78125000e-04,1.52718437e-02
-4.03683594e-07,4.79687500e-04,1.53127500e-02
-4.03643594e-07,1.57812500e-04,1.52675938e-02
-4.03603594e-07,3.90625000e-05,1.51948125e-02
-4.03563594e-07,2.28125000e-04,1.51714375e-02
-4.03523594e-07,6.20312500e-04,1.52288125e-02
-4.03483594e-07,9.50000000e-04,1.53286875e-02
-4.03443594e-07,9.87500000e-04,1.53961563e-02
-4.03403594e-07,7.09375000e-04,1.53802188e-02
-4.03363594e-07,3.28125000e-04,1.52941563e-02
-4.03323594e-07,1.40625000e-04,1.51980000e-02
-4.03283594e-07,3.10937500e-04,1.51496563e-02
-4.03243594e-07,7.39062500e-04,1.51560313e-02
-4.03203594e-07,1.14062500e-03,1.51783437e-02
-4.03163594e-07,1.24843750e-03,1.51740938e-02
-4.03123594e-07,1.00781250e-03,1.51416875e-02
-4.03083594e-07,5.98437500e-04,1.51252188e-02
-4.03043594e-07,2.93750000e-04,1.51709063e-02
-4.03003594e-07,2.53125000e-04,1.52808750e-02
-4.02963594e-07,4.23437500e-04,1.53972188e-02
-4.02923594e-07,6.09375000e-04,1.54466250e-02
-4.02883594e-07,6.45312500e-04,1.53956250e-02
-4.02843594e-07,5.14062500e-04,1.52824688e-02
-4.02803594e-07,3.45312500e-04,1.51852500e-02
-4.02763594e-07,2.76562500e-04,1.51666563e-02
-4.02723594e-07,3.56250000e-04,1.52245625e-02
-4.02683594e-07,5.12500000e-04,1.53026563e-02
-4.02643594e-07,6.40625000e-04,1.53414375e-02
-4.02603594e-07,6.93750000e-04,1.53228438e-02
-4.02563594e-07,7.00000000e-04,1.52814063e-02
-4.02523594e-07,7.03125000e-04,1.52633438e-02
-4.02483594e-07,6.96875000e-04,1.52824688e-02
-4.02443594e-07,6.23437500e-04,1.53042500e-02
-4.02403594e-07,4.42187500e-04,1.52803438e-02
-4.02363594e-07,2.01562500e-04,1.51926875e-02
-4.02323594e-07,3.28125000e-05,1.50742187e-02
-4.02283594e-07,5.62500000e-05,1.49844375e-02
-4.02243594e-07,2.78125000e-04,1.49621250e-02
-4.02203594e-07,5.64062500e-04,1.49987813e-02
-4.02163594e-07,7.28125000e-04,1.50519063e-02
-4.02123594e-07,6.68750000e-04,1.50864375e-02
-4.02083594e-07,4.39062500e-04,1.51007813e-02
-4.02043594e-07,2.15625000e-04,1.51199063e-02
-4.02003594e-07,1.56250000e-04,1.51586875e-02
-4.01963594e-07,2.93750000e-04,1.51985313e-02
-4.01923594e-07,5.17187500e-04,1.51995938e-02
-4.01883594e-07,6.64062500e-04,1.51400937e-02
-4.01843594e-07,6.42187500e-04,1.50481875e-02
-4.01803594e-07,4.89062500e-04,1.49870938e-02
-4.01763594e-07,3.29687500e-04,1.50072813e-02
-4.01723594e-07,2.84375000e-04,1.50991875e-02
-4.01683594e-07,3.81250000e-04,1.51948125e-02
-4.01643594e-07,5.51562500e-04,1.52160625e-02
-4.01603594e-07,6.90625000e-04,1.51353125e-02
-4.01563594e-07,7.29687500e-04,1.50003750e-02
-4.01523594e-07,6.70312500e-04,1.49005000e-02
-4.01483594e-07,5.65625000e-04,1.49020938e-02
-4.01443594e-07,4.82812500e-04,1.50014375e-02
-4.01403594e-07,4.57812500e-04,1.51300000e-02
-4.01363594e-07,4.89062500e-04,1.52033125e-02
-4.01323594e-07,5.46875000e-04,1.51778125e-02
-4.01283594e-07,5.89062500e-04,1.50742187e-02
-4.01243594e-07,5.93750000e-04,1.49557500e-02
-4.01203594e-07,5.57812500e-04,1.48904062e-02
-4.01163594e-07,5.06250000e-04,1.49127188e-02
-4.01123594e-07,4.71875000e-04,1.50163125e-02
-4.01083594e-07,4.81250000e-04,1.51629375e-02
-4.01043594e-07,5.29687500e-04,1.52989375e-02
-4.01003594e-07,5.93750000e-04,1.53765000e-02
-4.00963594e-07,6.37500000e-04,1.53690625e-02
-4.00923594e-07,6.43750000e-04,1.52899063e-02
-4.00883594e-07,6.18750000e-04,1.51932188e-02
-4.00843594e-07,5.90625000e-04,1.51485938e-02
-4.00803594e-07,5.79687500e-04,1.51995938e-02
-4.00763594e-07,5.89062500e-04,1.53233750e-02
-4.00723594e-07,6.04687500e-04,1.54375938e-02
-4.00683594e-07,6.12500000e-04,1.54492813e-02
-4.00643594e-07,6.10937500e-04,1.53292187e-02
-4.00603594e-07,6.06250000e-04,1.51411563e-02
-4.00563594e-07,6.03125000e-04,1.50067500e-02
-4.00523594e-07,5.79687500e-04,1.50232188e-02
-4.00483594e-07,5.06250000e-04,1.51884375e-02
-4.00443594e-07,3.70312500e-04,1.54041250e-02
-4.00403594e-07,2.03125000e-04,1.55470313e-02
-4.00363594e-07,7.65625000e-05,1.55581875e-02
-4.00323594e-07,6.09375000e-05,1.54795625e-02
-4.00283594e-07,1.78125000e-04,1.54078438e-02
-4.00243594e-07,3.73437500e-04,1.54158125e-02
-4.00203594e-07,5.42187500e-04,1.54965625e-02
-4.00163594e-07,6.10937500e-04,1.55863438e-02
-4.00123594e-07,5.81250000e-04,1.56245938e-02
-4.00083594e-07,5.45312500e-04,1.56086563e-02
-4.00043594e-07,6.03125000e-04,1.55820938e-02
-4.00003594e-07,7.92187500e-04,1.55842187e-02
-3.99963594e-07,1.03281250e-03,1.56054688e-02
-3.99923594e-07,1.18125000e-03,1.56006875e-02
-3.99883594e-07,1.12968750e-03,1.55401250e-02
-3.99843594e-07,8.87500000e-04,1.54482188e-02
-3.99803594e-07,5.95312500e-04,1.53908438e-02
-3.99763594e-07,4.21875000e-04,1.54174063e-02
-3.99723594e-07,4.51562500e-04,1.55082500e-02
-3.99683594e-07,6.18750000e-04,1.55852813e-02
-3.99643594e-07,7.59375000e-04,1.55757188e-02
-3.99603594e-07,7.23437500e-04,1.54758438e-02
-3.99563594e-07,4.92187500e-04,1.53573750e-02
-3.99523594e-07,1.87500000e-04,1.53063750e-02
-3.99483594e-07,-1.40625000e-05,1.53504688e-02
-3.99443594e-07,-1.87500000e-05,1.54370625e-02
-3.99403594e-07,1.34375000e-04,1.54785000e-02
-3.99363594e-07,3.07812500e-04,1.54349375e-02
-3.99323594e-07,3.84375000e-04,1.53462188e-02
-3.99283594e-07,3.53125000e-04,1.53010625e-02
-3.99243594e-07,2.98437500e-04,1.53584375e-02
-3.99203594e-07,3.06250000e-04,1.54944375e-02
-3.99163594e-07,3.84375000e-04,1.56214063e-02
-3.99123594e-07,4.48437500e-04,1.56564687e-02
-3.99083594e-07,4.18750000e-04,1.55847500e-02
-3.99043594e-07,3.06250000e-04,1.54657500e-02
-3.99003594e-07,2.23437500e-04,1.53786250e-02
-3.98963594e-07,3.00000000e-04,1.53632188e-02
