waveforms/Tek116_ALL/Tek058_ALL.csv

Model,MSO64
Channel,CH1,,Channel,CH2
Waveform Type,ANALOG,,Waveform Type,ANALOG
Horizontal Units,s,,Horizontal Units,s
Sample Interval,4.00000000e-11,,Sample Interval,4.00000000e-11
Record Length,80000,,Record Length,80000
Zero Index,10399.04687500,,Zero Index,10399.04687500
Vertical Units,V,,Vertical Units,V
,,,,
ANALOG_Thumbnail,,,ANALOG_Thumbnail,

TIME,CH1,CH2
-4.15961875e-07,6.87500000e-04,1.51193750e-02
-4.15921875e-07,6.64062500e-04,1.50726250e-02
-4.15881875e-07,6.46875000e-04,1.50901563e-02
-4.15841875e-07,6.37500000e-04,1.51400937e-02
-4.15801875e-07,6.26562500e-04,1.51815313e-02
-4.15761875e-07,5.98437500e-04,1.51921562e-02
-4.15721875e-07,5.39062500e-04,1.51735625e-02
-4.15681875e-07,4.48437500e-04,1.51454063e-02
-4.15641875e-07,3.42187500e-04,1.51289375e-02
-4.15601875e-07,2.39062500e-04,1.51369063e-02
-4.15561875e-07,1.57812500e-04,1.51698438e-02
-4.15521875e-07,1.10937500e-04,1.52171250e-02
-4.15481875e-07,1.07812500e-04,1.52617500e-02
-4.15441875e-07,1.54687500e-04,1.52888438e-02
-4.15401875e-07,2.43750000e-04,1.52973438e-02
-4.15361875e-07,3.59375000e-04,1.52994688e-02
-4.15321875e-07,4.70312500e-04,1.53116875e-02
-4.15281875e-07,5.50000000e-04,1.53398438e-02
-4.15241875e-07,5.96875000e-04,1.53674688e-02
-4.15201875e-07,6.31250000e-04,1.53648125e-02
-4.15161875e-07,6.82812500e-04,1.53132813e-02
-4.15121875e-07,7.60937500e-04,1.52304063e-02
-4.15081875e-07,8.43750000e-04,1.51687813e-02
-4.15041875e-07,8.81250000e-04,1.51815313e-02
-4.15001875e-07,8.39062500e-04,1.52798125e-02
-4.14961875e-07,7.20312500e-04,1.54158125e-02
-4.14921875e-07,5.75000000e-04,1.55082500e-02
-4.14881875e-07,4.68750000e-04,1.55008125e-02
-4.14841875e-07,4.42187500e-04,1.54046563e-02
-4.14801875e-07,4.84375000e-04,1.52936250e-02
-4.14761875e-07,5.45312500e-04,1.52490000e-02
-4.14721875e-07,5.76562500e-04,1.52973438e-02
-4.14681875e-07,5.67187500e-04,1.53908438e-02
-4.14641875e-07,5.51562500e-04,1.54445000e-02
-4.14601875e-07,5.89062500e-04,1.54057188e-02
-4.14561875e-07,7.12500000e-04,1.52925625e-02
-4.14521875e-07,8.93750000e-04,1.51735625e-02
-4.14481875e-07,1.05312500e-03,1.51135313e-02
-4.14441875e-07,1.09218750e-03,1.51241563e-02
-4.14401875e-07,9.54687500e-04,1.51693125e-02
-4.14361875e-07,6.64062500e-04,1.52118125e-02
-4.14321875e-07,3.25000000e-04,1.52500625e-02
-4.14281875e-07,7.03125000e-05,1.53143438e-02
-4.14241875e-07,-6.93889390e-18,1.54168750e-02
-4.14201875e-07,1.26562500e-04,1.55215313e-02
-4.14161875e-07,3.67187500e-04,1.55523438e-02
-4.14121875e-07,5.82812500e-04,1.54615000e-02
-4.14081875e-07,6.57812500e-04,1.52782188e-02
-4.14041875e-07,5.68750000e-04,1.51045000e-02
-4.14001875e-07,3.93750000e-04,1.50444688e-02
-4.13961875e-07,2.75000000e-04,1.51220313e-02
-4.13921875e-07,3.25000000e-04,1.52644063e-02
-4.13881875e-07,5.57812500e-04,1.53584375e-02
-4.13841875e-07,8.67187500e-04,1.53403750e-02
-4.13801875e-07,1.08281250e-03,1.52405000e-02
-4.13761875e-07,1.07500000e-03,1.51485938e-02
-4.13721875e-07,8.28125000e-04,1.51337188e-02
-4.13681875e-07,4.60937500e-04,1.51873750e-02
-4.13641875e-07,1.59375000e-04,1.52405000e-02
-4.13601875e-07,7.50000000e-05,1.52304063e-02
-4.13561875e-07,2.32812500e-04,1.51597500e-02
-4.13521875e-07,5.15625000e-04,1.50917500e-02
-4.13481875e-07,7.35937500e-04,1.50928125e-02
-4.13441875e-07,7.56250000e-04,1.51719688e-02
-4.13401875e-07,5.70312500e-04,1.52766250e-02
-4.13361875e-07,3.18750000e-04,1.53361250e-02
-4.13321875e-07,1.93750000e-04,1.53228438e-02
-4.13281875e-07,3.12500000e-04,1.52675938e-02
-4.13241875e-07,6.29687500e-04,1.52266875e-02
-4.13201875e-07,9.62500000e-04,1.52314688e-02
-4.13161875e-07,1.10468750e-03,1.52675938e-02
-4.13121875e-07,9.65625000e-04,1.52973438e-02
-4.13081875e-07,6.29687500e-04,1.52984063e-02
-4.13041875e-07,3.03125000e-04,1.52840625e-02
-4.13001875e-07,1.84375000e-04,1.52814063e-02
-4.12961875e-07,3.23437500e-04,1.53026563e-02
-4.12921875e-07,6.14062500e-04,1.53249688e-02
-4.12881875e-07,8.56250000e-04,1.53170000e-02
-4.12841875e-07,9.06250000e-04,1.52675938e-02
-4.12801875e-07,7.60937500e-04,1.52011875e-02
-4.12761875e-07,5.50000000e-04,1.51555000e-02
-4.12721875e-07,4.35937500e-04,1.51496563e-02
-4.12681875e-07,5.01562500e-04,1.51661250e-02
-4.12641875e-07,6.98437500e-04,1.51714375e-02
-4.12601875e-07,8.84375000e-04,1.51517813e-02
-4.12561875e-07,9.32812500e-04,1.51300000e-02
-4.12521875e-07,8.04687500e-04,1.51422188e-02
-4.12481875e-07,5.78125000e-04,1.52011875e-02
-4.12441875e-07,3.79687500e-04,1.52745000e-02
-4.12401875e-07,3.04687500e-04,1.53074375e-02
-4.12361875e-07,3.65625000e-04,1.52729063e-02
-4.12321875e-07,5.00000000e-04,1.51985313e-02
-4.12281875e-07,6.25000000e-04,1.51507188e-02
-4.12241875e-07,6.90625000e-04,1.51804688e-02
-4.12201875e-07,7.01562500e-04,1.52776875e-02
-4.12161875e-07,6.89062500e-04,1.53780938e-02
-4.12121875e-07,6.73437500e-04,1.54110313e-02
-4.12081875e-07,6.51562500e-04,1.53573750e-02
-4.12041875e-07,6.03125000e-04,1.52612188e-02
-4.12001875e-07,5.28125000e-04,1.51921562e-02
-4.11961875e-07,4.59375000e-04,1.51857813e-02
-4.11921875e-07,4.43750000e-04,1.52160625e-02
-4.11881875e-07,5.10937500e-04,1.52224375e-02
-4.11841875e-07,6.31250000e-04,1.51629375e-02
-4.11801875e-07,7.29687500e-04,1.50535000e-02
-4.11761875e-07,7.21875000e-04,1.49568125e-02
-4.11721875e-07,5.85937500e-04,1.49307813e-02
-4.11681875e-07,3.81250000e-04,1.49833750e-02
-4.11641875e-07,2.14062500e-04,1.50667813e-02
-4.11601875e-07,1.70312500e-04,1.51193750e-02
-4.11561875e-07,2.48437500e-04,1.51161875e-02
-4.11521875e-07,3.73437500e-04,1.50896250e-02
-4.11481875e-07,4.60937500e-04,1.50949375e-02
-4.11441875e-07,4.89062500e-04,1.51618750e-02
-4.11401875e-07,5.20312500e-04,1.52601563e-02
-4.11361875e-07,6.35937500e-04,1.53196563e-02
-4.11321875e-07,8.54687500e-04,1.52845938e-02
-4.11281875e-07,1.08281250e-03,1.51618750e-02
-4.11241875e-07,1.17343750e-03,1.50226875e-02
-4.11201875e-07,1.03437500e-03,1.49546875e-02
-4.11161875e-07,7.09375000e-04,1.50003750e-02
-4.11121875e-07,3.70312500e-04,1.51252188e-02
-4.11081875e-07,2.01562500e-04,1.52447500e-02
-4.11041875e-07,2.84375000e-04,1.52840625e-02
-4.11001875e-07,5.43750000e-04,1.52304063e-02
-4.10961875e-07,8.04687500e-04,1.51363750e-02
-4.10921875e-07,9.07812500e-04,1.50805938e-02
-4.10881875e-07,8.12500000e-04,1.51076875e-02
-4.10841875e-07,6.04687500e-04,1.51995938e-02
-4.10801875e-07,4.23437500e-04,1.52904375e-02
-4.10761875e-07,3.71875000e-04,1.53148750e-02
-4.10721875e-07,4.56250000e-04,1.52516563e-02
-4.10681875e-07,5.89062500e-04,1.51406250e-02
-4.10641875e-07,6.56250000e-04,1.50550937e-02
-4.10601875e-07,5.95312500e-04,1.50561563e-02
-4.10561875e-07,4.31250000e-04,1.51533750e-02
-4.10521875e-07,2.60937500e-04,1.53015938e-02
-4.10481875e-07,1.87500000e-04,1.54243125e-02
-4.10441875e-07,2.60937500e-04,1.54646875e-02
-4.10401875e-07,4.40625000e-04,1.54142187e-02
-4.10361875e-07,6.21875000e-04,1.53154063e-02
-4.10321875e-07,7.03125000e-04,1.52309375e-02
-4.10281875e-07,6.60937500e-04,1.52033125e-02
-4.10241875e-07,5.65625000e-04,1.52298750e-02
-4.10201875e-07,5.34375000e-04,1.52723750e-02
-4.10161875e-07,6.46875000e-04,1.52861875e-02
-4.10121875e-07,8.79687500e-04,1.52537813e-02
-4.10081875e-07,1.11250000e-03,1.51964063e-02
-4.10041875e-07,1.20625000e-03,1.51523125e-02
-4.10001875e-07,1.09218750e-03,1.51507188e-02
-4.09961875e-07,8.20312500e-04,1.51900313e-02
-4.09921875e-07,5.23437500e-04,1.52436875e-02
-4.09881875e-07,3.32812500e-04,1.52792813e-02
-4.09841875e-07,3.03125000e-04,1.52819375e-02
-4.09801875e-07,3.95312500e-04,1.52580312e-02
-4.09761875e-07,5.26562500e-04,1.52235000e-02
-4.09721875e-07,6.25000000e-04,1.51910938e-02
-4.09681875e-07,6.67187500e-04,1.51629375e-02
-4.09641875e-07,6.53125000e-04,1.51395625e-02
-4.09601875e-07,5.95312500e-04,1.51300000e-02
-4.09561875e-07,5.09375000e-04,1.51496563e-02
-4.09521875e-07,4.34375000e-04,1.52080938e-02
-4.09481875e-07,4.37500000e-04,1.52941563e-02
-4.09441875e-07,5.76562500e-04,1.53738438e-02
-4.09401875e-07,8.34375000e-04,1.54094375e-02
-4.09361875e-07,1.08906250e-03,1.53860625e-02
-4.09321875e-07,1.17343750e-03,1.53276250e-02
-4.09281875e-07,9.84375000e-04,1.52851250e-02
-4.09241875e-07,5.95312500e-04,1.53005313e-02
-4.09201875e-07,2.26562500e-04,1.53722500e-02
-4.09161875e-07,1.21875000e-04,1.54503438e-02
-4.09121875e-07,3.57812500e-04,1.54678750e-02
-4.09081875e-07,7.81250000e-04,1.53881875e-02
-4.09041875e-07,1.09218750e-03,1.52399688e-02
-4.09001875e-07,1.06562500e-03,1.51018438e-02
-4.08961875e-07,7.15625000e-04,1.50540313e-02
-4.08921875e-07,2.95312500e-04,1.51199063e-02
-4.08881875e-07,1.10937500e-04,1.52458125e-02
-4.08841875e-07,2.90625000e-04,1.53387813e-02
-4.08801875e-07,6.87500000e-04,1.53318750e-02
-4.08761875e-07,9.92187500e-04,1.52309375e-02
-4.08721875e-07,9.71875000e-04,1.51092813e-02
-4.08681875e-07,6.42187500e-04,1.50508438e-02
-4.08641875e-07,2.46875000e-04,1.50864375e-02
-4.08601875e-07,6.25000000e-05,1.51767500e-02
-4.08561875e-07,1.89062500e-04,1.52495313e-02
-4.08521875e-07,4.87500000e-04,1.52612188e-02
-4.08481875e-07,7.06250000e-04,1.52298750e-02
-4.08441875e-07,6.93750000e-04,1.52118125e-02
-4.08401875e-07,5.04687500e-04,1.52458125e-02
-4.08361875e-07,3.37500000e-04,1.53159375e-02
-4.08321875e-07,3.60937500e-04,1.53637500e-02
-4.08281875e-07,5.73437500e-04,1.53419688e-02
-4.08241875e-07,8.09375000e-04,1.52532500e-02
-4.08201875e-07,8.89062500e-04,1.51491250e-02
-4.08161875e-07,7.71875000e-04,1.50832500e-02
-4.08121875e-07,5.79687500e-04,1.50705000e-02
-4.08081875e-07,4.79687500e-04,1.50864375e-02
-4.08041875e-07,5.45312500e-04,1.51013125e-02
-4.08001875e-07,6.87500000e-04,1.51172500e-02
-4.07961875e-07,7.42187500e-04,1.51640000e-02
-4.07921875e-07,6.18750000e-04,1.52585625e-02
-4.07881875e-07,3.82812500e-04,1.53711875e-02
-4.07841875e-07,2.12500000e-04,1.54328125e-02
-4.07801875e-07,2.50000000e-04,1.53834063e-02
-4.07761875e-07,4.85937500e-04,1.52277500e-02
-4.07721875e-07,7.53125000e-04,1.50412812e-02
-4.07681875e-07,8.65625000e-04,1.49217500e-02
-4.07641875e-07,7.48437500e-04,1.49222813e-02
-4.07601875e-07,4.92187500e-04,1.50173750e-02
-4.07561875e-07,2.79687500e-04,1.51300000e-02
-4.07521875e-07,2.42187500e-04,1.51910938e-02
-4.07481875e-07,3.79687500e-04,1.51857813e-02
-4.07441875e-07,5.78125000e-04,1.51512500e-02
-4.07401875e-07,7.04687500e-04,1.51353125e-02
-4.07361875e-07,7.06250000e-04,1.51570938e-02
-4.07321875e-07,6.23437500e-04,1.51969375e-02
-4.07281875e-07,5.43750000e-04,1.52224375e-02
-4.07241875e-07,5.23437500e-04,1.52187188e-02
-4.07201875e-07,5.64062500e-04,1.52011875e-02
-4.07161875e-07,6.32812500e-04,1.51969375e-02
-4.07121875e-07,7.00000000e-04,1.52213750e-02
-4.07081875e-07,7.59375000e-04,1.52649375e-02
-4.07041875e-07,8.10937500e-04,1.53037188e-02
-4.07001875e-07,8.37500000e-04,1.53180625e-02
-4.06961875e-07,8.10937500e-04,1.53037188e-02
-4.06921875e-07,7.17187500e-04,1.52734375e-02
-4.06881875e-07,5.84375000e-04,1.52426250e-02
-4.06841875e-07,4.89062500e-04,1.52240313e-02
-4.06801875e-07,4.92187500e-04,1.52219063e-02
-4.06761875e-07,5.90625000e-04,1.52367813e-02
-4.06721875e-07,7.06250000e-04,1.52665313e-02
-4.06681875e-07,7.28125000e-04,1.53085000e-02
-4.06641875e-07,6.01562500e-04,1.53536563e-02
-4.06601875e-07,3.78125000e-04,1.53876563e-02
-4.06561875e-07,1.92187500e-04,1.53908438e-02
-4.06521875e-07,1.62500000e-04,1.53488750e-02
-4.06481875e-07,3.04687500e-04,1.52606875e-02
-4.06441875e-07,5.18750000e-04,1.51480625e-02
-4.06401875e-07,6.54687500e-04,1.50508438e-02
-4.06361875e-07,6.37500000e-04,1.50083437e-02
-4.06321875e-07,5.15625000e-04,1.50365000e-02
-4.06281875e-07,4.23437500e-04,1.51130000e-02
-4.06241875e-07,4.73437500e-04,1.51868438e-02
-4.06201875e-07,6.54687500e-04,1.52107500e-02
-4.06161875e-07,8.50000000e-04,1.51762188e-02
-4.06121875e-07,9.14062500e-04,1.51209688e-02
-4.06081875e-07,7.98437500e-04,1.51013125e-02
-4.06041875e-07,5.76562500e-04,1.51496563e-02
-4.06001875e-07,3.98437500e-04,1.52463438e-02
-4.05961875e-07,3.68750000e-04,1.53318750e-02
-4.05921875e-07,4.84375000e-04,1.53515313e-02
-4.05881875e-07,6.39062500e-04,1.52930938e-02
-4.05841875e-07,7.18750000e-04,1.51964063e-02
-4.05801875e-07,6.79687500e-04,1.51215000e-02
-4.05761875e-07,5.73437500e-04,1.51082188e-02
-4.05721875e-07,4.98437500e-04,1.51523125e-02
-4.05681875e-07,5.15625000e-04,1.52197813e-02
-4.05641875e-07,6.07812500e-04,1.52729063e-02
-4.05601875e-07,6.96875000e-04,1.52989375e-02
-4.05561875e-07,7.04687500e-04,1.53042500e-02
-4.05521875e-07,6.15625000e-04,1.53037188e-02
-4.05481875e-07,4.79687500e-04,1.53047813e-02
-4.05441875e-07,3.78125000e-04,1.53047813e-02
-4.05401875e-07,3.60937500e-04,1.53042500e-02
-4.05361875e-07,4.14062500e-04,1.53047813e-02
-4.05321875e-07,4.75000000e-04,1.53106250e-02
-4.05281875e-07,4.90625000e-04,1.53175313e-02
-4.05241875e-07,4.48437500e-04,1.53154063e-02
-4.05201875e-07,3.87500000e-04,1.52989375e-02
-4.05161875e-07,3.65625000e-04,1.52792813e-02
-4.05121875e-07,4.10937500e-04,1.52814063e-02
-4.05081875e-07,5.07812500e-04,1.53239063e-02
-4.05041875e-07,6.07812500e-04,1.53988125e-02
-4.05001875e-07,6.70312500e-04,1.54678750e-02
-4.04961875e-07,6.76562500e-04,1.54838125e-02
-4.04921875e-07,6.42187500e-04,1.54248438e-02
-4.04881875e-07,5.87500000e-04,1.53138125e-02
-4.04841875e-07,5.28125000e-04,1.52049063e-02
-4.04801875e-07,4.78125000e-04,1.51533750e-02
-4.04761875e-07,4.60937500e-04,1.51804688e-02
-4.04721875e-07,5.07812500e-04,1.52638750e-02
-4.04681875e-07,6.40625000e-04,1.53541875e-02
-4.04641875e-07,8.43750000e-04,1.54057188e-02
-4.04601875e-07,1.05156250e-03,1.54020000e-02
-4.04561875e-07,1.16406250e-03,1.53595000e-02
-4.04521875e-07,1.11406250e-03,1.53148750e-02
-4.04481875e-07,9.09375000e-04,1.53047813e-02
-4.04441875e-07,6.56250000e-04,1.53382500e-02
-4.04401875e-07,4.98437500e-04,1.53929688e-02
-4.04361875e-07,5.34375000e-04,1.54211250e-02
-4.04321875e-07,7.40625000e-04,1.53770313e-02
-4.04281875e-07,9.76562500e-04,1.52527188e-02
-4.04241875e-07,1.06718750e-03,1.50912188e-02
-4.04201875e-07,9.23437500e-04,1.49716875e-02
-4.04161875e-07,6.04687500e-04,1.49615938e-02
-4.04121875e-07,2.92187500e-04,1.50731563e-02
-4.04081875e-07,1.70312500e-04,1.52527188e-02
-4.04041875e-07,3.00000000e-04,1.54120938e-02
-4.04001875e-07,5.71875000e-04,1.54859375e-02
-4.03961875e-07,7.89062500e-04,1.54662812e-02
-4.03921875e-07,7.92187500e-04,1.53940313e-02
-4.03881875e-07,5.79687500e-04,1.53191250e-02
-4.03841875e-07,2.95312500e-04,1.52622813e-02
-4.03801875e-07,1.29687500e-04,1.52165938e-02
-4.03761875e-07,1.85937500e-04,1.51725000e-02
-4.03721875e-07,4.18750000e-04,1.51432813e-02
-4.03681875e-07,6.82812500e-04,1.51597500e-02
-4.03641875e-07,8.32812500e-04,1.52367813e-02
-4.03601875e-07,8.20312500e-04,1.53430312e-02
-4.03561875e-07,6.96875000e-04,1.54147500e-02
-4.03521875e-07,5.59375000e-04,1.53956250e-02
-4.03481875e-07,4.76562500e-04,1.52867188e-02
-4.03441875e-07,4.65625000e-04,1.51507188e-02
-4.03401875e-07,5.14062500e-04,1.50715625e-02
-4.03361875e-07,5.95312500e-04,1.50949375e-02
-4.03321875e-07,6.82812500e-04,1.51974688e-02
-4.03281875e-07,7.31250000e-04,1.53090313e-02
-4.03241875e-07,6.87500000e-04,1.53648125e-02
-4.03201875e-07,5.35937500e-04,1.53499375e-02
-4.03161875e-07,3.35937500e-04,1.53000000e-02
-4.03121875e-07,2.14062500e-04,1.52649375e-02
-4.03081875e-07,2.79687500e-04,1.52670625e-02
-4.03041875e-07,5.32812500e-04,1.52883125e-02
-4.03001875e-07,8.29687500e-04,1.52920313e-02
-4.02961875e-07,9.70312500e-04,1.52585625e-02
-4.02921875e-07,8.29687500e-04,1.51995938e-02
-4.02881875e-07,4.67187500e-04,1.51454063e-02
-4.02841875e-07,8.59375000e-05,1.51172500e-02
-4.02801875e-07,-9.68750000e-05,1.51151250e-02
-4.02761875e-07,6.25000000e-06,1.51225625e-02
-4.02721875e-07,3.07812500e-04,1.51262812e-02
-4.02681875e-07,6.18750000e-04,1.51273438e-02
-4.02641875e-07,7.81250000e-04,1.51331875e-02
-4.02601875e-07,7.59375000e-04,1.51459375e-02
-4.02561875e-07,6.28125000e-04,1.51581563e-02
-4.02521875e-07,5.03125000e-04,1.51655938e-02
-4.02481875e-07,4.67187500e-04,1.51746250e-02
-4.02441875e-07,5.31250000e-04,1.51953438e-02
-4.02401875e-07,6.54687500e-04,1.52261563e-02
-4.02361875e-07,7.78125000e-04,1.52399688e-02
-4.02321875e-07,8.46875000e-04,1.52022500e-02
-4.02281875e-07,8.32812500e-04,1.51050313e-02
-4.02241875e-07,7.35937500e-04,1.49897500e-02
-4.02201875e-07,5.90625000e-04,1.49323750e-02
-4.02161875e-07,4.53125000e-04,1.49934688e-02
-4.02121875e-07,3.75000000e-04,1.51645313e-02
-4.02081875e-07,3.78125000e-04,1.53616250e-02
-4.02041875e-07,4.53125000e-04,1.54710625e-02
-4.02001875e-07,5.60937500e-04,1.54301563e-02
-4.01961875e-07,6.57812500e-04,1.52718437e-02
-4.01921875e-07,7.06250000e-04,1.51050313e-02
-4.01881875e-07,6.81250000e-04,1.50402188e-02
-4.01841875e-07,5.90625000e-04,1.51119375e-02
-4.01801875e-07,4.67187500e-04,1.52543125e-02
-4.01761875e-07,3.68750000e-04,1.53515313e-02
-4.01721875e-07,3.48437500e-04,1.53191250e-02
-4.01681875e-07,4.14062500e-04,1.51661250e-02
-4.01641875e-07,5.09375000e-04,1.49849688e-02
-4.01601875e-07,5.50000000e-04,1.48888125e-02
-4.01561875e-07,4.78125000e-04,1.49318438e-02
-4.01521875e-07,3.15625000e-04,1.50790000e-02
-4.01481875e-07,1.67187500e-04,1.52330625e-02
-4.01441875e-07,1.42187500e-04,1.53047813e-02
-4.01401875e-07,2.70312500e-04,1.52718437e-02
-4.01361875e-07,4.79687500e-04,1.51820625e-02
-4.01321875e-07,6.45312500e-04,1.51135313e-02
-4.01281875e-07,6.84375000e-04,1.51119375e-02
-4.01241875e-07,6.15625000e-04,1.51634688e-02
-4.01201875e-07,5.48437500e-04,1.52144688e-02
-4.01161875e-07,5.82812500e-04,1.52171250e-02
-4.01121875e-07,7.35937500e-04,1.51693125e-02
-4.01081875e-07,9.25000000e-04,1.51156563e-02
-4.01041875e-07,1.03125000e-03,1.51114063e-02
-4.01001875e-07,9.84375000e-04,1.51772813e-02
-4.00961875e-07,8.10937500e-04,1.52819375e-02
-4.00921875e-07,6.15625000e-04,1.53674688e-02
-4.00881875e-07,4.98437500e-04,1.53881875e-02
-4.00841875e-07,5.01562500e-04,1.53430312e-02
-4.00801875e-07,5.89062500e-04,1.52697188e-02
-4.00761875e-07,6.79687500e-04,1.52118125e-02
-4.00721875e-07,6.92187500e-04,1.51852500e-02
-4.00681875e-07,6.00000000e-04,1.51751563e-02
-4.00641875e-07,4.34375000e-04,1.51592187e-02
-4.00601875e-07,2.81250000e-04,1.51347813e-02
-4.00561875e-07,2.31250000e-04,1.51252188e-02
-4.00521875e-07,3.39062500e-04,1.51560313e-02
-4.00481875e-07,5.84375000e-04,1.52245625e-02
-4.00441875e-07,8.62500000e-04,1.52904375e-02
-4.00401875e-07,1.03437500e-03,1.53047813e-02
-4.00361875e-07,1.00000000e-03,1.52511250e-02
-4.00321875e-07,7.62500000e-04,1.51655938e-02
-4.00281875e-07,4.42187500e-04,1.51188438e-02
-4.00241875e-07,2.06250000e-04,1.51618750e-02
-4.00201875e-07,1.81250000e-04,1.52861875e-02
-4.00161875e-07,3.79687500e-04,1.54269688e-02
-4.00121875e-07,6.98437500e-04,1.55050625e-02
-4.00081875e-07,9.85937500e-04,1.54800937e-02
-4.00041875e-07,1.12500000e-03,1.53738438e-02
-4.00001875e-07,1.08125000e-03,1.52505938e-02
-3.99961875e-07,9.09375000e-04,1.51698438e-02
-3.99921875e-07,7.04687500e-04,1.51528438e-02
-3.99881875e-07,5.59375000e-04,1.51799375e-02
-3.99841875e-07,5.18750000e-04,1.52155313e-02
-3.99801875e-07,5.76562500e-04,1.52341250e-02
-3.99761875e-07,6.81250000e-04,1.52341250e-02
-3.99721875e-07,7.62500000e-04,1.52288125e-02
-3.99681875e-07,7.70312500e-04,1.52304063e-02
-3.99641875e-07,6.98437500e-04,1.52415625e-02
-3.99601875e-07,5.90625000e-04,1.52606875e-02
-3.99561875e-07,5.23437500e-04,1.52845938e-02
-3.99521875e-07,5.45312500e-04,1.53111563e-02
-3.99481875e-07,6.56250000e-04,1.53377188e-02
-3.99441875e-07,7.93750000e-04,1.53605625e-02
-3.99401875e-07,8.75000000e-04,1.53765000e-02
-3.99361875e-07,8.53125000e-04,1.53865938e-02
-3.99321875e-07,7.31250000e-04,1.53950937e-02
-3.99281875e-07,5.68750000e-04,1.54035938e-02
-3.99241875e-07,4.39062500e-04,1.54062500e-02
-3.99201875e-07,3.95312500e-04,1.53966875e-02
-3.99161875e-07,4.50000000e-04,1.53749063e-02
-3.99121875e-07,5.68750000e-04,1.53520625e-02
-3.99081875e-07,6.89062500e-04,1.53403750e-02
-3.99041875e-07,7.39062500e-04,1.53387813e-02
-3.99001875e-07,6.75000000e-04,1.53313438e-02
-3.98961875e-07,5.12500000e-04,1.52989375e-02
