waveforms/Tek116_ALL/Tek086_ALL.csv

Model,MSO64
Channel,CH1,,Channel,CH2
Waveform Type,ANALOG,,Waveform Type,ANALOG
Horizontal Units,s,,Horizontal Units,s
Sample Interval,4.00000000e-11,,Sample Interval,4.00000000e-11
Record Length,90000,,Record Length,90000
Zero Index,4409.77343750,,Zero Index,4409.77343750
Vertical Units,V,,Vertical Units,V
,,,,
ANALOG_Thumbnail,,,ANALOG_Thumbnail,

TIME,CH1,CH2
-1.76390938e-07,7.87500000e-05,1.56793750e-02
-1.76350938e-07,1.79375000e-04,1.55568750e-02
-1.76310938e-07,1.26875000e-04,1.55137500e-02
-1.76270938e-07,-2.18750000e-05,1.55806250e-02
-1.76230938e-07,-1.22500000e-04,1.57131250e-02
-1.76190938e-07,-6.12500000e-05,1.58256250e-02
-1.76150938e-07,1.44375000e-04,1.58618750e-02
-1.76110938e-07,3.63125000e-04,1.58306250e-02
-1.76070938e-07,4.61562500e-04,1.57893750e-02
-1.76030938e-07,3.95937500e-04,1.57856250e-02
-1.75990938e-07,2.49375000e-04,1.58131250e-02
-1.75950938e-07,1.46562500e-04,1.58243750e-02
-1.75910938e-07,1.75000000e-04,1.57800000e-02
-1.75870938e-07,3.30312500e-04,1.56968750e-02
-1.75830938e-07,5.40312500e-04,1.56343750e-02
-1.75790938e-07,7.30625000e-04,1.56450000e-02
-1.75750938e-07,8.53125000e-04,1.57243750e-02
-1.75710938e-07,8.79375000e-04,1.58112500e-02
-1.75670938e-07,7.87500000e-04,1.58425000e-02
-1.75630938e-07,5.75312500e-04,1.58025000e-02
-1.75590938e-07,2.95312500e-04,1.57356250e-02
-1.75550938e-07,8.09375000e-05,1.57031250e-02
-1.75510938e-07,9.18750000e-05,1.57256250e-02
-1.75470938e-07,3.87187500e-04,1.57687500e-02
-1.75430938e-07,8.50937500e-04,1.57806250e-02
-1.75390938e-07,1.20968750e-03,1.57443750e-02
-1.75350938e-07,1.21187500e-03,1.56993750e-02
-1.75310938e-07,8.11562500e-04,1.57062500e-02
-1.75270938e-07,2.47187500e-04,1.57893750e-02
-1.75230938e-07,-9.40625000e-05,1.59100000e-02
-1.75190938e-07,4.81250000e-05,1.59893750e-02
-1.75150938e-07,6.08125000e-04,1.59718750e-02
-1.75110938e-07,1.20531250e-03,1.58643750e-02
-1.75070938e-07,1.40218750e-03,1.57306250e-02
-1.75030938e-07,1.01281250e-03,1.56425000e-02
-1.74990938e-07,2.51562500e-04,1.56287500e-02
-1.74950938e-07,-4.17812500e-04,1.56650000e-02
-1.74910938e-07,-5.95000000e-04,1.57037500e-02
-1.74870938e-07,-2.14375000e-04,1.57118750e-02
-1.74830938e-07,4.20000000e-04,1.56900000e-02
-1.74790938e-07,8.61875000e-04,1.56606250e-02
-1.74750938e-07,8.44375000e-04,1.56456250e-02
-1.74710938e-07,4.41875000e-04,1.56512500e-02
-1.74670938e-07,-1.31250000e-05,1.56725000e-02
-1.74630938e-07,-1.83750000e-04,1.57037500e-02
-1.74590938e-07,3.93750000e-05,1.57400000e-02
-1.74550938e-07,4.83437500e-04,1.57706250e-02
-1.74510938e-07,8.53125000e-04,1.57825000e-02
-1.74470938e-07,9.40625000e-04,1.57631250e-02
-1.74430938e-07,7.48125000e-04,1.57162500e-02
-1.74390938e-07,4.46250000e-04,1.56693750e-02
-1.74350938e-07,2.27500000e-04,1.56568750e-02
-1.74310938e-07,1.81562500e-04,1.56956250e-02
-1.74270938e-07,2.55937500e-04,1.57718750e-02
-1.74230938e-07,3.39062500e-04,1.58443750e-02
-1.74190938e-07,3.47812500e-04,1.58787500e-02
-1.74150938e-07,2.86562500e-04,1.58662500e-02
-1.74110938e-07,2.27500000e-04,1.58331250e-02
-1.74070938e-07,2.51562500e-04,1.58143750e-02
-1.74030938e-07,3.91562500e-04,1.58275000e-02
-1.73990938e-07,6.19062500e-04,1.58593750e-02
-1.73950938e-07,8.59687500e-04,1.58787500e-02
-1.73910938e-07,1.01718750e-03,1.58606250e-02
-1.73870938e-07,1.02156250e-03,1.58056250e-02
-1.73830938e-07,8.61875000e-04,1.57356250e-02
-1.73790938e-07,6.03750000e-04,1.56793750e-02
-1.73750938e-07,3.60937500e-04,1.56537500e-02
-1.73710938e-07,2.45000000e-04,1.56625000e-02
-1.73670938e-07,3.01875000e-04,1.57006250e-02
-1.73630938e-07,4.81250000e-04,1.57600000e-02
-1.73590938e-07,6.73750000e-04,1.58268750e-02
-1.73550938e-07,7.70000000e-04,1.58781250e-02
-1.73510938e-07,7.24062500e-04,1.58856250e-02
-1.73470938e-07,5.66562500e-04,1.58306250e-02
-1.73430938e-07,3.63125000e-04,1.57231250e-02
-1.73390938e-07,1.88125000e-04,1.56075000e-02
-1.73350938e-07,1.00625000e-04,1.55412500e-02
-1.73310938e-07,1.37812500e-04,1.55587500e-02
-1.73270938e-07,3.04062500e-04,1.56487500e-02
-1.73230938e-07,5.55625000e-04,1.57525000e-02
-1.73190938e-07,7.83125000e-04,1.58025000e-02
-1.73150938e-07,8.50937500e-04,1.57600000e-02
-1.73110938e-07,6.75937500e-04,1.56412500e-02
-1.73070938e-07,3.01875000e-04,1.55068750e-02
-1.73030938e-07,-8.31250000e-05,1.54275000e-02
-1.72990938e-07,-2.55937500e-04,1.54437500e-02
-1.72950938e-07,-8.96875000e-05,1.55468750e-02
-1.72910938e-07,3.43437500e-04,1.56856250e-02
-1.72870938e-07,8.11562500e-04,1.58000000e-02
-1.72830938e-07,1.05875000e-03,1.58512500e-02
-1.72790938e-07,9.73437500e-04,1.58450000e-02
-1.72750938e-07,6.54062500e-04,1.58206250e-02
-1.72710938e-07,3.28125000e-04,1.58200000e-02
-1.72670938e-07,1.88125000e-04,1.58562500e-02
-1.72630938e-07,2.75625000e-04,1.58993750e-02
-1.72590938e-07,4.63750000e-04,1.58962500e-02
-1.72550938e-07,5.75312500e-04,1.58150000e-02
-1.72510938e-07,5.14062500e-04,1.56768750e-02
-1.72470938e-07,3.30312500e-04,1.55537500e-02
-1.72430938e-07,1.66250000e-04,1.55225000e-02
-1.72390938e-07,1.33437500e-04,1.56100000e-02
-1.72350938e-07,2.36250000e-04,1.57625000e-02
-1.72310938e-07,3.65312500e-04,1.58793750e-02
-1.72270938e-07,4.02500000e-04,1.58756250e-02
-1.72230938e-07,3.10625000e-04,1.57437500e-02
-1.72190938e-07,1.72812500e-04,1.55618750e-02
-1.72150938e-07,1.24687500e-04,1.54375000e-02
-1.72110938e-07,2.45000000e-04,1.54331250e-02
-1.72070938e-07,5.03125000e-04,1.55256250e-02
-1.72030938e-07,7.67812500e-04,1.56281250e-02
-1.71990938e-07,9.03437500e-04,1.56575000e-02
-1.71950938e-07,8.57500000e-04,1.55968750e-02
-1.71910938e-07,6.80312500e-04,1.55025000e-02
-1.71870938e-07,4.72500000e-04,1.54550000e-02
-1.71830938e-07,3.17187500e-04,1.54950000e-02
-1.71790938e-07,2.38437500e-04,1.55937500e-02
-1.71750938e-07,2.14375000e-04,1.56818750e-02
-1.71710938e-07,2.18750000e-04,1.57037500e-02
-1.71670938e-07,2.47187500e-04,1.56625000e-02
-1.71630938e-07,2.97500000e-04,1.56106250e-02
-1.71590938e-07,3.43437500e-04,1.56087500e-02
-1.71550938e-07,3.32500000e-04,1.56743750e-02
-1.71510938e-07,2.23125000e-04,1.57750000e-02
-1.71470938e-07,3.06250000e-05,1.58525000e-02
-1.71430938e-07,-1.64062500e-04,1.58631250e-02
-1.71390938e-07,-2.49375000e-04,1.58056250e-02
-1.71350938e-07,-1.79375000e-04,1.57125000e-02
-1.71310938e-07,1.53125000e-05,1.56262500e-02
-1.71270938e-07,2.27500000e-04,1.55750000e-02
-1.71230938e-07,3.56562500e-04,1.55693750e-02
-1.71190938e-07,3.71875000e-04,1.56025000e-02
-1.71150938e-07,3.10625000e-04,1.56650000e-02
-1.71110938e-07,2.47187500e-04,1.57387500e-02
-1.71070938e-07,2.29687500e-04,1.58037500e-02
-1.71030938e-07,2.62500000e-04,1.58337500e-02
-1.70990938e-07,3.10625000e-04,1.58125000e-02
-1.70950938e-07,3.39062500e-04,1.57418750e-02
-1.70910938e-07,3.30312500e-04,1.56468750e-02
-1.70870938e-07,2.93125000e-04,1.55681250e-02
-1.70830938e-07,2.45000000e-04,1.55412500e-02
-1.70790938e-07,2.14375000e-04,1.55806250e-02
-1.70750938e-07,2.34062500e-04,1.56693750e-02
-1.70710938e-07,3.28125000e-04,1.57687500e-02
-1.70670938e-07,4.94375000e-04,1.58343750e-02
-1.70630938e-07,6.82500000e-04,1.58368750e-02
-1.70590938e-07,8.02812500e-04,1.57806250e-02
-1.70550938e-07,7.78750000e-04,1.56993750e-02
-1.70510938e-07,5.99375000e-04,1.56412500e-02
-1.70470938e-07,3.39062500e-04,1.56418750e-02
-1.70430938e-07,1.29062500e-04,1.57050000e-02
-1.70390938e-07,8.09375000e-05,1.57975000e-02
-1.70350938e-07,2.07812500e-04,1.58687500e-02
-1.70310938e-07,4.26562500e-04,1.58825000e-02
-1.70270938e-07,6.16875000e-04,1.58450000e-02
-1.70230938e-07,6.91250000e-04,1.57993750e-02
-1.70190938e-07,6.60625000e-04,1.58018750e-02
-1.70150938e-07,5.97187500e-04,1.58737500e-02
-1.70110938e-07,5.77500000e-04,1.59837500e-02
-1.70070938e-07,6.19062500e-04,1.60612500e-02
-1.70030938e-07,6.75937500e-04,1.60412500e-02
-1.69990938e-07,6.80312500e-04,1.59181250e-02
-1.69950938e-07,6.16875000e-04,1.57518750e-02
-1.69910938e-07,5.20625000e-04,1.56331250e-02
-1.69870938e-07,4.52812500e-04,1.56237500e-02
-1.69830938e-07,4.48437500e-04,1.57131250e-02
-1.69790938e-07,4.92187500e-04,1.58250000e-02
-1.69750938e-07,5.35937500e-04,1.58718750e-02
-1.69710938e-07,5.31562500e-04,1.58150000e-02
-1.69670938e-07,4.68125000e-04,1.56931250e-02
-1.69630938e-07,3.54375000e-04,1.55912500e-02
-1.69590938e-07,2.18750000e-04,1.55800000e-02
-1.69550938e-07,8.53125000e-05,1.56650000e-02
-1.69510938e-07,-1.53125000e-05,1.57831250e-02
-1.69470938e-07,-5.25000000e-05,1.58506250e-02
-1.69430938e-07,-1.09375000e-05,1.58200000e-02
-1.69390938e-07,1.07187500e-04,1.57150000e-02
-1.69350938e-07,2.66875000e-04,1.56081250e-02
-1.69310938e-07,4.13437500e-04,1.55700000e-02
-1.69270938e-07,5.07500000e-04,1.56212500e-02
-1.69230938e-07,5.31562500e-04,1.57275000e-02
-1.69190938e-07,4.92187500e-04,1.58268750e-02
-1.69150938e-07,4.15625000e-04,1.58793750e-02
-1.69110938e-07,3.34687500e-04,1.58825000e-02
-1.69070938e-07,2.90937500e-04,1.58587500e-02
-1.69030938e-07,3.08437500e-04,1.58268750e-02
-1.68990938e-07,3.82812500e-04,1.57793750e-02
-1.68950938e-07,4.61562500e-04,1.56993750e-02
-1.68910938e-07,4.79062500e-04,1.55862500e-02
-1.68870938e-07,4.04687500e-04,1.54731250e-02
-1.68830938e-07,2.93125000e-04,1.54143750e-02
-1.68790938e-07,2.58125000e-04,1.54493750e-02
-1.68750938e-07,3.85000000e-04,1.55731250e-02
-1.68710938e-07,6.49687500e-04,1.57350000e-02
-1.68670938e-07,8.94687500e-04,1.58675000e-02
-1.68630938e-07,9.10000000e-04,1.59225000e-02
-1.68590938e-07,5.99375000e-04,1.58975000e-02
-1.68550938e-07,7.21875000e-05,1.58250000e-02
-1.68510938e-07,-3.89375000e-04,1.57531250e-02
-1.68470938e-07,-5.05312500e-04,1.57156250e-02
-1.68430938e-07,-1.90312500e-04,1.57193750e-02
-1.68390938e-07,3.71875000e-04,1.57431250e-02
-1.68350938e-07,8.37812500e-04,1.57543750e-02
-1.68310938e-07,9.45000000e-04,1.57275000e-02
-1.68270938e-07,6.71562500e-04,1.56587500e-02
-1.68230938e-07,2.58125000e-04,1.55718750e-02
-1.68190938e-07,3.06250000e-05,1.55100000e-02
-1.68150938e-07,1.57500000e-04,1.55087500e-02
-1.68110938e-07,5.42500000e-04,1.55731250e-02
-1.68070938e-07,9.01250000e-04,1.56725000e-02
-1.68030938e-07,9.66875000e-04,1.57543750e-02
-1.67990938e-07,6.86875000e-04,1.57768750e-02
-1.67950938e-07,2.53750000e-04,1.57375000e-02
-1.67910938e-07,-4.15625000e-05,1.56743750e-02
-1.67870938e-07,-1.53125000e-05,1.56387500e-02
-1.67830938e-07,2.80000000e-04,1.56600000e-02
-1.67790938e-07,6.01562500e-04,1.57275000e-02
-1.67750938e-07,7.04375000e-04,1.58031250e-02
-1.67710938e-07,5.14062500e-04,1.58462500e-02
-1.67670938e-07,1.68437500e-04,1.58437500e-02
-1.67630938e-07,-9.18750000e-05,1.58075000e-02
-1.67590938e-07,-1.11562500e-04,1.57600000e-02
-1.67550938e-07,9.18750000e-05,1.57150000e-02
-1.67510938e-07,3.50000000e-04,1.56725000e-02
-1.67470938e-07,5.07500000e-04,1.56337500e-02
-1.67430938e-07,5.29375000e-04,1.56075000e-02
-1.67390938e-07,4.98750000e-04,1.56106250e-02
-1.67350938e-07,5.16250000e-04,1.56493750e-02
-1.67310938e-07,5.77500000e-04,1.57093750e-02
-1.67270938e-07,5.99375000e-04,1.57587500e-02
-1.67230938e-07,4.94375000e-04,1.57668750e-02
-1.67190938e-07,2.95312500e-04,1.57237500e-02
-1.67150938e-07,1.44375000e-04,1.56456250e-02
-1.67110938e-07,1.75000000e-04,1.55575000e-02
-1.67070938e-07,3.85000000e-04,1.54793750e-02
-1.67030938e-07,6.14687500e-04,1.54193750e-02
-1.66990938e-07,6.86875000e-04,1.53800000e-02
-1.66950938e-07,5.55625000e-04,1.53706250e-02
-1.66910938e-07,3.60937500e-04,1.54037500e-02
-1.66870938e-07,3.30312500e-04,1.54793750e-02
-1.66830938e-07,5.66562500e-04,1.55762500e-02
-1.66790938e-07,9.58125000e-04,1.56537500e-02
-1.66750938e-07,1.24250000e-03,1.56781250e-02
-1.66710938e-07,1.21406250e-03,1.56456250e-02
-1.66670938e-07,8.83750000e-04,1.55900000e-02
-1.66630938e-07,4.76875000e-04,1.55631250e-02
-1.66590938e-07,2.60312500e-04,1.55937500e-02
-1.66550938e-07,3.39062500e-04,1.56718750e-02
-1.66510938e-07,5.90625000e-04,1.57481250e-02
-1.66470938e-07,7.74375000e-04,1.57750000e-02
-1.66430938e-07,7.24062500e-04,1.57387500e-02
-1.66390938e-07,4.76875000e-04,1.56718750e-02
-1.66350938e-07,2.16562500e-04,1.56300000e-02
-1.66310938e-07,1.18125000e-04,1.56450000e-02
-1.66270938e-07,2.10000000e-04,1.57012500e-02
-1.66230938e-07,3.54375000e-04,1.57468750e-02
-1.66190938e-07,3.98125000e-04,1.57331250e-02
-1.66150938e-07,2.90937500e-04,1.56593750e-02
-1.66110938e-07,1.46562500e-04,1.55787500e-02
-1.66070938e-07,1.29062500e-04,1.55618750e-02
-1.66030938e-07,3.04062500e-04,1.56400000e-02
-1.65990938e-07,5.68750000e-04,1.57812500e-02
-1.65950938e-07,7.32812500e-04,1.59075000e-02
-1.65910938e-07,6.78125000e-04,1.59525000e-02
-1.65870938e-07,4.59375000e-04,1.59100000e-02
-1.65830938e-07,2.84375000e-04,1.58350000e-02
-1.65790938e-07,3.30312500e-04,1.57956250e-02
-1.65750938e-07,6.05937500e-04,1.58200000e-02
-1.65710938e-07,9.18750000e-04,1.58743750e-02
-1.65670938e-07,1.02812500e-03,1.58937500e-02
-1.65630938e-07,8.33437500e-04,1.58400000e-02
-1.65590938e-07,4.48437500e-04,1.57343750e-02
-1.65550938e-07,1.31250000e-04,1.56456250e-02
-1.65510938e-07,6.78125000e-05,1.56343750e-02
-1.65470938e-07,2.38437500e-04,1.57037500e-02
-1.65430938e-07,4.41875000e-04,1.57962500e-02
-1.65390938e-07,4.68125000e-04,1.58343750e-02
-1.65350938e-07,2.84375000e-04,1.57856250e-02
-1.65310938e-07,5.68750000e-05,1.56850000e-02
-1.65270938e-07,2.40625000e-05,1.56112500e-02
-1.65230938e-07,2.69062500e-04,1.56218750e-02
-1.65190938e-07,6.54062500e-04,1.57118750e-02
-1.65150938e-07,9.05625000e-04,1.58187500e-02
-1.65110938e-07,8.46562500e-04,1.58743750e-02
-1.65070938e-07,5.51250000e-04,1.58581250e-02
-1.65030938e-07,2.77812500e-04,1.58118750e-02
-1.64990938e-07,2.77812500e-04,1.57981250e-02
-1.64950938e-07,5.70937500e-04,1.58406250e-02
-1.64910938e-07,9.36250000e-04,1.59012500e-02
-1.64870938e-07,1.08281250e-03,1.59075000e-02
-1.64830938e-07,8.81562500e-04,1.58181250e-02
-1.64790938e-07,4.63750000e-04,1.56662500e-02
-1.64750938e-07,1.02812500e-04,1.55431250e-02
-1.64710938e-07,1.53125000e-05,1.55287500e-02
-1.64670938e-07,2.01250000e-04,1.56306250e-02
-1.64630938e-07,4.83437500e-04,1.57712500e-02
-1.64590938e-07,6.69375000e-04,1.58456250e-02
-1.64550938e-07,6.91250000e-04,1.58031250e-02
-1.64510938e-07,6.14687500e-04,1.56818750e-02
-1.64470938e-07,5.40312500e-04,1.55768750e-02
-1.64430938e-07,5.05312500e-04,1.55612500e-02
-1.64390938e-07,4.68125000e-04,1.56312500e-02
-1.64350938e-07,3.89375000e-04,1.57137500e-02
-1.64310938e-07,2.82187500e-04,1.57325000e-02
-1.64270938e-07,2.14375000e-04,1.56725000e-02
-1.64230938e-07,2.27500000e-04,1.55931250e-02
-1.64190938e-07,2.86562500e-04,1.55718750e-02
-1.64150938e-07,3.12812500e-04,1.56375000e-02
-1.64110938e-07,2.69062500e-04,1.57450000e-02
-1.64070938e-07,1.96875000e-04,1.58143750e-02
-1.64030938e-07,1.90312500e-04,1.57993750e-02
-1.63990938e-07,2.93125000e-04,1.57268750e-02
-1.63950938e-07,4.39687500e-04,1.56750000e-02
-1.63910938e-07,5.00937500e-04,1.57050000e-02
-1.63870938e-07,4.04687500e-04,1.58112500e-02
-1.63830938e-07,2.07812500e-04,1.59287500e-02
-1.63790938e-07,7.21875000e-05,1.59868750e-02
-1.63750938e-07,1.26875000e-04,1.59618750e-02
-1.63710938e-07,3.69687500e-04,1.58887500e-02
-1.63670938e-07,6.62812500e-04,1.58193750e-02
-1.63630938e-07,8.42187500e-04,1.57793750e-02
-1.63590938e-07,8.35625000e-04,1.57525000e-02
-1.63550938e-07,6.95625000e-04,1.57118750e-02
-1.63510938e-07,5.25000000e-04,1.56587500e-02
-1.63470938e-07,3.87187500e-04,1.56331250e-02
-1.63430938e-07,2.82187500e-04,1.56731250e-02
-1.63390938e-07,1.99062500e-04,1.57743750e-02
-1.63350938e-07,1.75000000e-04,1.58781250e-02
-1.63310938e-07,2.75625000e-04,1.59050000e-02
-1.63270938e-07,5.07500000e-04,1.58225000e-02
-1.63230938e-07,7.65625000e-04,1.56718750e-02
-1.63190938e-07,8.64062500e-04,1.55468750e-02
-1.63150938e-07,6.86875000e-04,1.55281250e-02
-1.63110938e-07,3.12812500e-04,1.56231250e-02
-1.63070938e-07,-1.31250000e-05,1.57662500e-02
-1.63030938e-07,-3.93750000e-05,1.58656250e-02
-1.62990938e-07,2.86562500e-04,1.58650000e-02
-1.62950938e-07,7.52500000e-04,1.57775000e-02
-1.62910938e-07,1.01937500e-03,1.56693750e-02
-1.62870938e-07,8.66250000e-04,1.56112500e-02
-1.62830938e-07,3.50000000e-04,1.56356250e-02
-1.62790938e-07,-2.31875000e-04,1.57206250e-02
-1.62750938e-07,-5.51250000e-04,1.58143750e-02
-1.62710938e-07,-4.72500000e-04,1.58618750e-02
-1.62670938e-07,-1.26875000e-04,1.58381250e-02
-1.62630938e-07,2.23125000e-04,1.57575000e-02
-1.62590938e-07,3.76250000e-04,1.56643750e-02
-1.62550938e-07,3.23750000e-04,1.56112500e-02
-1.62510938e-07,2.03437500e-04,1.56293750e-02
-1.62470938e-07,1.66250000e-04,1.57050000e-02
-1.62430938e-07,2.45000000e-04,1.57837500e-02
-1.62390938e-07,3.54375000e-04,1.58000000e-02
-1.62350938e-07,3.87187500e-04,1.57212500e-02
-1.62310938e-07,3.19375000e-04,1.55756250e-02
-1.62270938e-07,2.23125000e-04,1.54412500e-02
-1.62230938e-07,1.99062500e-04,1.53968750e-02
-1.62190938e-07,2.71250000e-04,1.54706250e-02
-1.62150938e-07,3.60937500e-04,1.56193750e-02
-1.62110938e-07,3.67500000e-04,1.57612500e-02
-1.62070938e-07,2.71250000e-04,1.58262500e-02
-1.62030938e-07,1.66250000e-04,1.58025000e-02
-1.61990938e-07,1.96875000e-04,1.57343750e-02
-1.61950938e-07,4.20000000e-04,1.56806250e-02
-1.61910938e-07,7.50312500e-04,1.56762500e-02
-1.61870938e-07,9.86562500e-04,1.57106250e-02
-1.61830938e-07,9.73437500e-04,1.57462500e-02
-1.61790938e-07,7.13125000e-04,1.57487500e-02
-1.61750938e-07,3.71875000e-04,1.57100000e-02
-1.61710938e-07,1.64062500e-04,1.56481250e-02
-1.61670938e-07,1.92500000e-04,1.55912500e-02
-1.61630938e-07,3.80625000e-04,1.55656250e-02
-1.61590938e-07,5.35937500e-04,1.55850000e-02
-1.61550938e-07,5.25000000e-04,1.56481250e-02
-1.61510938e-07,3.67500000e-04,1.57400000e-02
-1.61470938e-07,2.18750000e-04,1.58300000e-02
-1.61430938e-07,2.36250000e-04,1.58856250e-02
-1.61390938e-07,4.46250000e-04,1.58881250e-02
-1.61350938e-07,7.15312500e-04,1.58500000e-02
-1.61310938e-07,8.57500000e-04,1.58106250e-02
-1.61270938e-07,7.74375000e-04,1.58068750e-02
-1.61230938e-07,5.20625000e-04,1.58462500e-02
-1.61190938e-07,2.62500000e-04,1.58943750e-02
-1.61150938e-07,1.46562500e-04,1.58975000e-02
-1.61110938e-07,1.96875000e-04,1.58306250e-02
-1.61070938e-07,3.15000000e-04,1.57193750e-02
-1.61030938e-07,3.67500000e-04,1.56306250e-02
-1.60990938e-07,2.80000000e-04,1.56250000e-02
-1.60950938e-07,9.18750000e-05,1.57081250e-02
-1.60910938e-07,-8.96875000e-05,1.58256250e-02
-1.60870938e-07,-1.66250000e-04,1.59056250e-02
-1.60830938e-07,-8.75000000e-05,1.59087500e-02
-1.60790938e-07,1.24687500e-04,1.58562500e-02
-1.60750938e-07,3.98125000e-04,1.58012500e-02
-1.60710938e-07,6.47500000e-04,1.57787500e-02
-1.60670938e-07,7.91875000e-04,1.57793750e-02
-1.60630938e-07,7.80937500e-04,1.57650000e-02
-1.60590938e-07,6.12500000e-04,1.57168750e-02
-1.60550938e-07,3.54375000e-04,1.56631250e-02
-1.60510938e-07,1.35625000e-04,1.56587500e-02
-1.60470938e-07,7.87500000e-05,1.57331250e-02
-1.60430938e-07,2.42812500e-04,1.58512500e-02
-1.60390938e-07,5.77500000e-04,1.59300000e-02
-1.60350938e-07,9.29687500e-04,1.59031250e-02
-1.60310938e-07,1.11781250e-03,1.57768750e-02
-1.60270938e-07,1.03468750e-03,1.56312500e-02
-1.60230938e-07,7.02187500e-04,1.55656250e-02
-1.60190938e-07,2.84375000e-04,1.56225000e-02
-1.60150938e-07,-1.53125000e-05,1.57568750e-02
-1.60110938e-07,-5.90625000e-05,1.58768750e-02
-1.60070938e-07,1.53125000e-04,1.59131250e-02
-1.60030938e-07,4.85625000e-04,1.58681250e-02
-1.59990938e-07,7.56875000e-04,1.58050000e-02
-1.59950938e-07,8.53125000e-04,1.57881250e-02
-1.59910938e-07,7.85312500e-04,1.58300000e-02
-1.59870938e-07,6.54062500e-04,1.58800000e-02
-1.59830938e-07,5.64375000e-04,1.58706250e-02
-1.59790938e-07,5.51250000e-04,1.57756250e-02
-1.59750938e-07,5.68750000e-04,1.56375000e-02
-1.59710938e-07,5.53437500e-04,1.55387500e-02
-1.59670938e-07,4.85625000e-04,1.55418750e-02
-1.59630938e-07,4.22187500e-04,1.56450000e-02
-1.59590938e-07,4.37500000e-04,1.57787500e-02
-1.59550938e-07,5.62187500e-04,1.58525000e-02
-1.59510938e-07,7.45937500e-04,1.58150000e-02
-1.59470938e-07,8.81562500e-04,1.56881250e-02
-1.59430938e-07,8.81562500e-04,1.55481250e-02
-1.59390938e-07,7.28437500e-04,1.54781250e-02
