waveforms/Tek116_ALL/Tek057_ALL.csv

Model,MSO64
Channel,CH1,,Channel,CH2
Waveform Type,ANALOG,,Waveform Type,ANALOG
Horizontal Units,s,,Horizontal Units,s
Sample Interval,4.00000000e-11,,Sample Interval,4.00000000e-11
Record Length,80000,,Record Length,80000
Zero Index,10399.05468750,,Zero Index,10399.05468750
Vertical Units,V,,Vertical Units,V
,,,,
ANALOG_Thumbnail,,,ANALOG_Thumbnail,

TIME,CH1,CH2
-4.15962187e-07,5.81250000e-04,1.52043750e-02
-4.15922187e-07,5.78125000e-04,1.53589688e-02
-4.15882187e-07,5.92187500e-04,1.54928438e-02
-4.15842187e-07,6.17187500e-04,1.55369375e-02
-4.15802187e-07,6.37500000e-04,1.54737188e-02
-4.15762187e-07,6.34375000e-04,1.53488750e-02
-4.15722187e-07,6.00000000e-04,1.52458125e-02
-4.15682187e-07,5.56250000e-04,1.52245625e-02
-4.15642187e-07,5.37500000e-04,1.52883125e-02
-4.15602187e-07,5.78125000e-04,1.53807500e-02
-4.15562187e-07,6.71875000e-04,1.54328125e-02
-4.15522187e-07,7.84375000e-04,1.54046563e-02
-4.15482187e-07,8.53125000e-04,1.53100937e-02
-4.15442187e-07,8.40625000e-04,1.51985313e-02
-4.15402187e-07,7.37500000e-04,1.51220313e-02
-4.15362187e-07,5.75000000e-04,1.51060938e-02
-4.15322187e-07,4.01562500e-04,1.51438125e-02
-4.15282187e-07,2.59375000e-04,1.52075625e-02
-4.15242187e-07,1.81250000e-04,1.52665313e-02
-4.15202187e-07,1.75000000e-04,1.53000000e-02
-4.15162187e-07,2.28125000e-04,1.53031875e-02
-4.15122187e-07,3.07812500e-04,1.52883125e-02
-4.15082187e-07,3.76562500e-04,1.52760938e-02
-4.15042187e-07,4.12500000e-04,1.52845938e-02
-4.15002187e-07,4.20312500e-04,1.53127500e-02
-4.14962187e-07,4.26562500e-04,1.53403750e-02
-4.14922187e-07,4.51562500e-04,1.53403750e-02
-4.14882187e-07,4.82812500e-04,1.52994688e-02
-4.14842187e-07,4.87500000e-04,1.52341250e-02
-4.14802187e-07,4.48437500e-04,1.51810000e-02
-4.14762187e-07,3.81250000e-04,1.51719688e-02
-4.14722187e-07,3.37500000e-04,1.52144688e-02
-4.14682187e-07,3.46875000e-04,1.52856563e-02
-4.14642187e-07,3.92187500e-04,1.53531250e-02
-4.14602187e-07,4.14062500e-04,1.53961563e-02
-4.14562187e-07,3.70312500e-04,1.54152813e-02
-4.14522187e-07,2.85937500e-04,1.54179375e-02
-4.14482187e-07,2.46875000e-04,1.54057188e-02
-4.14442187e-07,3.23437500e-04,1.53733125e-02
-4.14402187e-07,5.04687500e-04,1.53228438e-02
-4.14362187e-07,6.92187500e-04,1.52755625e-02
-4.14322187e-07,7.79687500e-04,1.52612188e-02
-4.14282187e-07,7.42187500e-04,1.52925625e-02
-4.14242187e-07,6.56250000e-04,1.53483438e-02
-4.14202187e-07,6.29687500e-04,1.53850000e-02
-4.14162187e-07,6.98437500e-04,1.53717188e-02
-4.14122187e-07,7.81250000e-04,1.53212500e-02
-4.14082187e-07,7.56250000e-04,1.52824688e-02
-4.14042187e-07,5.67187500e-04,1.53026563e-02
-4.14002187e-07,3.00000000e-04,1.53807500e-02
-4.13962187e-07,1.25000000e-04,1.54625625e-02
-4.13922187e-07,1.67187500e-04,1.54779688e-02
-4.13882187e-07,4.01562500e-04,1.53972188e-02
-4.13842187e-07,6.60937500e-04,1.52575000e-02
-4.13802187e-07,7.67187500e-04,1.51385000e-02
-4.13762187e-07,6.60937500e-04,1.51082188e-02
-4.13722187e-07,4.42187500e-04,1.51767500e-02
-4.13682187e-07,2.82812500e-04,1.52936250e-02
-4.13642187e-07,2.93750000e-04,1.53855313e-02
-4.13602187e-07,4.46875000e-04,1.54041250e-02
-4.13562187e-07,6.09375000e-04,1.53504688e-02
-4.13522187e-07,6.57812500e-04,1.52633438e-02
-4.13482187e-07,5.65625000e-04,1.51921562e-02
-4.13442187e-07,4.10937500e-04,1.51682500e-02
-4.13402187e-07,2.93750000e-04,1.51974688e-02
-4.13362187e-07,2.71875000e-04,1.52665313e-02
-4.13322187e-07,3.18750000e-04,1.53525938e-02
-4.13282187e-07,3.76562500e-04,1.54312188e-02
-4.13242187e-07,4.01562500e-04,1.54790313e-02
-4.13202187e-07,3.90625000e-04,1.54779688e-02
-4.13162187e-07,3.60937500e-04,1.54259063e-02
-4.13122187e-07,3.28125000e-04,1.53409063e-02
-4.13082187e-07,3.10937500e-04,1.52559063e-02
-4.13042187e-07,3.37500000e-04,1.52033125e-02
-4.13002187e-07,4.43750000e-04,1.51990625e-02
-4.12962187e-07,6.29687500e-04,1.52335938e-02
-4.12922187e-07,8.31250000e-04,1.52808750e-02
-4.12882187e-07,9.37500000e-04,1.53132813e-02
-4.12842187e-07,8.56250000e-04,1.53185938e-02
-4.12802187e-07,6.09375000e-04,1.53031875e-02
-4.12762187e-07,3.51562500e-04,1.52861875e-02
-4.12722188e-07,2.70312500e-04,1.52830000e-02
-4.12682187e-07,4.59375000e-04,1.53015938e-02
-4.12642187e-07,8.32812500e-04,1.53361250e-02
-4.12602187e-07,1.15937500e-03,1.53738438e-02
-4.12562187e-07,1.22500000e-03,1.54025313e-02
-4.12522187e-07,9.75000000e-04,1.54147500e-02
-4.12482187e-07,5.53125000e-04,1.54126250e-02
-4.12442188e-07,2.01562500e-04,1.54025313e-02
-4.12402187e-07,9.37500000e-05,1.53903125e-02
-4.12362187e-07,2.35937500e-04,1.53775625e-02
-4.12322187e-07,4.84375000e-04,1.53563125e-02
-4.12282187e-07,6.64062500e-04,1.53191250e-02
-4.12242187e-07,6.92187500e-04,1.52681250e-02
-4.12202187e-07,6.09375000e-04,1.52192500e-02
-4.12162188e-07,5.26562500e-04,1.51974688e-02
-4.12122187e-07,5.21875000e-04,1.52203125e-02
-4.12082187e-07,5.95312500e-04,1.52835313e-02
-4.12042187e-07,6.73437500e-04,1.53595000e-02
-4.12002187e-07,6.92187500e-04,1.54120938e-02
-4.11962187e-07,6.34375000e-04,1.54216563e-02
-4.11922187e-07,5.50000000e-04,1.53961563e-02
-4.11882188e-07,5.09375000e-04,1.53632188e-02
-4.11842187e-07,5.54687500e-04,1.53488750e-02
-4.11802187e-07,6.70312500e-04,1.53573750e-02
-4.11762187e-07,7.98437500e-04,1.53685313e-02
-4.11722187e-07,8.78125000e-04,1.53584375e-02
-4.11682187e-07,8.71875000e-04,1.53201875e-02
-4.11642187e-07,7.79687500e-04,1.52734375e-02
-4.11602188e-07,6.39062500e-04,1.52511250e-02
-4.11562187e-07,4.92187500e-04,1.52723750e-02
-4.11522187e-07,3.82812500e-04,1.53255000e-02
-4.11482187e-07,3.29687500e-04,1.53706563e-02
-4.11442187e-07,3.34375000e-04,1.53695938e-02
-4.11402187e-07,3.81250000e-04,1.53106250e-02
-4.11362187e-07,4.43750000e-04,1.52208438e-02
-4.11322188e-07,5.04687500e-04,1.51491250e-02
-4.11282187e-07,5.53125000e-04,1.51315938e-02
-4.11242187e-07,5.92187500e-04,1.51714375e-02
-4.11202187e-07,6.21875000e-04,1.52394375e-02
-4.11162187e-07,6.37500000e-04,1.52973438e-02
-4.11122187e-07,6.29687500e-04,1.53281563e-02
-4.11082187e-07,6.00000000e-04,1.53414375e-02
-4.11042188e-07,5.70312500e-04,1.53579063e-02
-4.11002187e-07,5.73437500e-04,1.53834063e-02
-4.10962187e-07,6.29687500e-04,1.53982813e-02
-4.10922187e-07,7.18750000e-04,1.53749063e-02
-4.10882187e-07,7.85937500e-04,1.53053125e-02
-4.10842187e-07,7.75000000e-04,1.52240313e-02
-4.10802187e-07,6.79687500e-04,1.51900313e-02
-4.10762188e-07,5.57812500e-04,1.52452813e-02
-4.10722187e-07,4.96875000e-04,1.53796875e-02
-4.10682187e-07,5.45312500e-04,1.55252500e-02
-4.10642187e-07,6.60937500e-04,1.55964375e-02
-4.10602187e-07,7.31250000e-04,1.55486250e-02
-4.10562187e-07,6.56250000e-04,1.54078438e-02
-4.10522187e-07,4.35937500e-04,1.52564375e-02
-4.10482188e-07,1.93750000e-04,1.51778125e-02
-4.10442187e-07,1.00000000e-04,1.52038438e-02
-4.10402187e-07,2.53125000e-04,1.52957500e-02
-4.10362187e-07,5.93750000e-04,1.53796875e-02
-4.10322187e-07,9.40625000e-04,1.53956250e-02
-4.10282187e-07,1.10468750e-03,1.53371875e-02
-4.10242187e-07,1.00937500e-03,1.52511250e-02
-4.10202188e-07,7.35937500e-04,1.51974688e-02
-4.10162187e-07,4.40625000e-04,1.52123438e-02
-4.10122187e-07,2.48437500e-04,1.52814063e-02
-4.10082187e-07,1.82812500e-04,1.53547188e-02
-4.10042187e-07,1.76562500e-04,1.53765000e-02
-4.10002187e-07,1.68750000e-04,1.53260313e-02
-4.09962187e-07,1.51562500e-04,1.52282813e-02
-4.09922188e-07,1.76562500e-04,1.51422188e-02
-4.09882187e-07,2.84375000e-04,1.51262812e-02
-4.09842187e-07,4.51562500e-04,1.51980000e-02
-4.09802187e-07,6.01562500e-04,1.53191250e-02
-4.09762187e-07,6.64062500e-04,1.54147500e-02
-4.09722187e-07,6.40625000e-04,1.54216563e-02
-4.09682187e-07,5.93750000e-04,1.53281563e-02
-4.09642188e-07,5.90625000e-04,1.51900313e-02
-4.09602187e-07,6.29687500e-04,1.50975938e-02
-4.09562187e-07,6.42187500e-04,1.51199063e-02
-4.09522187e-07,5.50000000e-04,1.52596250e-02
-4.09482187e-07,3.50000000e-04,1.54514063e-02
-4.09442187e-07,1.32812500e-04,1.56028125e-02
-4.09402187e-07,3.59375000e-05,1.56490313e-02
-4.09362188e-07,1.32812500e-04,1.55884688e-02
-4.09322187e-07,3.85937500e-04,1.54721250e-02
-4.09282187e-07,6.65625000e-04,1.53690625e-02
-4.09242187e-07,8.43750000e-04,1.53255000e-02
-4.09202187e-07,8.79687500e-04,1.53446250e-02
-4.09162187e-07,8.34375000e-04,1.53977500e-02
-4.09122187e-07,8.06250000e-04,1.54439688e-02
-4.09082187e-07,8.43750000e-04,1.54545938e-02
-4.09042187e-07,9.17187500e-04,1.54190000e-02
-4.09002187e-07,9.43750000e-04,1.53483438e-02
-4.08962187e-07,8.65625000e-04,1.52702500e-02
-4.08922187e-07,7.03125000e-04,1.52192500e-02
-4.08882187e-07,5.39062500e-04,1.52240313e-02
-4.08842187e-07,4.65625000e-04,1.52877813e-02
-4.08802187e-07,5.12500000e-04,1.53780938e-02
-4.08762187e-07,6.23437500e-04,1.54391875e-02
-4.08722187e-07,7.04687500e-04,1.54243125e-02
-4.08682187e-07,6.90625000e-04,1.53302813e-02
-4.08642187e-07,5.89062500e-04,1.52070313e-02
-4.08602187e-07,4.82812500e-04,1.51294688e-02
-4.08562187e-07,4.64062500e-04,1.51432813e-02
-4.08522187e-07,5.65625000e-04,1.52288125e-02
-4.08482187e-07,7.35937500e-04,1.53111563e-02
-4.08442187e-07,8.70312500e-04,1.53143438e-02
-4.08402187e-07,8.79687500e-04,1.52197813e-02
-4.08362187e-07,7.56250000e-04,1.50853750e-02
-4.08322187e-07,5.68750000e-04,1.50019688e-02
-4.08282187e-07,4.20312500e-04,1.50269375e-02
-4.08242187e-07,3.68750000e-04,1.51379688e-02
-4.08202187e-07,4.03125000e-04,1.52564375e-02
-4.08162187e-07,4.64062500e-04,1.53069063e-02
-4.08122187e-07,5.03125000e-04,1.52760938e-02
-4.08082187e-07,5.12500000e-04,1.52155313e-02
-4.08042187e-07,5.18750000e-04,1.51932188e-02
-4.08002187e-07,5.46875000e-04,1.52335938e-02
-4.07962187e-07,6.00000000e-04,1.52994688e-02
-4.07922187e-07,6.70312500e-04,1.53281563e-02
-4.07882187e-07,7.53125000e-04,1.52904375e-02
-4.07842187e-07,8.59375000e-04,1.52181875e-02
-4.07802187e-07,9.82812500e-04,1.51831250e-02
-4.07762187e-07,1.07656250e-03,1.52389062e-02
-4.07722187e-07,1.06250000e-03,1.53759687e-02
-4.07682187e-07,8.92187500e-04,1.55289688e-02
-4.07642187e-07,6.06250000e-04,1.56219375e-02
-4.07602187e-07,3.32812500e-04,1.56166250e-02
-4.07562187e-07,2.17187500e-04,1.55353438e-02
-4.07522187e-07,3.18750000e-04,1.54322813e-02
-4.07482187e-07,5.59375000e-04,1.53584375e-02
-4.07442187e-07,7.73437500e-04,1.53286875e-02
-4.07402187e-07,8.28125000e-04,1.53265625e-02
-4.07362187e-07,7.20312500e-04,1.53239063e-02
-4.07322187e-07,5.75000000e-04,1.53058438e-02
-4.07282187e-07,5.35937500e-04,1.52798125e-02
-4.07242187e-07,6.54687500e-04,1.52649375e-02
-4.07202187e-07,8.39062500e-04,1.52750313e-02
-4.07162187e-07,9.34375000e-04,1.53047813e-02
-4.07122187e-07,8.40625000e-04,1.53297500e-02
-4.07082187e-07,5.98437500e-04,1.53217813e-02
-4.07042187e-07,3.57812500e-04,1.52702500e-02
-4.07002187e-07,2.64062500e-04,1.51942813e-02
-4.06962187e-07,3.57812500e-04,1.51379688e-02
-4.06922187e-07,5.48437500e-04,1.51454063e-02
-4.06882187e-07,6.87500000e-04,1.52256250e-02
-4.06842187e-07,6.75000000e-04,1.53414375e-02
-4.06802187e-07,5.18750000e-04,1.54269688e-02
-4.06762187e-07,3.25000000e-04,1.54328125e-02
-4.06722187e-07,2.21875000e-04,1.53632188e-02
-4.06682187e-07,2.87500000e-04,1.52766250e-02
-4.06642187e-07,5.15625000e-04,1.52426250e-02
-4.06602187e-07,8.17187500e-04,1.52877813e-02
-4.06562187e-07,1.06093750e-03,1.53722500e-02
-4.06522187e-07,1.13750000e-03,1.54184688e-02
-4.06482187e-07,1.00156250e-03,1.53722500e-02
-4.06442187e-07,7.14062500e-04,1.52505938e-02
-4.06402187e-07,4.06250000e-04,1.51284063e-02
-4.06362187e-07,2.21875000e-04,1.50869688e-02
-4.06322187e-07,2.32812500e-04,1.51496563e-02
-4.06282187e-07,3.95312500e-04,1.52702500e-02
-4.06242187e-07,5.87500000e-04,1.53706563e-02
-4.06202187e-07,6.89062500e-04,1.54020000e-02
-4.06162187e-07,6.64062500e-04,1.53733125e-02
-4.06122187e-07,5.71875000e-04,1.53302813e-02
-4.06082187e-07,5.12500000e-04,1.53069063e-02
-4.06042187e-07,5.42187500e-04,1.52973438e-02
-4.06002187e-07,6.29687500e-04,1.52707813e-02
-4.05962187e-07,6.93750000e-04,1.52139375e-02
-4.05922187e-07,6.67187500e-04,1.51523125e-02
-4.05882187e-07,5.54687500e-04,1.51337188e-02
-4.05842187e-07,4.10937500e-04,1.51863125e-02
-4.05802187e-07,2.95312500e-04,1.52861875e-02
-4.05762187e-07,2.31250000e-04,1.53754375e-02
-4.05722187e-07,2.09375000e-04,1.54046563e-02
-4.05682187e-07,2.32812500e-04,1.53738438e-02
-4.05642187e-07,3.28125000e-04,1.53228438e-02
-4.05602187e-07,5.14062500e-04,1.52957500e-02
-4.05562187e-07,7.51562500e-04,1.53005313e-02
-4.05522187e-07,9.34375000e-04,1.53100937e-02
-4.05482187e-07,9.50000000e-04,1.52930938e-02
-4.05442187e-07,7.71875000e-04,1.52500625e-02
-4.05402187e-07,5.04687500e-04,1.52128750e-02
-4.05362187e-07,3.28125000e-04,1.52171250e-02
-4.05322187e-07,3.65625000e-04,1.52686563e-02
-4.05282187e-07,5.89062500e-04,1.53377188e-02
-4.05242187e-07,8.34375000e-04,1.53839375e-02
-4.05202187e-07,9.25000000e-04,1.53876563e-02
-4.05162187e-07,7.98437500e-04,1.53589688e-02
-4.05122187e-07,5.43750000e-04,1.53191250e-02
-4.05082187e-07,3.20312500e-04,1.52782188e-02
-4.05042187e-07,2.25000000e-04,1.52357188e-02
-4.05002187e-07,2.39062500e-04,1.51932188e-02
-4.04962187e-07,2.70312500e-04,1.51698438e-02
-4.04922187e-07,2.57812500e-04,1.51895000e-02
-4.04882187e-07,2.25000000e-04,1.52537813e-02
-4.04842187e-07,2.54687500e-04,1.53292187e-02
-4.04802187e-07,3.92187500e-04,1.53616250e-02
-4.04762187e-07,5.78125000e-04,1.53207188e-02
-4.04722187e-07,6.95312500e-04,1.52320000e-02
-4.04682187e-07,6.56250000e-04,1.51650625e-02
-4.04642187e-07,4.87500000e-04,1.51825938e-02
-4.04602187e-07,3.18750000e-04,1.52888438e-02
-4.04562187e-07,2.75000000e-04,1.54227188e-02
-4.04522187e-07,3.87500000e-04,1.54992187e-02
-4.04482187e-07,5.51562500e-04,1.54753125e-02
-4.04442187e-07,6.15625000e-04,1.53765000e-02
-4.04402187e-07,4.92187500e-04,1.52766250e-02
-4.04362187e-07,2.35937500e-04,1.52367813e-02
-4.04322187e-07,6.25000000e-06,1.52665313e-02
-4.04282187e-07,-4.06250000e-05,1.53228438e-02
-4.04242187e-07,1.40625000e-04,1.53536563e-02
-4.04202187e-07,4.60937500e-04,1.53430312e-02
-4.04162187e-07,7.56250000e-04,1.53154063e-02
-4.04122187e-07,9.07812500e-04,1.53047813e-02
-4.04082187e-07,9.07812500e-04,1.53207188e-02
-4.04042187e-07,8.45312500e-04,1.53329375e-02
-4.04002187e-07,8.21875000e-04,1.53042500e-02
-4.03962187e-07,8.60937500e-04,1.52250937e-02
-4.03922187e-07,8.98437500e-04,1.51315938e-02
-4.03882187e-07,8.35937500e-04,1.50768750e-02
-4.03842187e-07,6.37500000e-04,1.50933437e-02
-4.03802187e-07,3.73437500e-04,1.51640000e-02
-4.03762187e-07,1.82812500e-04,1.52405000e-02
-4.03722187e-07,1.73437500e-04,1.52835313e-02
-4.03682187e-07,3.45312500e-04,1.52930938e-02
-4.03642187e-07,5.82812500e-04,1.53005313e-02
-4.03602187e-07,7.35937500e-04,1.53345313e-02
-4.03562187e-07,7.26562500e-04,1.53887188e-02
-4.03522187e-07,6.00000000e-04,1.54211250e-02
-4.03482187e-07,4.79687500e-04,1.53940313e-02
-4.03442187e-07,4.73437500e-04,1.53058438e-02
-4.03402187e-07,5.95312500e-04,1.52011875e-02
-4.03362187e-07,7.53125000e-04,1.51353125e-02
-4.03322187e-07,8.29687500e-04,1.51321250e-02
-4.03282187e-07,7.65625000e-04,1.51677188e-02
-4.03242187e-07,6.04687500e-04,1.51990625e-02
-4.03202187e-07,4.48437500e-04,1.52033125e-02
-4.03162187e-07,3.76562500e-04,1.52022500e-02
-4.03122187e-07,3.89062500e-04,1.52373125e-02
-4.03082187e-07,4.32812500e-04,1.53265625e-02
-4.03042187e-07,4.53125000e-04,1.54407813e-02
-4.03002187e-07,4.60937500e-04,1.55178125e-02
-4.02962187e-07,5.12500000e-04,1.55130312e-02
-4.02922187e-07,6.51562500e-04,1.54375938e-02
-4.02882187e-07,8.43750000e-04,1.53499375e-02
-4.02842187e-07,9.84375000e-04,1.53100937e-02
-4.02802187e-07,9.76562500e-04,1.53355938e-02
-4.02762187e-07,8.17187500e-04,1.53919063e-02
-4.02722187e-07,6.15625000e-04,1.54290938e-02
-4.02682187e-07,5.23437500e-04,1.54269688e-02
-4.02642187e-07,6.17187500e-04,1.54057188e-02
-4.02602187e-07,8.29687500e-04,1.54009375e-02
-4.02562187e-07,9.89062500e-04,1.54200625e-02
-4.02522187e-07,9.50000000e-04,1.54328125e-02
-4.02482187e-07,7.06250000e-04,1.53988125e-02
-4.02442187e-07,3.98437500e-04,1.53127500e-02
-4.02402187e-07,2.21875000e-04,1.52203125e-02
-4.02362187e-07,2.76562500e-04,1.51857813e-02
-4.02322187e-07,4.93750000e-04,1.52399688e-02
-4.02282187e-07,6.92187500e-04,1.53499375e-02
-4.02242187e-07,7.10937500e-04,1.54418437e-02
-4.02202187e-07,5.35937500e-04,1.54556563e-02
-4.02162187e-07,3.00000000e-04,1.53897813e-02
-4.02122187e-07,1.81250000e-04,1.52994688e-02
-4.02082187e-07,2.57812500e-04,1.52495313e-02
-4.02042187e-07,4.53125000e-04,1.52675938e-02
-4.02002187e-07,5.98437500e-04,1.53260313e-02
-4.01962187e-07,5.71875000e-04,1.53727813e-02
-4.01922187e-07,3.89062500e-04,1.53743750e-02
-4.01882187e-07,1.92187500e-04,1.53366563e-02
-4.01842187e-07,1.31250000e-04,1.52920313e-02
-4.01802187e-07,2.54687500e-04,1.52644063e-02
-4.01762187e-07,4.73437500e-04,1.52516563e-02
-4.01722187e-07,6.42187500e-04,1.52325313e-02
-4.01682187e-07,6.64062500e-04,1.51932188e-02
-4.01642187e-07,5.59375000e-04,1.51501875e-02
-4.01602187e-07,4.40625000e-04,1.51406250e-02
-4.01562187e-07,4.09375000e-04,1.51932188e-02
-4.01522187e-07,4.87500000e-04,1.53015938e-02
-4.01482187e-07,6.07812500e-04,1.54195313e-02
-4.01442187e-07,6.76562500e-04,1.54854063e-02
-4.01402187e-07,6.48437500e-04,1.54593750e-02
-4.01362187e-07,5.54687500e-04,1.53488750e-02
-4.01322187e-07,4.67187500e-04,1.52049063e-02
-4.01282187e-07,4.43750000e-04,1.50922813e-02
-4.01242187e-07,4.84375000e-04,1.50572188e-02
-4.01202187e-07,5.53125000e-04,1.51039688e-02
-4.01162187e-07,6.07812500e-04,1.52001250e-02
-4.01122187e-07,6.31250000e-04,1.52989375e-02
-4.01082187e-07,6.31250000e-04,1.53685313e-02
-4.01042187e-07,6.23437500e-04,1.54020000e-02
-4.01002187e-07,6.04687500e-04,1.54136875e-02
-4.00962187e-07,5.62500000e-04,1.54200625e-02
-4.00922187e-07,5.03125000e-04,1.54264375e-02
-4.00882187e-07,4.50000000e-04,1.54221875e-02
-4.00842187e-07,4.45312500e-04,1.53935000e-02
-4.00802187e-07,5.12500000e-04,1.53345313e-02
-4.00762187e-07,6.42187500e-04,1.52537813e-02
-4.00722187e-07,7.85937500e-04,1.51735625e-02
-4.00682187e-07,8.79687500e-04,1.51199063e-02
-4.00642187e-07,8.85937500e-04,1.51124688e-02
-4.00602187e-07,8.01562500e-04,1.51570938e-02
-4.00562187e-07,6.71875000e-04,1.52378438e-02
-4.00522187e-07,5.59375000e-04,1.53180625e-02
-4.00482187e-07,5.12500000e-04,1.53520625e-02
-4.00442187e-07,5.46875000e-04,1.53063750e-02
-4.00402187e-07,6.25000000e-04,1.51873750e-02
-4.00362187e-07,6.82812500e-04,1.50450000e-02
-4.00322187e-07,6.68750000e-04,1.49541563e-02
-4.00282187e-07,5.82812500e-04,1.49706250e-02
-4.00242187e-07,4.92187500e-04,1.50928125e-02
-4.00202187e-07,4.84375000e-04,1.52596250e-02
-4.00162187e-07,6.07812500e-04,1.53839375e-02
-4.00122187e-07,8.17187500e-04,1.54083750e-02
-4.00082187e-07,9.95312500e-04,1.53403750e-02
-4.00042187e-07,1.02031250e-03,1.52436875e-02
-4.00002187e-07,8.57812500e-04,1.51889688e-02
-3.99962187e-07,5.92187500e-04,1.52054375e-02
-3.99922187e-07,3.68750000e-04,1.52638750e-02
-3.99882187e-07,2.92187500e-04,1.53031875e-02
-3.99842187e-07,3.65625000e-04,1.52808750e-02
-3.99802187e-07,4.93750000e-04,1.52022500e-02
-3.99762187e-07,5.65625000e-04,1.51177813e-02
-3.99722187e-07,5.46875000e-04,1.50848438e-02
-3.99682187e-07,4.87500000e-04,1.51252188e-02
-3.99642187e-07,4.68750000e-04,1.52139375e-02
-3.99602187e-07,5.29687500e-04,1.52946875e-02
-3.99562187e-07,6.29687500e-04,1.53201875e-02
-3.99522187e-07,6.89062500e-04,1.52798125e-02
-3.99482187e-07,6.64062500e-04,1.52049063e-02
-3.99442187e-07,5.87500000e-04,1.51438125e-02
-3.99402187e-07,5.31250000e-04,1.51331875e-02
-3.99362187e-07,5.34375000e-04,1.51783437e-02
-3.99322187e-07,5.64062500e-04,1.52559063e-02
-3.99282187e-07,5.37500000e-04,1.53355938e-02
-3.99242187e-07,4.04687500e-04,1.53972188e-02
-3.99202187e-07,2.07812500e-04,1.54354688e-02
-3.99162187e-07,7.03125000e-05,1.54508750e-02
-3.99122187e-07,1.09375000e-04,1.54386563e-02
-3.99082187e-07,3.43750000e-04,1.53881875e-02
-3.99042187e-07,6.65625000e-04,1.52994688e-02
-3.99002187e-07,9.18750000e-04,1.51937500e-02
-3.98962187e-07,1.00000000e-03,1.51161875e-02
