waveforms/Tek116_ALL/Tek065_ALL.csv

Model,MSO64
Channel,CH1,,Channel,CH2
Waveform Type,ANALOG,,Waveform Type,ANALOG
Horizontal Units,s,,Horizontal Units,s
Sample Interval,4.00000000e-11,,Sample Interval,4.00000000e-11
Record Length,80000,,Record Length,80000
Zero Index,10399.40625000,,Zero Index,10399.40625000
Vertical Units,V,,Vertical Units,V
,,,,
ANALOG_Thumbnail,,,ANALOG_Thumbnail,

TIME,CH1,CH2
-4.15976250e-07,4.23437500e-04,1.55257813e-02
-4.15936250e-07,5.76562500e-04,1.54577813e-02
-4.15896250e-07,5.90625000e-04,1.54136875e-02
-4.15856250e-07,4.75000000e-04,1.54126250e-02
-4.15816250e-07,3.09375000e-04,1.54264375e-02
-4.15776250e-07,1.79687500e-04,1.54152813e-02
-4.15736250e-07,1.45312500e-04,1.53690625e-02
-4.15696250e-07,2.04687500e-04,1.53175313e-02
-4.15656250e-07,3.17187500e-04,1.53021250e-02
-4.15616250e-07,4.26562500e-04,1.53355938e-02
-4.15576250e-07,4.81250000e-04,1.53850000e-02
-4.15536250e-07,4.46875000e-04,1.53982813e-02
-4.15496250e-07,3.18750000e-04,1.53541875e-02
-4.15456250e-07,1.25000000e-04,1.52851250e-02
-4.15416250e-07,-7.03125000e-05,1.52559063e-02
-4.15376250e-07,-1.89062500e-04,1.53106250e-02
-4.15336250e-07,-1.81250000e-04,1.54333438e-02
-4.15296250e-07,-6.09375000e-05,1.55523438e-02
-4.15256250e-07,9.21875000e-05,1.55932500e-02
-4.15216250e-07,1.81250000e-04,1.55369375e-02
-4.15176250e-07,1.60937500e-04,1.54344063e-02
-4.15136250e-07,7.50000000e-05,1.53690625e-02
-4.15096250e-07,2.65625000e-05,1.53887188e-02
-4.15056250e-07,9.68750000e-05,1.54705313e-02
-4.15016250e-07,2.76562500e-04,1.55406563e-02
-4.14976250e-07,4.68750000e-04,1.55337500e-02
-4.14936250e-07,5.53125000e-04,1.54503438e-02
-4.14896250e-07,4.75000000e-04,1.53552500e-02
-4.14856250e-07,2.87500000e-04,1.53249688e-02
-4.14816250e-07,1.14062500e-04,1.53828750e-02
-4.14776250e-07,5.78125000e-05,1.54779688e-02
-4.14736250e-07,1.37500000e-04,1.55241875e-02
-4.14696250e-07,2.89062500e-04,1.54715938e-02
-4.14656250e-07,4.21875000e-04,1.53483438e-02
-4.14616250e-07,4.96875000e-04,1.52458125e-02
-4.14576250e-07,5.34375000e-04,1.52495313e-02
-4.14536250e-07,5.85937500e-04,1.53727813e-02
-4.14496250e-07,6.62500000e-04,1.55427813e-02
-4.14456250e-07,7.12500000e-04,1.56495625e-02
-4.14416250e-07,6.68750000e-04,1.56203438e-02
-4.14376250e-07,5.03125000e-04,1.54689375e-02
-4.14336250e-07,2.82812500e-04,1.52824688e-02
-4.14296250e-07,1.21875000e-04,1.51634688e-02
-4.14256250e-07,1.09375000e-04,1.51640000e-02
-4.14216250e-07,2.35937500e-04,1.52622813e-02
-4.14176250e-07,4.00000000e-04,1.53855313e-02
-4.14136250e-07,4.81250000e-04,1.54630938e-02
-4.14096250e-07,4.31250000e-04,1.54700000e-02
-4.14056250e-07,3.12500000e-04,1.54322813e-02
-4.14016250e-07,2.39062500e-04,1.54004063e-02
-4.13976250e-07,2.87500000e-04,1.54115625e-02
-4.13936250e-07,4.35937500e-04,1.54684063e-02
-4.13896250e-07,5.93750000e-04,1.55417188e-02
-4.13856250e-07,6.73437500e-04,1.55943125e-02
-4.13816250e-07,6.68750000e-04,1.56049375e-02
-4.13776250e-07,6.46875000e-04,1.55767813e-02
-4.13736250e-07,6.89062500e-04,1.55305625e-02
-4.13696250e-07,8.01562500e-04,1.54896563e-02
-4.13656250e-07,9.12500000e-04,1.54678750e-02
-4.13616250e-07,9.17187500e-04,1.54652188e-02
-4.13576250e-07,7.75000000e-04,1.54715938e-02
-4.13536250e-07,5.53125000e-04,1.54758438e-02
-4.13496250e-07,3.82812500e-04,1.54694688e-02
-4.13456250e-07,3.67187500e-04,1.54508750e-02
-4.13416250e-07,5.01562500e-04,1.54275000e-02
-4.13376250e-07,6.78125000e-04,1.54158125e-02
-4.13336250e-07,7.60937500e-04,1.54338750e-02
-4.13296250e-07,6.84375000e-04,1.54891250e-02
-4.13256250e-07,4.95312500e-04,1.55709375e-02
-4.13216250e-07,3.17187500e-04,1.56474375e-02
-4.13176250e-07,2.59375000e-04,1.56803750e-02
-4.13136250e-07,3.46875000e-04,1.56458437e-02
-4.13096250e-07,5.14062500e-04,1.55512813e-02
-4.13056250e-07,6.48437500e-04,1.54338750e-02
-4.13016250e-07,6.62500000e-04,1.53403750e-02
-4.12976250e-07,5.31250000e-04,1.53021250e-02
-4.12936250e-07,3.04687500e-04,1.53185938e-02
-4.12896250e-07,8.12500000e-05,1.53648125e-02
-4.12856250e-07,-3.75000000e-05,1.54120938e-02
-4.12816250e-07,2.03125000e-05,1.54413125e-02
-4.12776250e-07,2.40625000e-04,1.54519375e-02
-4.12736250e-07,5.25000000e-04,1.54476875e-02
-4.12696250e-07,7.32812500e-04,1.54344063e-02
-4.12656250e-07,7.59375000e-04,1.54147500e-02
-4.12616250e-07,6.14062500e-04,1.53945625e-02
-4.12576250e-07,4.20312500e-04,1.53855313e-02
-4.12536250e-07,3.32812500e-04,1.53956250e-02
-4.12496250e-07,4.23437500e-04,1.54211250e-02
-4.12456250e-07,6.18750000e-04,1.54455625e-02
-4.12416250e-07,7.59375000e-04,1.54514063e-02
-4.12376250e-07,7.26562500e-04,1.54365313e-02
-4.12336250e-07,5.34375000e-04,1.54200625e-02
-4.12296250e-07,3.15625000e-04,1.54275000e-02
-4.12256250e-07,2.14062500e-04,1.54700000e-02
-4.12216250e-07,2.68750000e-04,1.55316250e-02
-4.12176250e-07,3.90625000e-04,1.55805000e-02
-4.12136250e-07,4.51562500e-04,1.55937813e-02
-4.12096250e-07,4.00000000e-04,1.55783750e-02
-4.12056250e-07,2.98437500e-04,1.55608438e-02
-4.12016250e-07,2.59375000e-04,1.55661563e-02
-4.11976250e-07,3.48437500e-04,1.55905938e-02
-4.11936250e-07,5.23437500e-04,1.56070625e-02
-4.11896250e-07,6.73437500e-04,1.55879375e-02
-4.11856250e-07,7.21875000e-04,1.55332188e-02
-4.11816250e-07,6.71875000e-04,1.54705313e-02
-4.11776250e-07,5.89062500e-04,1.54338750e-02
-4.11736250e-07,5.28125000e-04,1.54333438e-02
-4.11696250e-07,4.79687500e-04,1.54482188e-02
-4.11656250e-07,3.92187500e-04,1.54460938e-02
-4.11616250e-07,2.48437500e-04,1.54147500e-02
-4.11576250e-07,1.09375000e-04,1.53727813e-02
-4.11536250e-07,7.96875000e-05,1.53504688e-02
-4.11496250e-07,2.20312500e-04,1.53621562e-02
-4.11456250e-07,4.79687500e-04,1.53892500e-02
-4.11416250e-07,7.06250000e-04,1.54004063e-02
-4.11376250e-07,7.62500000e-04,1.53802188e-02
-4.11336250e-07,6.15625000e-04,1.53494063e-02
-4.11296250e-07,3.75000000e-04,1.53483438e-02
-4.11256250e-07,2.07812500e-04,1.54014688e-02
-4.11216250e-07,2.17187500e-04,1.54912500e-02
-4.11176250e-07,3.68750000e-04,1.55677500e-02
-4.11136250e-07,5.21875000e-04,1.55858125e-02
-4.11096250e-07,5.37500000e-04,1.55380000e-02
-4.11056250e-07,3.79687500e-04,1.54599063e-02
-4.11016250e-07,1.31250000e-04,1.54014688e-02
-4.10976250e-07,-6.56250000e-05,1.53935000e-02
-4.10936250e-07,-1.12500000e-04,1.54296250e-02
-4.10896250e-07,-1.56250000e-06,1.54843438e-02
-4.10856250e-07,1.90625000e-04,1.55326875e-02
-4.10816250e-07,3.62500000e-04,1.55656250e-02
-4.10776250e-07,4.51562500e-04,1.55858125e-02
-4.10736250e-07,4.46875000e-04,1.55911250e-02
-4.10696250e-07,3.76562500e-04,1.55767813e-02
-4.10656250e-07,2.75000000e-04,1.55390625e-02
-4.10616250e-07,1.71875000e-04,1.54912500e-02
-4.10576250e-07,9.06250000e-05,1.54561875e-02
-4.10536250e-07,5.00000000e-05,1.54503438e-02
-4.10496250e-07,6.40625000e-05,1.54678750e-02
-4.10456250e-07,1.34375000e-04,1.54848750e-02
-4.10416250e-07,2.34375000e-04,1.54758438e-02
-4.10376250e-07,3.20312500e-04,1.54418437e-02
-4.10336250e-07,3.53125000e-04,1.54073125e-02
-4.10296250e-07,3.20312500e-04,1.54020000e-02
-4.10256250e-07,2.50000000e-04,1.54296250e-02
-4.10216250e-07,2.01562500e-04,1.54646875e-02
-4.10176250e-07,2.25000000e-04,1.54715938e-02
-4.10136250e-07,3.31250000e-04,1.54381250e-02
-4.10096250e-07,4.79687500e-04,1.53881875e-02
-4.10056250e-07,6.01562500e-04,1.53642813e-02
-4.10016250e-07,6.51562500e-04,1.53881875e-02
-4.09976250e-07,6.35937500e-04,1.54423750e-02
-4.09936250e-07,6.12500000e-04,1.54800937e-02
-4.09896250e-07,6.34375000e-04,1.54668125e-02
-4.09856250e-07,7.04687500e-04,1.54110313e-02
-4.09816250e-07,7.53125000e-04,1.53595000e-02
-4.09776250e-07,6.90625000e-04,1.53584375e-02
-4.09736250e-07,4.84375000e-04,1.54152813e-02
-4.09696250e-07,2.00000000e-04,1.54901875e-02
-4.09656250e-07,-1.56250000e-05,1.55252500e-02
-4.09616250e-07,-3.43750000e-05,1.54901875e-02
-4.09576250e-07,1.65625000e-04,1.54041250e-02
-4.09536250e-07,4.57812500e-04,1.53191250e-02
-4.09496250e-07,6.54687500e-04,1.52856563e-02
-4.09456250e-07,6.23437500e-04,1.53175313e-02
-4.09416250e-07,3.79687500e-04,1.53913750e-02
-4.09376250e-07,8.28125000e-05,1.54657500e-02
-4.09336250e-07,-8.59375000e-05,1.55082500e-02
-4.09296250e-07,-3.90625000e-05,1.55130312e-02
-4.09256250e-07,1.60937500e-04,1.54939063e-02
-4.09216250e-07,3.68750000e-04,1.54737188e-02
-4.09176250e-07,4.64062500e-04,1.54689375e-02
-4.09136250e-07,4.29687500e-04,1.54859375e-02
-4.09096250e-07,3.46875000e-04,1.55188750e-02
-4.09056250e-07,3.04687500e-04,1.55544688e-02
-4.09016250e-07,3.28125000e-04,1.55826250e-02
-4.08976250e-07,3.79687500e-04,1.55996250e-02
-4.08936250e-07,4.01562500e-04,1.56075938e-02
-4.08896250e-07,3.79687500e-04,1.56097188e-02
-4.08856250e-07,3.56250000e-04,1.56022813e-02
-4.08816250e-07,3.78125000e-04,1.55757188e-02
-4.08776250e-07,4.48437500e-04,1.55273750e-02
-4.08736250e-07,5.14062500e-04,1.54705313e-02
-4.08696250e-07,5.15625000e-04,1.54312188e-02
-4.08656250e-07,4.40625000e-04,1.54296250e-02
-4.08616250e-07,3.48437500e-04,1.54630938e-02
-4.08576250e-07,3.18750000e-04,1.54986875e-02
-4.08536250e-07,3.90625000e-04,1.54992187e-02
-4.08496250e-07,5.15625000e-04,1.54498125e-02
-4.08456250e-07,5.85937500e-04,1.53754375e-02
-4.08416250e-07,5.26562500e-04,1.53244375e-02
-4.08376250e-07,3.54687500e-04,1.53292187e-02
-4.08336250e-07,1.89062500e-04,1.53812812e-02
-4.08296250e-07,1.68750000e-04,1.54365313e-02
-4.08256250e-07,3.50000000e-04,1.54530000e-02
-4.08216250e-07,6.54687500e-04,1.54269688e-02
-4.08176250e-07,9.03125000e-04,1.53972188e-02
-4.08136250e-07,9.40625000e-04,1.54105000e-02
-4.08096250e-07,7.29687500e-04,1.54832813e-02
-4.08056250e-07,3.84375000e-04,1.55842187e-02
-4.08016250e-07,1.00000000e-04,1.56570000e-02
-4.07976250e-07,3.12500000e-05,1.56644375e-02
-4.07936250e-07,1.98437500e-04,1.56113125e-02
-4.07896250e-07,4.90625000e-04,1.55369375e-02
-4.07856250e-07,7.29687500e-04,1.54806250e-02
-4.07816250e-07,7.82812500e-04,1.54524688e-02
-4.07776250e-07,6.35937500e-04,1.54365313e-02
-4.07736250e-07,3.90625000e-04,1.54142187e-02
-4.07696250e-07,1.90625000e-04,1.53865938e-02
-4.07656250e-07,1.37500000e-04,1.53770313e-02
-4.07616250e-07,2.32812500e-04,1.54083750e-02
-4.07576250e-07,3.92187500e-04,1.54806250e-02
-4.07536250e-07,5.07812500e-04,1.55645625e-02
-4.07496250e-07,5.18750000e-04,1.56171562e-02
-4.07456250e-07,4.48437500e-04,1.56044063e-02
-4.07416250e-07,3.71875000e-04,1.55231250e-02
-4.07376250e-07,3.64062500e-04,1.54035938e-02
-4.07336250e-07,4.31250000e-04,1.52989375e-02
-4.07296250e-07,5.17187500e-04,1.52596250e-02
-4.07256250e-07,5.35937500e-04,1.53085000e-02
-4.07216250e-07,4.42187500e-04,1.54243125e-02
-4.07176250e-07,2.67187500e-04,1.55459687e-02
-4.07136250e-07,1.00000000e-04,1.56012188e-02
-4.07096250e-07,3.90625000e-05,1.55491563e-02
-4.07056250e-07,1.25000000e-04,1.54089062e-02
-4.07016250e-07,3.25000000e-04,1.52521875e-02
-4.06976250e-07,5.45312500e-04,1.51634688e-02
-4.06936250e-07,6.85937500e-04,1.51900313e-02
-4.06896250e-07,6.92187500e-04,1.53148750e-02
-4.06856250e-07,5.78125000e-04,1.54721250e-02
-4.06816250e-07,4.14062500e-04,1.55884688e-02
-4.06776250e-07,2.85937500e-04,1.56240625e-02
-4.06736250e-07,2.51562500e-04,1.55879375e-02
-4.06696250e-07,3.18750000e-04,1.55199375e-02
-4.06656250e-07,4.37500000e-04,1.54620313e-02
-4.06616250e-07,5.35937500e-04,1.54375938e-02
-4.06576250e-07,5.45312500e-04,1.54482188e-02
-4.06536250e-07,4.43750000e-04,1.54806250e-02
-4.06496250e-07,2.64062500e-04,1.55146250e-02
-4.06456250e-07,8.75000000e-05,1.55305625e-02
-4.06416250e-07,-4.68750000e-06,1.55156875e-02
-4.06376250e-07,2.81250000e-05,1.54705313e-02
-4.06336250e-07,1.53125000e-04,1.54168750e-02
-4.06296250e-07,2.79687500e-04,1.53865938e-02
-4.06256250e-07,3.18750000e-04,1.54020000e-02
-4.06216250e-07,2.56250000e-04,1.54556563e-02
-4.06176250e-07,1.64062500e-04,1.55098438e-02
-4.06136250e-07,1.54687500e-04,1.55188750e-02
-4.06096250e-07,2.92187500e-04,1.54657500e-02
-4.06056250e-07,5.25000000e-04,1.53812812e-02
-4.06016250e-07,7.03125000e-04,1.53233750e-02
-4.05976250e-07,6.73437500e-04,1.53371875e-02
-4.05936250e-07,4.06250000e-04,1.54168750e-02
-4.05896250e-07,2.65625000e-05,1.55087813e-02
-4.05856250e-07,-2.54687500e-04,1.55518125e-02
-4.05816250e-07,-2.79687500e-04,1.55268438e-02
-4.05776250e-07,-5.93750000e-05,1.54758438e-02
-4.05736250e-07,2.39062500e-04,1.54673438e-02
-4.05696250e-07,4.06250000e-04,1.55438438e-02
-4.05656250e-07,3.37500000e-04,1.56835625e-02
-4.05616250e-07,1.00000000e-04,1.58094687e-02
-4.05576250e-07,-1.25000000e-04,1.58434687e-02
-4.05536250e-07,-1.76562500e-04,1.57574063e-02
-4.05496250e-07,-1.87500000e-05,1.55890000e-02
-4.05456250e-07,2.50000000e-04,1.54120938e-02
-4.05416250e-07,4.84375000e-04,1.52861875e-02
-4.05376250e-07,5.84375000e-04,1.52245625e-02
-4.05336250e-07,5.46875000e-04,1.52065000e-02
-4.05296250e-07,4.26562500e-04,1.52070313e-02
-4.05256250e-07,2.79687500e-04,1.52219063e-02
-4.05216250e-07,1.26562500e-04,1.52638750e-02
-4.05176250e-07,-1.87500000e-05,1.53350625e-02
-4.05136250e-07,-1.18750000e-04,1.54110313e-02
-4.05096250e-07,-1.09375000e-04,1.54476875e-02
-4.05056250e-07,5.00000000e-05,1.54147500e-02
-4.05016250e-07,3.10937500e-04,1.53207188e-02
-4.04976250e-07,5.51562500e-04,1.52123438e-02
-4.04936250e-07,6.40625000e-04,1.51427500e-02
-4.04896250e-07,5.39062500e-04,1.51390313e-02
-4.04856250e-07,3.39062500e-04,1.51910938e-02
-4.04816250e-07,1.96875000e-04,1.52691875e-02
-4.04776250e-07,2.29687500e-04,1.53467500e-02
-4.04736250e-07,4.18750000e-04,1.54168750e-02
-4.04696250e-07,6.39062500e-04,1.54779688e-02
-4.04656250e-07,7.51562500e-04,1.55241875e-02
-4.04616250e-07,7.09375000e-04,1.55443750e-02
-4.04576250e-07,5.85937500e-04,1.55342813e-02
-4.04536250e-07,5.04687500e-04,1.55103750e-02
-4.04496250e-07,5.32812500e-04,1.54997500e-02
-4.04456250e-07,6.40625000e-04,1.55183438e-02
-4.04416250e-07,7.23437500e-04,1.55518125e-02
-4.04376250e-07,7.07812500e-04,1.55645625e-02
-4.04336250e-07,5.95312500e-04,1.55295000e-02
-4.04296250e-07,4.68750000e-04,1.54540625e-02
-4.04256250e-07,4.04687500e-04,1.53749063e-02
-4.04216250e-07,4.12500000e-04,1.53244375e-02
-4.04176250e-07,4.39062500e-04,1.53031875e-02
-4.04136250e-07,4.17187500e-04,1.52824688e-02
-4.04096250e-07,3.42187500e-04,1.52383750e-02
-4.04056250e-07,2.67187500e-04,1.51847188e-02
-4.04016250e-07,2.53125000e-04,1.51751563e-02
-4.03976250e-07,2.96875000e-04,1.52553750e-02
-4.03936250e-07,3.26562500e-04,1.54205938e-02
-4.03896250e-07,2.65625000e-04,1.56044063e-02
-4.03856250e-07,1.10937500e-04,1.57223437e-02
-4.03816250e-07,-4.84375000e-05,1.57324375e-02
-4.03776250e-07,-9.21875000e-05,1.56686875e-02
-4.03736250e-07,2.81250000e-05,1.56086563e-02
-4.03696250e-07,2.39062500e-04,1.56139688e-02
-4.03656250e-07,4.00000000e-04,1.56777187e-02
-4.03616250e-07,4.03125000e-04,1.57356250e-02
-4.03576250e-07,2.76562500e-04,1.57159687e-02
-4.03536250e-07,1.57812500e-04,1.56001563e-02
-4.03496250e-07,1.95312500e-04,1.54338750e-02
-4.03456250e-07,4.21875000e-04,1.52984063e-02
-4.03416250e-07,7.31250000e-04,1.52521875e-02
-4.03376250e-07,9.39062500e-04,1.53015938e-02
-4.03336250e-07,9.25000000e-04,1.54062500e-02
-4.03296250e-07,7.14062500e-04,1.55119688e-02
-4.03256250e-07,4.50000000e-04,1.55820938e-02
-4.03216250e-07,3.00000000e-04,1.56049375e-02
-4.03176250e-07,3.26562500e-04,1.55852813e-02
-4.03136250e-07,4.65625000e-04,1.55353438e-02
-4.03096250e-07,5.78125000e-04,1.54742500e-02
-4.03056250e-07,5.60937500e-04,1.54290938e-02
-4.03016250e-07,4.21875000e-04,1.54243125e-02
-4.02976250e-07,2.65625000e-04,1.54668125e-02
-4.02936250e-07,2.07812500e-04,1.55316250e-02
-4.02896250e-07,2.92187500e-04,1.55746563e-02
-4.02856250e-07,4.62500000e-04,1.55624375e-02
-4.02816250e-07,6.07812500e-04,1.54997500e-02
-4.02776250e-07,6.37500000e-04,1.54312188e-02
-4.02736250e-07,5.37500000e-04,1.54078438e-02
-4.02696250e-07,3.64062500e-04,1.54439688e-02
-4.02656250e-07,1.98437500e-04,1.55018750e-02
-4.02616250e-07,1.03125000e-04,1.55188750e-02
-4.02576250e-07,9.53125000e-05,1.54577813e-02
-4.02536250e-07,1.53125000e-04,1.53430312e-02
-4.02496250e-07,2.39062500e-04,1.52490000e-02
-4.02456250e-07,3.09375000e-04,1.52474063e-02
-4.02416250e-07,3.31250000e-04,1.53504688e-02
-4.02376250e-07,2.98437500e-04,1.54960313e-02
-4.02336250e-07,2.35937500e-04,1.55905938e-02
-4.02296250e-07,1.98437500e-04,1.55741250e-02
-4.02256250e-07,2.31250000e-04,1.54609688e-02
-4.02216250e-07,3.43750000e-04,1.53297500e-02
-4.02176250e-07,4.85937500e-04,1.52638750e-02
-4.02136250e-07,5.76562500e-04,1.52946875e-02
-4.02096250e-07,5.50000000e-04,1.53855313e-02
-4.02056250e-07,4.07812500e-04,1.54646875e-02
-4.02016250e-07,2.21875000e-04,1.54822188e-02
-4.01976250e-07,9.53125000e-05,1.54434375e-02
-4.01936250e-07,1.07812500e-04,1.53961563e-02
-4.01896250e-07,2.65625000e-04,1.53892500e-02
-4.01856250e-07,4.95312500e-04,1.54354688e-02
-4.01816250e-07,6.87500000e-04,1.55061250e-02
-4.01776250e-07,7.48437500e-04,1.55565938e-02
-4.01736250e-07,6.50000000e-04,1.55613750e-02
-4.01696250e-07,4.45312500e-04,1.55263125e-02
-4.01656250e-07,2.40625000e-04,1.54742500e-02
-4.01616250e-07,1.37500000e-04,1.54269688e-02
-4.01576250e-07,1.85937500e-04,1.53935000e-02
-4.01536250e-07,3.48437500e-04,1.53775625e-02
-4.01496250e-07,5.21875000e-04,1.53871250e-02
-4.01456250e-07,6.01562500e-04,1.54296250e-02
-4.01416250e-07,5.35937500e-04,1.54986875e-02
-4.01376250e-07,3.59375000e-04,1.55645625e-02
-4.01336250e-07,1.76562500e-04,1.55858125e-02
-4.01296250e-07,9.06250000e-05,1.55390625e-02
-4.01256250e-07,1.48437500e-04,1.54423750e-02
-4.01216250e-07,3.18750000e-04,1.53499375e-02
-4.01176250e-07,5.12500000e-04,1.53175313e-02
-4.01136250e-07,6.40625000e-04,1.53632188e-02
-4.01096250e-07,6.70312500e-04,1.54551250e-02
-4.01056250e-07,6.29687500e-04,1.55374688e-02
-4.01016250e-07,5.81250000e-04,1.55688125e-02
-4.00976250e-07,5.76562500e-04,1.55486250e-02
-4.00936250e-07,6.15625000e-04,1.55109063e-02
-4.00896250e-07,6.56250000e-04,1.54901875e-02
-4.00856250e-07,6.37500000e-04,1.54970938e-02
-4.00816250e-07,5.31250000e-04,1.55183438e-02
-4.00776250e-07,3.75000000e-04,1.55342813e-02
-4.00736250e-07,2.54687500e-04,1.55369375e-02
-4.00696250e-07,2.57812500e-04,1.55295000e-02
-4.00656250e-07,4.03125000e-04,1.55151563e-02
-4.00616250e-07,6.20312500e-04,1.54885938e-02
-4.00576250e-07,7.76562500e-04,1.54418437e-02
-4.00536250e-07,7.54687500e-04,1.53796875e-02
-4.00496250e-07,5.32812500e-04,1.53244375e-02
-4.00456250e-07,2.03125000e-04,1.53063750e-02
-4.00416250e-07,-7.65625000e-05,1.53366563e-02
-4.00376250e-07,-1.73437500e-04,1.53988125e-02
-4.00336250e-07,-4.84375000e-05,1.54535313e-02
-4.00296250e-07,2.23437500e-04,1.54705313e-02
-4.00256250e-07,5.10937500e-04,1.54487500e-02
-4.00216250e-07,7.00000000e-04,1.54179375e-02
-4.00176250e-07,7.37500000e-04,1.54152813e-02
-4.00136250e-07,6.35937500e-04,1.54545938e-02
-4.00096250e-07,4.57812500e-04,1.55156875e-02
-4.00056250e-07,2.76562500e-04,1.55565938e-02
-4.00016250e-07,1.62500000e-04,1.55454375e-02
-3.99976250e-07,1.67187500e-04,1.54832813e-02
-3.99936250e-07,3.01562500e-04,1.54073125e-02
-3.99896250e-07,5.15625000e-04,1.53658750e-02
-3.99856250e-07,7.20312500e-04,1.53881875e-02
-3.99816250e-07,8.25000000e-04,1.54599063e-02
-3.99776250e-07,7.90625000e-04,1.55358750e-02
-3.99736250e-07,6.65625000e-04,1.55650937e-02
-3.99696250e-07,5.50000000e-04,1.55252500e-02
-3.99656250e-07,5.28125000e-04,1.54365313e-02
-3.99616250e-07,6.01562500e-04,1.53456875e-02
-3.99576250e-07,6.95312500e-04,1.52989375e-02
-3.99536250e-07,7.07812500e-04,1.53132813e-02
-3.99496250e-07,5.92187500e-04,1.53727813e-02
-3.99456250e-07,4.00000000e-04,1.54466250e-02
-3.99416250e-07,2.42187500e-04,1.55119688e-02
-3.99376250e-07,2.07812500e-04,1.55597813e-02
-3.99336250e-07,3.01562500e-04,1.55927188e-02
-3.99296250e-07,4.34375000e-04,1.56091875e-02
-3.99256250e-07,4.90625000e-04,1.55990938e-02
-3.99216250e-07,4.14062500e-04,1.55539375e-02
-3.99176250e-07,2.43750000e-04,1.54779688e-02
-3.99136250e-07,8.75000000e-05,1.53919063e-02
-3.99096250e-07,4.84375000e-05,1.53201875e-02
-3.99056250e-07,1.57812500e-04,1.52803438e-02
-3.99016250e-07,3.59375000e-04,1.52760938e-02
-3.98976250e-07,5.43750000e-04,1.53047813e-02
