waveforms/Tek116_ALL/Tek106_ALL.csv

Model,MSO64
Channel,CH1,,Channel,CH2
Waveform Type,ANALOG,,Waveform Type,ANALOG
Horizontal Units,s,,Horizontal Units,s
Sample Interval,4.00000000e-11,,Sample Interval,4.00000000e-11
Record Length,90000,,Record Length,90000
Zero Index,4409.40625000,,Zero Index,4409.40625000
Vertical Units,V,,Vertical Units,V
,,,,
ANALOG_Thumbnail,,,ANALOG_Thumbnail,

TIME,CH1,CH2
-1.76376250e-07,1.99218750e-04,1.57237500e-02
-1.76336250e-07,-2.64843750e-04,1.57018750e-02
-1.76296250e-07,-5.34375000e-04,1.57837500e-02
-1.76256250e-07,-5.48437500e-04,1.59237500e-02
-1.76216250e-07,-3.84375000e-04,1.60256250e-02
-1.76176250e-07,-1.73437500e-04,1.60218750e-02
-1.76136250e-07,-2.34375000e-06,1.59250000e-02
-1.76096250e-07,1.07812500e-04,1.58187500e-02
-1.76056250e-07,1.80468750e-04,1.57831250e-02
-1.76016250e-07,2.41406250e-04,1.58287500e-02
-1.75976250e-07,3.04687500e-04,1.58906250e-02
-1.75936250e-07,3.89062500e-04,1.58881250e-02
-1.75896250e-07,5.22656250e-04,1.58018750e-02
-1.75856250e-07,7.14843750e-04,1.56893750e-02
-1.75816250e-07,9.07031250e-04,1.56400000e-02
-1.75776250e-07,9.91406250e-04,1.56981250e-02
-1.75736250e-07,8.55468750e-04,1.58262500e-02
-1.75696250e-07,5.01562500e-04,1.59400000e-02
-1.75656250e-07,7.03125000e-05,1.59737500e-02
-1.75616250e-07,-2.10937500e-04,1.59287500e-02
-1.75576250e-07,-1.82812500e-04,1.58618750e-02
-1.75536250e-07,1.19531250e-04,1.58318750e-02
-1.75496250e-07,4.73437500e-04,1.58512500e-02
-1.75456250e-07,6.14062500e-04,1.58887500e-02
-1.75416250e-07,4.33593750e-04,1.59031250e-02
-1.75376250e-07,7.03125000e-05,1.58837500e-02
-1.75336250e-07,-1.87500000e-04,1.58525000e-02
-1.75296250e-07,-1.10156250e-04,1.58343750e-02
-1.75256250e-07,2.83593750e-04,1.58325000e-02
-1.75216250e-07,7.47656250e-04,1.58256250e-02
-1.75176250e-07,9.72656250e-04,1.57925000e-02
-1.75136250e-07,8.25000000e-04,1.57418750e-02
-1.75096250e-07,4.24218750e-04,1.57031250e-02
-1.75056250e-07,5.15625000e-05,1.57050000e-02
-1.75016250e-07,-7.03125000e-05,1.57450000e-02
-1.74976250e-07,8.20312500e-05,1.57925000e-02
-1.74936250e-07,3.37500000e-04,1.58112500e-02
-1.74896250e-07,4.85156250e-04,1.57893750e-02
-1.74856250e-07,4.35937500e-04,1.57418750e-02
-1.74816250e-07,2.71875000e-04,1.56956250e-02
-1.74776250e-07,1.47656250e-04,1.56718750e-02
-1.74736250e-07,1.71093750e-04,1.56743750e-02
-1.74696250e-07,3.02343750e-04,1.57018750e-02
-1.74656250e-07,4.24218750e-04,1.57543750e-02
-1.74616250e-07,4.26562500e-04,1.58293750e-02
-1.74576250e-07,3.04687500e-04,1.59118750e-02
-1.74536250e-07,1.45312500e-04,1.59718750e-02
-1.74496250e-07,5.39062500e-05,1.59831250e-02
-1.74456250e-07,7.73437500e-05,1.59437500e-02
-1.74416250e-07,1.73437500e-04,1.58893750e-02
-1.74376250e-07,2.64843750e-04,1.58643750e-02
-1.74336250e-07,3.00000000e-04,1.58893750e-02
-1.74296250e-07,2.92968750e-04,1.59337500e-02
-1.74256250e-07,2.85937500e-04,1.59337500e-02
-1.74216250e-07,3.09375000e-04,1.58462500e-02
-1.74176250e-07,3.44531250e-04,1.56931250e-02
-1.74136250e-07,3.44531250e-04,1.55618750e-02
-1.74096250e-07,2.90625000e-04,1.55481250e-02
-1.74056250e-07,2.22656250e-04,1.56806250e-02
-1.74016250e-07,2.17968750e-04,1.58862500e-02
-1.73976250e-07,3.32812500e-04,1.60300000e-02
-1.73936250e-07,5.43750000e-04,1.60068750e-02
-1.73896250e-07,7.38281250e-04,1.58212500e-02
-1.73856250e-07,7.75781250e-04,1.55912500e-02
-1.73816250e-07,5.78906250e-04,1.54675000e-02
-1.73776250e-07,1.99218750e-04,1.55243750e-02
-1.73736250e-07,-1.96875000e-04,1.57068750e-02
-1.73696250e-07,-4.17187500e-04,1.58737500e-02
-1.73656250e-07,-3.44531250e-04,1.59006250e-02
-1.73616250e-07,-1.40625000e-05,1.57731250e-02
-1.73576250e-07,3.98437500e-04,1.55906250e-02
-1.73536250e-07,6.79687500e-04,1.54862500e-02
-1.73496250e-07,6.96093750e-04,1.55256250e-02
-1.73456250e-07,4.73437500e-04,1.56656250e-02
-1.73416250e-07,1.64062500e-04,1.57956250e-02
-1.73376250e-07,-4.92187500e-05,1.58312500e-02
-1.73336250e-07,-7.50000000e-05,1.57700000e-02
-1.73296250e-07,3.75000000e-05,1.56806250e-02
-1.73256250e-07,1.47656250e-04,1.56362500e-02
-1.73216250e-07,1.47656250e-04,1.56518750e-02
-1.73176250e-07,4.21875000e-05,1.56875000e-02
-1.73136250e-07,-5.85937500e-05,1.56975000e-02
-1.73096250e-07,-2.34375000e-05,1.56825000e-02
-1.73056250e-07,1.68750000e-04,1.56856250e-02
-1.73016250e-07,4.17187500e-04,1.57431250e-02
-1.72976250e-07,5.71875000e-04,1.58343750e-02
-1.72936250e-07,5.39062500e-04,1.58831250e-02
-1.72896250e-07,3.70312500e-04,1.58218750e-02
-1.72856250e-07,2.01562500e-04,1.56593750e-02
-1.72816250e-07,1.57031250e-04,1.54900000e-02
-1.72776250e-07,2.48437500e-04,1.54300000e-02
-1.72736250e-07,3.82031250e-04,1.55243750e-02
-1.72696250e-07,4.38281250e-04,1.57075000e-02
-1.72656250e-07,3.67968750e-04,1.58493750e-02
-1.72616250e-07,2.34375000e-04,1.58600000e-02
-1.72576250e-07,1.38281250e-04,1.57618750e-02
-1.72536250e-07,1.28906250e-04,1.56693750e-02
-1.72496250e-07,1.78125000e-04,1.56943750e-02
-1.72456250e-07,2.08593750e-04,1.58475000e-02
-1.72416250e-07,1.92187500e-04,1.60287500e-02
-1.72376250e-07,1.75781250e-04,1.61037500e-02
-1.72336250e-07,2.43750000e-04,1.60150000e-02
-1.72296250e-07,4.26562500e-04,1.58268750e-02
-1.72256250e-07,6.37500000e-04,1.56737500e-02
-1.72216250e-07,7.40625000e-04,1.56581250e-02
-1.72176250e-07,6.53906250e-04,1.57756250e-02
-1.72136250e-07,4.52343750e-04,1.59293750e-02
-1.72096250e-07,3.32812500e-04,1.60093750e-02
-1.72056250e-07,4.66406250e-04,1.59762500e-02
-1.72016250e-07,8.55468750e-04,1.58762500e-02
-1.71976250e-07,1.28906250e-03,1.57906250e-02
-1.71936250e-07,1.48125000e-03,1.57731250e-02
-1.71896250e-07,1.26093750e-03,1.58131250e-02
-1.71856250e-07,7.03125000e-04,1.58650000e-02
-1.71816250e-07,8.67187500e-05,1.58868750e-02
-1.71776250e-07,-2.85937500e-04,1.58700000e-02
-1.71736250e-07,-2.78906250e-04,1.58287500e-02
-1.71696250e-07,2.34375000e-06,1.57806250e-02
-1.71656250e-07,3.18750000e-04,1.57306250e-02
-1.71616250e-07,4.75781250e-04,1.56843750e-02
-1.71576250e-07,4.40625000e-04,1.56556250e-02
-1.71536250e-07,3.32812500e-04,1.56637500e-02
-1.71496250e-07,3.04687500e-04,1.57118750e-02
-1.71456250e-07,4.05468750e-04,1.57731250e-02
-1.71416250e-07,5.62500000e-04,1.58025000e-02
-1.71376250e-07,6.60937500e-04,1.57725000e-02
-1.71336250e-07,6.39843750e-04,1.56987500e-02
-1.71296250e-07,5.36718750e-04,1.56350000e-02
-1.71256250e-07,4.26562500e-04,1.56337500e-02
-1.71216250e-07,3.56250000e-04,1.57050000e-02
-1.71176250e-07,2.90625000e-04,1.58037500e-02
-1.71136250e-07,1.78125000e-04,1.58618750e-02
-1.71096250e-07,2.34375000e-05,1.58400000e-02
-1.71056250e-07,-9.37500000e-05,1.57562500e-02
-1.71016250e-07,-7.26562500e-05,1.56731250e-02
-1.70976250e-07,1.14843750e-04,1.56556250e-02
-1.70936250e-07,3.72656250e-04,1.57275000e-02
-1.70896250e-07,5.46093750e-04,1.58593750e-02
-1.70856250e-07,5.43750000e-04,1.59912500e-02
-1.70816250e-07,4.10156250e-04,1.60650000e-02
-1.70776250e-07,3.00000000e-04,1.60537500e-02
-1.70736250e-07,3.60937500e-04,1.59675000e-02
-1.70696250e-07,6.07031250e-04,1.58437500e-02
-1.70656250e-07,8.90625000e-04,1.57312500e-02
-1.70616250e-07,9.93750000e-04,1.56743750e-02
-1.70576250e-07,7.89843750e-04,1.56906250e-02
-1.70536250e-07,3.32812500e-04,1.57631250e-02
-1.70496250e-07,-1.59375000e-04,1.58375000e-02
-1.70456250e-07,-4.31250000e-04,1.58543750e-02
-1.70416250e-07,-3.53906250e-04,1.57806250e-02
-1.70376250e-07,0.00000000e+00,1.56431250e-02
-1.70336250e-07,4.17187500e-04,1.55168750e-02
-1.70296250e-07,6.72656250e-04,1.54825000e-02
-1.70256250e-07,6.79687500e-04,1.55687500e-02
-1.70216250e-07,5.25000000e-04,1.57256250e-02
-1.70176250e-07,3.93750000e-04,1.58562500e-02
-1.70136250e-07,4.33593750e-04,1.58812500e-02
-1.70096250e-07,6.35156250e-04,1.57937500e-02
-1.70056250e-07,8.50781250e-04,1.56662500e-02
-1.70016250e-07,9.02343750e-04,1.55962500e-02
-1.69976250e-07,7.07812500e-04,1.56368750e-02
-1.69936250e-07,3.65625000e-04,1.57612500e-02
-1.69896250e-07,7.73437500e-05,1.58881250e-02
-1.69856250e-07,2.34375000e-05,1.59450000e-02
-1.69816250e-07,2.20312500e-04,1.59200000e-02
-1.69776250e-07,5.15625000e-04,1.58593750e-02
-1.69736250e-07,6.89062500e-04,1.58225000e-02
-1.69696250e-07,6.07031250e-04,1.58293750e-02
-1.69656250e-07,3.16406250e-04,1.58481250e-02
-1.69616250e-07,2.34375000e-06,1.58306250e-02
-1.69576250e-07,-1.54687500e-04,1.57637500e-02
-1.69536250e-07,-9.14062500e-05,1.56862500e-02
-1.69496250e-07,9.37500000e-05,1.56600000e-02
-1.69456250e-07,2.53125000e-04,1.57162500e-02
-1.69416250e-07,3.04687500e-04,1.58231250e-02
-1.69376250e-07,2.83593750e-04,1.59056250e-02
-1.69336250e-07,2.83593750e-04,1.59018750e-02
-1.69296250e-07,3.44531250e-04,1.58112500e-02
-1.69256250e-07,3.96093750e-04,1.56975000e-02
-1.69216250e-07,3.25781250e-04,1.56368750e-02
-1.69176250e-07,9.14062500e-05,1.56606250e-02
-1.69136250e-07,-1.99218750e-04,1.57331250e-02
-1.69096250e-07,-3.51562500e-04,1.57806250e-02
-1.69056250e-07,-2.34375000e-04,1.57568750e-02
-1.69016250e-07,1.21875000e-04,1.56793750e-02
-1.68976250e-07,5.20312500e-04,1.56156250e-02
-1.68936250e-07,7.57031250e-04,1.56300000e-02
-1.68896250e-07,7.59375000e-04,1.57243750e-02
-1.68856250e-07,6.32812500e-04,1.58350000e-02
-1.68816250e-07,5.43750000e-04,1.58781250e-02
-1.68776250e-07,5.76562500e-04,1.58143750e-02
-1.68736250e-07,6.65625000e-04,1.56812500e-02
-1.68696250e-07,6.63281250e-04,1.55668750e-02
-1.68656250e-07,4.92187500e-04,1.55450000e-02
-1.68616250e-07,2.32031250e-04,1.56243750e-02
-1.68576250e-07,7.50000000e-05,1.57443750e-02
-1.68536250e-07,1.71093750e-04,1.58237500e-02
-1.68496250e-07,5.03906250e-04,1.58156250e-02
-1.68456250e-07,8.71875000e-04,1.57381250e-02
-1.68416250e-07,1.03125000e-03,1.56481250e-02
-1.68376250e-07,8.57812500e-04,1.55993750e-02
-1.68336250e-07,4.40625000e-04,1.56093750e-02
-1.68296250e-07,7.03125000e-06,1.56562500e-02
-1.68256250e-07,-2.20312500e-04,1.57093750e-02
-1.68216250e-07,-1.64062500e-04,1.57537500e-02
-1.68176250e-07,7.26562500e-05,1.57950000e-02
-1.68136250e-07,2.95312500e-04,1.58393750e-02
-1.68096250e-07,3.49218750e-04,1.58806250e-02
-1.68056250e-07,2.01562500e-04,1.58956250e-02
-1.68016250e-07,-3.98437500e-05,1.58725000e-02
-1.67976250e-07,-2.03906250e-04,1.58243750e-02
-1.67936250e-07,-1.64062500e-04,1.57925000e-02
-1.67896250e-07,9.84375000e-05,1.58143750e-02
-1.67856250e-07,4.75781250e-04,1.58962500e-02
-1.67816250e-07,7.92187500e-04,1.60000000e-02
-1.67776250e-07,9.07031250e-04,1.60687500e-02
-1.67736250e-07,7.96875000e-04,1.60675000e-02
-1.67696250e-07,5.69531250e-04,1.60056250e-02
-1.67656250e-07,4.05468750e-04,1.59287500e-02
-1.67616250e-07,4.28906250e-04,1.58831250e-02
-1.67576250e-07,6.35156250e-04,1.58831250e-02
-1.67536250e-07,9.00000000e-04,1.59087500e-02
-1.67496250e-07,1.06406250e-03,1.59268750e-02
-1.67456250e-07,1.04765625e-03,1.59218750e-02
-1.67416250e-07,8.85937500e-04,1.59037500e-02
-1.67376250e-07,6.89062500e-04,1.58931250e-02
-1.67336250e-07,5.43750000e-04,1.58987500e-02
-1.67296250e-07,4.71093750e-04,1.59100000e-02
-1.67256250e-07,4.38281250e-04,1.59112500e-02
-1.67216250e-07,4.05468750e-04,1.59012500e-02
-1.67176250e-07,3.77343750e-04,1.58950000e-02
-1.67136250e-07,3.82031250e-04,1.59112500e-02
-1.67096250e-07,4.28906250e-04,1.59475000e-02
-1.67056250e-07,4.92187500e-04,1.59756250e-02
-1.67016250e-07,5.32031250e-04,1.59631250e-02
-1.66976250e-07,5.41406250e-04,1.59018750e-02
-1.66936250e-07,5.55468750e-04,1.58218750e-02
-1.66896250e-07,6.11718750e-04,1.57718750e-02
-1.66856250e-07,7.05468750e-04,1.57843750e-02
-1.66816250e-07,7.61718750e-04,1.58475000e-02
-1.66776250e-07,6.93750000e-04,1.59112500e-02
-1.66736250e-07,4.78125000e-04,1.59275000e-02
-1.66696250e-07,2.06250000e-04,1.58856250e-02
-1.66656250e-07,3.98437500e-05,1.58225000e-02
-1.66616250e-07,9.37500000e-05,1.57887500e-02
-1.66576250e-07,3.39843750e-04,1.58068750e-02
-1.66536250e-07,6.00000000e-04,1.58481250e-02
-1.66496250e-07,6.60937500e-04,1.58587500e-02
-1.66456250e-07,4.40625000e-04,1.58112500e-02
-1.66416250e-07,6.56250000e-05,1.57362500e-02
-1.66376250e-07,-1.96875000e-04,1.57062500e-02
-1.66336250e-07,-1.24218750e-04,1.57775000e-02
-1.66296250e-07,2.97656250e-04,1.59368750e-02
-1.66256250e-07,8.41406250e-04,1.60962500e-02
-1.66216250e-07,1.18593750e-03,1.61506250e-02
-1.66176250e-07,1.13203125e-03,1.60493750e-02
-1.66136250e-07,7.33593750e-04,1.58406250e-02
-1.66096250e-07,2.57812500e-04,1.56406250e-02
-1.66056250e-07,-4.68750000e-06,1.55606250e-02
-1.66016250e-07,6.09375000e-05,1.56337500e-02
-1.65976250e-07,3.28125000e-04,1.58000000e-02
-1.65936250e-07,5.50781250e-04,1.59512500e-02
-1.65896250e-07,5.43750000e-04,1.60050000e-02
-1.65856250e-07,3.04687500e-04,1.59537500e-02
-1.65816250e-07,4.68750000e-06,1.58581250e-02
-1.65776250e-07,-1.57031250e-04,1.57962500e-02
-1.65736250e-07,-9.37500000e-05,1.58037500e-02
-1.65696250e-07,1.24218750e-04,1.58525000e-02
-1.65656250e-07,3.60937500e-04,1.58806250e-02
-1.65616250e-07,5.13281250e-04,1.58443750e-02
-1.65576250e-07,5.76562500e-04,1.57587500e-02
-1.65536250e-07,5.88281250e-04,1.56881250e-02
-1.65496250e-07,5.60156250e-04,1.57012500e-02
-1.65456250e-07,4.45312500e-04,1.58150000e-02
-1.65416250e-07,2.08593750e-04,1.59750000e-02
-1.65376250e-07,-9.60937500e-05,1.60937500e-02
-1.65336250e-07,-3.11718750e-04,1.61068750e-02
-1.65296250e-07,-2.85937500e-04,1.60168750e-02
-1.65256250e-07,-2.34375000e-06,1.58900000e-02
-1.65216250e-07,3.84375000e-04,1.58043750e-02
-1.65176250e-07,6.42187500e-04,1.58031250e-02
-1.65136250e-07,6.53906250e-04,1.58718750e-02
-1.65096250e-07,4.99218750e-04,1.59606250e-02
-1.65056250e-07,3.93750000e-04,1.60200000e-02
-1.65016250e-07,4.87500000e-04,1.60262500e-02
-1.64976250e-07,7.31250000e-04,1.59793750e-02
-1.64936250e-07,9.02343750e-04,1.58900000e-02
-1.64896250e-07,7.92187500e-04,1.57743750e-02
-1.64856250e-07,4.03125000e-04,1.56668750e-02
-1.64816250e-07,-4.21875000e-05,1.56187500e-02
-1.64776250e-07,-2.69531250e-04,1.56762500e-02
-1.64736250e-07,-1.54687500e-04,1.58431250e-02
-1.64696250e-07,1.75781250e-04,1.60531250e-02
-1.64656250e-07,4.61718750e-04,1.61968750e-02
-1.64616250e-07,5.20312500e-04,1.61862500e-02
-1.64576250e-07,3.60937500e-04,1.60175000e-02
-1.64536250e-07,1.66406250e-04,1.57837500e-02
-1.64496250e-07,1.10156250e-04,1.56112500e-02
-1.64456250e-07,2.29687500e-04,1.55743750e-02
-1.64416250e-07,4.05468750e-04,1.56518750e-02
-1.64376250e-07,4.99218750e-04,1.57543750e-02
-1.64336250e-07,4.68750000e-04,1.58037500e-02
-1.64296250e-07,3.93750000e-04,1.57931250e-02
-1.64256250e-07,3.79687500e-04,1.57812500e-02
-1.64216250e-07,4.35937500e-04,1.58275000e-02
-1.64176250e-07,4.61718750e-04,1.59281250e-02
-1.64136250e-07,3.37500000e-04,1.60137500e-02
-1.64096250e-07,5.15625000e-05,1.60075000e-02
-1.64056250e-07,-2.53125000e-04,1.58918750e-02
-1.64016250e-07,-3.79687500e-04,1.57287500e-02
-1.63976250e-07,-2.22656250e-04,1.56137500e-02
-1.63936250e-07,1.50000000e-04,1.56068750e-02
-1.63896250e-07,5.39062500e-04,1.56943750e-02
-1.63856250e-07,7.75781250e-04,1.58106250e-02
-1.63816250e-07,8.27343750e-04,1.58925000e-02
-1.63776250e-07,7.92187500e-04,1.59143750e-02
-1.63736250e-07,7.89843750e-04,1.58881250e-02
-1.63696250e-07,8.36718750e-04,1.58337500e-02
-1.63656250e-07,8.39062500e-04,1.57606250e-02
-1.63616250e-07,6.84375000e-04,1.56756250e-02
-1.63576250e-07,3.65625000e-04,1.56000000e-02
-1.63536250e-07,1.40625000e-05,1.55737500e-02
-1.63496250e-07,-1.89843750e-04,1.56275000e-02
-1.63456250e-07,-1.38281250e-04,1.57500000e-02
-1.63416250e-07,1.12500000e-04,1.58837500e-02
-1.63376250e-07,3.86718750e-04,1.59587500e-02
-1.63336250e-07,5.13281250e-04,1.59412500e-02
-1.63296250e-07,4.38281250e-04,1.58587500e-02
-1.63256250e-07,2.53125000e-04,1.57831250e-02
-1.63216250e-07,1.12500000e-04,1.57750000e-02
-1.63176250e-07,1.28906250e-04,1.58431250e-02
-1.63136250e-07,2.90625000e-04,1.59406250e-02
-1.63096250e-07,5.01562500e-04,1.60037500e-02
-1.63056250e-07,6.49218750e-04,1.60006250e-02
-1.63016250e-07,6.89062500e-04,1.59481250e-02
-1.62976250e-07,6.67968750e-04,1.58993750e-02
-1.62936250e-07,6.60937500e-04,1.58993750e-02
-1.62896250e-07,7.00781250e-04,1.59631250e-02
-1.62856250e-07,7.42968750e-04,1.60643750e-02
-1.62816250e-07,6.98437500e-04,1.61618750e-02
-1.62776250e-07,5.17968750e-04,1.62225000e-02
-1.62736250e-07,2.48437500e-04,1.62325000e-02
-1.62696250e-07,1.17187500e-05,1.61987500e-02
-1.62656250e-07,-8.20312500e-05,1.61406250e-02
-1.62616250e-07,-1.17187500e-05,1.60787500e-02
-1.62576250e-07,1.47656250e-04,1.60312500e-02
-1.62536250e-07,2.85937500e-04,1.60081250e-02
-1.62496250e-07,3.49218750e-04,1.60131250e-02
-1.62456250e-07,3.82031250e-04,1.60431250e-02
-1.62416250e-07,4.66406250e-04,1.60906250e-02
-1.62376250e-07,6.39843750e-04,1.61500000e-02
-1.62336250e-07,8.32031250e-04,1.62118750e-02
-1.62296250e-07,8.97656250e-04,1.62625000e-02
-1.62256250e-07,7.33593750e-04,1.62825000e-02
-1.62216250e-07,3.79687500e-04,1.62575000e-02
-1.62176250e-07,1.87500000e-05,1.61881250e-02
-1.62136250e-07,-1.33593750e-04,1.60975000e-02
-1.62096250e-07,3.75000000e-05,1.60193750e-02
-1.62056250e-07,4.38281250e-04,1.59837500e-02
-1.62016250e-07,8.29687500e-04,1.60018750e-02
-1.61976250e-07,9.63281250e-04,1.60612500e-02
-1.61936250e-07,7.52343750e-04,1.61350000e-02
-1.61896250e-07,3.37500000e-04,1.61937500e-02
-1.61856250e-07,-7.03125000e-06,1.62150000e-02
-1.61816250e-07,-3.98437500e-05,1.61862500e-02
-1.61776250e-07,2.78906250e-04,1.61087500e-02
-1.61736250e-07,7.59375000e-04,1.60012500e-02
-1.61696250e-07,1.09687500e-03,1.58981250e-02
-1.61656250e-07,1.04765625e-03,1.58331250e-02
-1.61616250e-07,6.00000000e-04,1.58175000e-02
-1.61576250e-07,-2.10937500e-05,1.58275000e-02
-1.61536250e-07,-4.80468750e-04,1.58162500e-02
-1.61496250e-07,-5.27343750e-04,1.57487500e-02
-1.61456250e-07,-1.45312500e-04,1.56381250e-02
-1.61416250e-07,4.40625000e-04,1.55450000e-02
-1.61376250e-07,9.00000000e-04,1.55387500e-02
-1.61336250e-07,9.93750000e-04,1.56425000e-02
-1.61296250e-07,7.12500000e-04,1.58056250e-02
-1.61256250e-07,2.46093750e-04,1.59312500e-02
-1.61216250e-07,-1.24218750e-04,1.59425000e-02
-1.61176250e-07,-2.10937500e-04,1.58412500e-02
-1.61136250e-07,0.00000000e+00,1.57093750e-02
-1.61096250e-07,3.53906250e-04,1.56443750e-02
-1.61056250e-07,6.37500000e-04,1.56875000e-02
-1.61016250e-07,7.03125000e-04,1.57937500e-02
-1.60976250e-07,5.22656250e-04,1.58662500e-02
-1.60936250e-07,1.94531250e-04,1.58406250e-02
-1.60896250e-07,-1.26562500e-04,1.57337500e-02
-1.60856250e-07,-2.95312500e-04,1.56300000e-02
-1.60816250e-07,-2.50781250e-04,1.56156250e-02
-1.60776250e-07,-4.45312500e-05,1.57043750e-02
-1.60736250e-07,1.87500000e-04,1.58318750e-02
-1.60696250e-07,3.00000000e-04,1.59050000e-02
-1.60656250e-07,2.29687500e-04,1.58756250e-02
-1.60616250e-07,4.92187500e-05,1.57737500e-02
-1.60576250e-07,-6.79687500e-05,1.56731250e-02
-1.60536250e-07,3.98437500e-05,1.56293750e-02
-1.60496250e-07,3.96093750e-04,1.56375000e-02
-1.60456250e-07,8.39062500e-04,1.56437500e-02
-1.60416250e-07,1.11328125e-03,1.56031250e-02
-1.60376250e-07,1.03593750e-03,1.55243750e-02
-1.60336250e-07,6.42187500e-04,1.54656250e-02
-1.60296250e-07,1.71093750e-04,1.54825000e-02
-1.60256250e-07,-7.03125000e-05,1.55756250e-02
-1.60216250e-07,7.03125000e-05,1.56787500e-02
-1.60176250e-07,4.75781250e-04,1.57093750e-02
-1.60136250e-07,8.48437500e-04,1.56325000e-02
-1.60096250e-07,8.97656250e-04,1.54956250e-02
-1.60056250e-07,5.71875000e-04,1.53968750e-02
-1.60016250e-07,8.67187500e-05,1.54168750e-02
-1.59976250e-07,-2.20312500e-04,1.55568750e-02
-1.59936250e-07,-1.33593750e-04,1.57306250e-02
-1.59896250e-07,2.88281250e-04,1.58243750e-02
-1.59856250e-07,7.61718750e-04,1.57712500e-02
-1.59816250e-07,9.72656250e-04,1.55975000e-02
-1.59776250e-07,7.94531250e-04,1.54037500e-02
-1.59736250e-07,3.56250000e-04,1.52987500e-02
-1.59696250e-07,-7.26562500e-05,1.53318750e-02
-1.59656250e-07,-2.57812500e-04,1.54675000e-02
-1.59616250e-07,-1.45312500e-04,1.56106250e-02
-1.59576250e-07,1.42968750e-04,1.56700000e-02
-1.59536250e-07,4.26562500e-04,1.56075000e-02
-1.59496250e-07,5.74218750e-04,1.54537500e-02
-1.59456250e-07,5.60156250e-04,1.52825000e-02
-1.59416250e-07,4.45312500e-04,1.51643750e-02
