waveforms/Tek116_ALL/Tek118_ALL.csv

Model,MSO64
Channel,CH1,,Channel,CH2
Waveform Type,ANALOG,,Waveform Type,ANALOG
Horizontal Units,s,,Horizontal Units,s
Sample Interval,4.00000000e-11,,Sample Interval,4.00000000e-11
Record Length,50000,,Record Length,50000
Zero Index,2999.22265625,,Zero Index,2999.22265625
Vertical Units,V,,Vertical Units,V
,,,,
ANALOG_Thumbnail,,,ANALOG_Thumbnail,

TIME,CH1,CH2
-1.19968906e-07,6.39843750e-04,1.54022656e-02
-1.19928906e-07,7.00781250e-04,1.52070313e-02
-1.19888906e-07,6.30468750e-04,1.50516406e-02
-1.19848906e-07,3.96093750e-04,1.50423438e-02
-1.19808906e-07,3.28125000e-05,1.51804688e-02
-1.19768906e-07,-3.44531250e-04,1.53942969e-02
-1.19728906e-07,-5.60156250e-04,1.56028125e-02
-1.19688906e-07,-4.94531250e-04,1.57515625e-02
-1.19648906e-07,-1.71093750e-04,1.58100000e-02
-1.19608906e-07,2.29687500e-04,1.57528906e-02
-1.19568906e-07,4.82812500e-04,1.55722656e-02
-1.19528906e-07,4.54687500e-04,1.53172656e-02
-1.19488906e-07,2.01562500e-04,1.51140625e-02
-1.19448906e-07,-8.20312500e-05,1.50994531e-02
-1.19408906e-07,-1.87500000e-04,1.53185938e-02
-1.19368906e-07,-2.34375000e-05,1.56532813e-02
-1.19328906e-07,3.30468750e-04,1.58870313e-02
-1.19288906e-07,6.96093750e-04,1.58418750e-02
-1.19248906e-07,9.00000000e-04,1.55310938e-02
-1.19208906e-07,8.53125000e-04,1.51539063e-02
-1.19168906e-07,5.83593750e-04,1.49653125e-02
-1.19128906e-07,2.06250000e-04,1.50941406e-02
-1.19088906e-07,-1.26562500e-04,1.54527344e-02
-1.19048906e-07,-2.71875000e-04,1.58086719e-02
-1.19008906e-07,-1.71093750e-04,1.59574219e-02
-1.18968906e-07,1.31250000e-04,1.58564844e-02
-1.18928906e-07,4.78125000e-04,1.56333594e-02
-1.18888906e-07,6.86718750e-04,1.54753125e-02
-1.18848906e-07,6.60937500e-04,1.54925781e-02
-1.18808906e-07,4.66406250e-04,1.56612500e-02
-1.18768906e-07,2.88281250e-04,1.58657813e-02
-1.18728906e-07,2.95312500e-04,1.59800000e-02
-1.18688906e-07,5.15625000e-04,1.59454688e-02
-1.18648906e-07,7.94531250e-04,1.57781250e-02
-1.18608906e-07,9.14062500e-04,1.55563281e-02
-1.18568906e-07,7.66406250e-04,1.53783594e-02
-1.18528906e-07,4.21875000e-04,1.53371875e-02
-1.18488906e-07,9.60937500e-05,1.54792969e-02
-1.18448906e-07,-2.81250000e-05,1.57807813e-02
-1.18408906e-07,7.96875000e-05,1.61260938e-02
-1.18368906e-07,2.95312500e-04,1.63611719e-02
-1.18328906e-07,4.45312500e-04,1.63704688e-02
-1.18288906e-07,4.38281250e-04,1.61592969e-02
-1.18248906e-07,3.16406250e-04,1.58591406e-02
-1.18208906e-07,1.92187500e-04,1.56492969e-02
-1.18168906e-07,1.64062500e-04,1.56360156e-02
-1.18128906e-07,2.46093750e-04,1.57834375e-02
-1.18088906e-07,3.96093750e-04,1.59414844e-02
-1.18048906e-07,5.53125000e-04,1.59600781e-02
-1.18008906e-07,6.70312500e-04,1.57874219e-02
-1.17968906e-07,7.10156250e-04,1.55032031e-02
-1.17928906e-07,6.39843750e-04,1.52495313e-02
-1.17888906e-07,4.47656250e-04,1.51326563e-02
-1.17848906e-07,1.75781250e-04,1.51671875e-02
-1.17808906e-07,-6.56250000e-05,1.52893750e-02
-1.17768906e-07,-1.61718750e-04,1.54142188e-02
-1.17728906e-07,-6.79687500e-05,1.54859375e-02
-1.17688906e-07,1.35937500e-04,1.54925781e-02
-1.17648906e-07,2.92968750e-04,1.54580469e-02
-1.17608906e-07,2.83593750e-04,1.54275000e-02
-1.17568906e-07,1.33593750e-04,1.54487500e-02
-1.17528906e-07,0.00000000e+00,1.55589844e-02
-1.17488906e-07,6.09375000e-05,1.57449219e-02
-1.17448906e-07,3.65625000e-04,1.59361719e-02
-1.17408906e-07,7.71093750e-04,1.60251563e-02
-1.17368906e-07,1.03359375e-03,1.59335156e-02
-1.17328906e-07,9.67968750e-04,1.56745313e-02
-1.17288906e-07,5.76562500e-04,1.53703906e-02
-1.17248906e-07,5.15625000e-05,1.51817969e-02
-1.17208906e-07,-3.42187500e-04,1.52150000e-02
-1.17168906e-07,-4.28906250e-04,1.54500781e-02
-1.17128906e-07,-2.17968750e-04,1.57542188e-02
-1.17088906e-07,1.31250000e-04,1.59627344e-02
-1.17048906e-07,4.05468750e-04,1.59760156e-02
-1.17008906e-07,4.66406250e-04,1.58113281e-02
-1.16968906e-07,3.00000000e-04,1.55842188e-02
-1.16928906e-07,1.17187500e-05,1.54367969e-02
-1.16888906e-07,-2.39062500e-04,1.54646875e-02
-1.16848906e-07,-3.21093750e-04,1.56585938e-02
-1.16808906e-07,-1.92187500e-04,1.59042969e-02
-1.16768906e-07,7.96875000e-05,1.60397656e-02
-1.16728906e-07,3.37500000e-04,1.59481250e-02
-1.16688906e-07,4.17187500e-04,1.56386719e-02
-1.16648906e-07,2.41406250e-04,1.52707813e-02
-1.16608906e-07,-1.12500000e-04,1.50649219e-02
-1.16568906e-07,-4.45312500e-04,1.51685156e-02
-1.16528906e-07,-5.60156250e-04,1.55430469e-02
-1.16488906e-07,-3.77343750e-04,1.59760156e-02
-1.16448906e-07,-1.40625000e-05,1.62137500e-02
-1.16408906e-07,2.90625000e-04,1.61380469e-02
-1.16368906e-07,3.42187500e-04,1.58418750e-02
-1.16328906e-07,1.21875000e-04,1.55629688e-02
-1.16288906e-07,-1.99218750e-04,1.55005469e-02
-1.16248906e-07,-3.67968750e-04,1.56745313e-02
-1.16208906e-07,-2.48437500e-04,1.59189063e-02
-1.16168906e-07,8.67187500e-05,1.60198438e-02
-1.16128906e-07,4.12500000e-04,1.58777344e-02
-1.16088906e-07,5.10937500e-04,1.55775781e-02
-1.16048906e-07,3.35156250e-04,1.53013281e-02
-1.16008906e-07,3.04687500e-05,1.51910938e-02
-1.15968906e-07,-1.80468750e-04,1.52535156e-02
-1.15928906e-07,-1.61718750e-04,1.53889844e-02
-1.15888906e-07,5.62500000e-05,1.55018750e-02
-1.15848906e-07,3.07031250e-04,1.55709375e-02
-1.15808906e-07,4.35937500e-04,1.56400000e-02
-1.15768906e-07,4.03125000e-04,1.57396094e-02
-1.15728906e-07,2.88281250e-04,1.58232813e-02
-1.15688906e-07,2.13281250e-04,1.58113281e-02
-1.15648906e-07,2.36718750e-04,1.56758594e-02
-1.15608906e-07,3.23437500e-04,1.55005469e-02
-1.15568906e-07,3.91406250e-04,1.54221875e-02
-1.15528906e-07,3.82031250e-04,1.55125000e-02
-1.15488906e-07,3.00000000e-04,1.56904688e-02
-1.15448906e-07,1.92187500e-04,1.57701563e-02
-1.15408906e-07,9.60937500e-05,1.56147656e-02
-1.15368906e-07,9.37500000e-06,1.52747656e-02
-1.15328906e-07,-9.14062500e-05,1.49799219e-02
-1.15288906e-07,-1.99218750e-04,1.49679688e-02
-1.15248906e-07,-2.69531250e-04,1.52880469e-02
-1.15208906e-07,-2.48437500e-04,1.57342969e-02
-1.15168906e-07,-1.14843750e-04,1.59866406e-02
-1.15128906e-07,8.67187500e-05,1.58445313e-02
-1.15088906e-07,2.69531250e-04,1.53876563e-02
-1.15048906e-07,3.63281250e-04,1.49201563e-02
-1.15008906e-07,3.63281250e-04,1.47435156e-02
-1.14968906e-07,3.18750000e-04,1.49440625e-02
-1.14928906e-07,2.88281250e-04,1.53371875e-02
-1.14888906e-07,2.92968750e-04,1.56253906e-02
-1.14848906e-07,3.21093750e-04,1.56174219e-02
-1.14808906e-07,3.32812500e-04,1.53544531e-02
-1.14768906e-07,3.23437500e-04,1.50569531e-02
-1.14728906e-07,3.04687500e-04,1.49546875e-02
-1.14688906e-07,3.00000000e-04,1.51313281e-02
-1.14648906e-07,3.11718750e-04,1.54978906e-02
-1.14608906e-07,3.21093750e-04,1.58790625e-02
-1.14568906e-07,3.14062500e-04,1.61260938e-02
-1.14528906e-07,2.95312500e-04,1.61739063e-02
-1.14488906e-07,2.90625000e-04,1.60371094e-02
-1.14448906e-07,3.07031250e-04,1.57767969e-02
-1.14408906e-07,3.28125000e-04,1.54806250e-02
-1.14368906e-07,3.25781250e-04,1.52482031e-02
-1.14328906e-07,2.90625000e-04,1.51671875e-02
-1.14288906e-07,2.55468750e-04,1.52667969e-02
-1.14248906e-07,2.64843750e-04,1.54753125e-02
-1.14208906e-07,3.28125000e-04,1.56546094e-02
-1.14168906e-07,3.84375000e-04,1.56811719e-02
-1.14128906e-07,3.37500000e-04,1.55377344e-02
-1.14088906e-07,1.40625000e-04,1.53239063e-02
-1.14048906e-07,-1.40625000e-04,1.51950781e-02
-1.14008906e-07,-3.46875000e-04,1.52335938e-02
-1.13968906e-07,-3.23437500e-04,1.54022656e-02
-1.13928906e-07,-3.28125000e-05,1.55735938e-02
-1.13888906e-07,3.91406250e-04,1.56360156e-02
-1.13848906e-07,7.33593750e-04,1.55735938e-02
-1.13808906e-07,8.32031250e-04,1.54620313e-02
-1.13768906e-07,6.89062500e-04,1.54062500e-02
-1.13728906e-07,4.42968750e-04,1.54567188e-02
-1.13688906e-07,2.74218750e-04,1.55935156e-02
-1.13648906e-07,2.69531250e-04,1.57502344e-02
-1.13608906e-07,3.91406250e-04,1.58724219e-02
-1.13568906e-07,5.41406250e-04,1.59348438e-02
-1.13528906e-07,6.35156250e-04,1.59295313e-02
-1.13488906e-07,6.56250000e-04,1.58578125e-02
-1.13448906e-07,6.16406250e-04,1.57316406e-02
-1.13408906e-07,5.20312500e-04,1.55935156e-02
-1.13368906e-07,3.46875000e-04,1.55191406e-02
-1.13328906e-07,1.07812500e-04,1.55775781e-02
-1.13288906e-07,-1.03125000e-04,1.57701563e-02
-1.13248906e-07,-1.57031250e-04,1.60065625e-02
-1.13208906e-07,1.87500000e-05,1.61500000e-02
-1.13168906e-07,3.51562500e-04,1.61035156e-02
-1.13128906e-07,6.46875000e-04,1.58923438e-02
-1.13088906e-07,7.26562500e-04,1.56572656e-02
-1.13048906e-07,5.64843750e-04,1.55642969e-02
-1.13008906e-07,3.23437500e-04,1.56785156e-02
-1.12968906e-07,2.32031250e-04,1.59109375e-02
-1.12928906e-07,3.96093750e-04,1.60729688e-02
-1.12888906e-07,6.98437500e-04,1.60078906e-02
-1.12848906e-07,8.71875000e-04,1.57183594e-02
-1.12808906e-07,7.14843750e-04,1.53650781e-02
-1.12768906e-07,2.41406250e-04,1.51711719e-02
-1.12728906e-07,-3.00000000e-04,1.52561719e-02
-1.12688906e-07,-6.00000000e-04,1.55496875e-02
-1.12648906e-07,-4.96875000e-04,1.58365625e-02
-1.12608906e-07,-6.79687500e-05,1.59069531e-02
-1.12568906e-07,4.38281250e-04,1.57010938e-02
-1.12528906e-07,7.59375000e-04,1.53624219e-02
-1.12488906e-07,7.87500000e-04,1.51260156e-02
-1.12448906e-07,5.83593750e-04,1.51685156e-02
-1.12408906e-07,3.21093750e-04,1.54753125e-02
-1.12368906e-07,1.68750000e-04,1.58525000e-02
-1.12328906e-07,2.15625000e-04,1.60623438e-02
-1.12288906e-07,4.35937500e-04,1.59733594e-02
-1.12248906e-07,7.14843750e-04,1.56453125e-02
-1.12208906e-07,9.07031250e-04,1.52814063e-02
-1.12168906e-07,8.90625000e-04,1.50861719e-02
-1.12128906e-07,6.39843750e-04,1.51485938e-02
-1.12088906e-07,2.60156250e-04,1.54022656e-02
-1.12048906e-07,-6.32812500e-05,1.56917969e-02
-1.12008906e-07,-1.66406250e-04,1.58750781e-02
-1.11968906e-07,-3.28125000e-05,1.58989844e-02
-1.11928906e-07,1.89843750e-04,1.57993750e-02
-1.11888906e-07,2.83593750e-04,1.56492969e-02
-1.11848906e-07,1.33593750e-04,1.55164844e-02
-1.11808906e-07,-1.85156250e-04,1.54381250e-02
-1.11768906e-07,-4.38281250e-04,1.54301563e-02
-1.11728906e-07,-4.19531250e-04,1.54912500e-02
-1.11688906e-07,-1.10156250e-04,1.56001563e-02
-1.11648906e-07,3.07031250e-04,1.57064063e-02
-1.11608906e-07,5.71875000e-04,1.57396094e-02
-1.11568906e-07,5.36718750e-04,1.56585938e-02
-1.11528906e-07,2.62500000e-04,1.54792969e-02
-1.11488906e-07,-4.68750000e-05,1.52893750e-02
-1.11448906e-07,-2.03906250e-04,1.51964063e-02
-1.11408906e-07,-1.57031250e-04,1.52628125e-02
-1.11368906e-07,1.40625000e-05,1.54553906e-02
-1.11328906e-07,1.99218750e-04,1.56678906e-02
-1.11288906e-07,3.46875000e-04,1.57794531e-02
-1.11248906e-07,4.73437500e-04,1.57369531e-02
-1.11208906e-07,5.97656250e-04,1.55828906e-02
-1.11168906e-07,6.79687500e-04,1.54301563e-02
-1.11128906e-07,6.49218750e-04,1.53783594e-02
-1.11088906e-07,4.78125000e-04,1.54460938e-02
-1.11048906e-07,2.53125000e-04,1.55669531e-02
-1.11008906e-07,1.26562500e-04,1.56333594e-02
-1.10968906e-07,2.06250000e-04,1.55775781e-02
-1.10928906e-07,4.54687500e-04,1.54235156e-02
-1.10888906e-07,6.82031250e-04,1.52694531e-02
-1.10848906e-07,6.82031250e-04,1.52189844e-02
-1.10808906e-07,3.93750000e-04,1.53146094e-02
-1.10768906e-07,-4.21875000e-05,1.55032031e-02
-1.10728906e-07,-3.67968750e-04,1.56732031e-02
-1.10688906e-07,-3.89062500e-04,1.57329688e-02
-1.10648906e-07,-1.26562500e-04,1.56599219e-02
-1.10608906e-07,2.08593750e-04,1.55151563e-02
-1.10568906e-07,3.53906250e-04,1.53982813e-02
-1.10528906e-07,1.94531250e-04,1.53810156e-02
-1.10488906e-07,-1.57031250e-04,1.54660156e-02
-1.10448906e-07,-4.52343750e-04,1.55948438e-02
-1.10408906e-07,-4.75781250e-04,1.56785156e-02
-1.10368906e-07,-2.03906250e-04,1.56546094e-02
-1.10328906e-07,1.85156250e-04,1.55151563e-02
-1.10288906e-07,4.45312500e-04,1.53146094e-02
-1.10248906e-07,4.24218750e-04,1.51419531e-02
-1.10208906e-07,1.50000000e-04,1.50768750e-02
-1.10168906e-07,-1.94531250e-04,1.51525781e-02
-1.10128906e-07,-4.10156250e-04,1.53278906e-02
-1.10088906e-07,-3.86718750e-04,1.55151563e-02
-1.10048906e-07,-1.59375000e-04,1.56174219e-02
-1.10008906e-07,1.42968750e-04,1.55882031e-02
-1.09968906e-07,3.65625000e-04,1.54593750e-02
-1.09928906e-07,4.31250000e-04,1.53159375e-02
-1.09888906e-07,3.51562500e-04,1.52508594e-02
-1.09848906e-07,2.27343750e-04,1.53119531e-02
-1.09808906e-07,1.80468750e-04,1.54700000e-02
-1.09768906e-07,2.92968750e-04,1.56453125e-02
-1.09728906e-07,5.39062500e-04,1.57475781e-02
-1.09688906e-07,7.82812500e-04,1.57263281e-02
-1.09648906e-07,8.53125000e-04,1.55895313e-02
-1.09608906e-07,6.39843750e-04,1.54035938e-02
-1.09568906e-07,1.92187500e-04,1.52588281e-02
-1.09528906e-07,-2.81250000e-04,1.52256250e-02
-1.09488906e-07,-5.39062500e-04,1.53225781e-02
-1.09448906e-07,-4.52343750e-04,1.55018750e-02
-1.09408906e-07,-1.03125000e-04,1.56705469e-02
-1.09368906e-07,2.67187500e-04,1.57435938e-02
-1.09328906e-07,4.19531250e-04,1.56931250e-02
-1.09288906e-07,2.85937500e-04,1.55682813e-02
-1.09248906e-07,4.68750000e-06,1.54593750e-02
-1.09208906e-07,-1.89843750e-04,1.54354688e-02
-1.09168906e-07,-1.50000000e-04,1.54912500e-02
-1.09128906e-07,8.67187500e-05,1.55510156e-02
-1.09088906e-07,3.35156250e-04,1.55271094e-02
-1.09048906e-07,4.24218750e-04,1.53942969e-02
-1.09008906e-07,3.09375000e-04,1.52189844e-02
-1.08968906e-07,9.84375000e-05,1.51127344e-02
-1.08928906e-07,-7.26562500e-05,1.51499219e-02
-1.08888906e-07,-1.45312500e-04,1.53106250e-02
-1.08848906e-07,-1.57031250e-04,1.54952344e-02
-1.08808906e-07,-1.78125000e-04,1.55855469e-02
-1.08768906e-07,-2.01562500e-04,1.55337500e-02
-1.08728906e-07,-1.59375000e-04,1.53810156e-02
-1.08688906e-07,1.64062500e-05,1.52282813e-02
-1.08648906e-07,2.71875000e-04,1.51685156e-02
-1.08608906e-07,4.64062500e-04,1.52335938e-02
-1.08568906e-07,4.61718750e-04,1.53916406e-02
-1.08528906e-07,2.81250000e-04,1.55656250e-02
-1.08488906e-07,1.17187500e-04,1.56838281e-02
-1.08448906e-07,1.80468750e-04,1.56984375e-02
-1.08408906e-07,5.20312500e-04,1.56014844e-02
-1.08368906e-07,9.39843750e-04,1.54354688e-02
-1.08328906e-07,1.11796875e-03,1.52787500e-02
-1.08288906e-07,8.55468750e-04,1.52163281e-02
-1.08248906e-07,2.57812500e-04,1.53013281e-02
-1.08208906e-07,-3.14062500e-04,1.55125000e-02
-1.08168906e-07,-4.92187500e-04,1.57568750e-02
-1.08128906e-07,-1.71093750e-04,1.59228906e-02
-1.08088906e-07,4.05468750e-04,1.59375000e-02
-1.08048906e-07,8.25000000e-04,1.58219531e-02
-1.08008906e-07,8.01562500e-04,1.56678906e-02
-1.07968906e-07,3.82031250e-04,1.55775781e-02
-1.07928906e-07,-1.03125000e-04,1.55921875e-02
-1.07888906e-07,-2.74218750e-04,1.56705469e-02
-1.07848906e-07,2.10937500e-05,1.57210156e-02
-1.07808906e-07,6.00000000e-04,1.56785156e-02
-1.07768906e-07,1.09218750e-03,1.55417188e-02
-1.07728906e-07,1.17656250e-03,1.53783594e-02
-1.07688906e-07,7.96875000e-04,1.52707813e-02
-1.07648906e-07,1.80468750e-04,1.52667969e-02
-1.07608906e-07,-3.18750000e-04,1.53531250e-02
-1.07568906e-07,-4.45312500e-04,1.54713281e-02
-1.07528906e-07,-1.75781250e-04,1.55457031e-02
-1.07488906e-07,2.90625000e-04,1.55257813e-02
-1.07448906e-07,6.77343750e-04,1.54102344e-02
-1.07408906e-07,8.08593750e-04,1.52495313e-02
-1.07368906e-07,6.96093750e-04,1.51353125e-02
-1.07328906e-07,4.92187500e-04,1.51605469e-02
-1.07288906e-07,3.53906250e-04,1.53610938e-02
-1.07248906e-07,3.35156250e-04,1.56758594e-02
-1.07208906e-07,3.58593750e-04,1.59587500e-02
-1.07168906e-07,3.16406250e-04,1.60530469e-02
-1.07128906e-07,1.85156250e-04,1.58857031e-02
-1.07088906e-07,5.15625000e-05,1.55324219e-02
-1.07048906e-07,4.21875000e-05,1.51857813e-02
-1.07008906e-07,2.13281250e-04,1.50423438e-02
-1.06968906e-07,4.85156250e-04,1.51778125e-02
-1.06928906e-07,6.93750000e-04,1.55045313e-02
-1.06888906e-07,7.17187500e-04,1.58259375e-02
-1.06848906e-07,5.71875000e-04,1.59786719e-02
-1.06808906e-07,3.84375000e-04,1.59228906e-02
-1.06768906e-07,3.09375000e-04,1.57555469e-02
-1.06728906e-07,4.03125000e-04,1.56187500e-02
-1.06688906e-07,6.14062500e-04,1.55935156e-02
-1.06648906e-07,8.20312500e-04,1.56546094e-02
-1.06608906e-07,9.28125000e-04,1.57090625e-02
-1.06568906e-07,9.07031250e-04,1.56798438e-02
-1.06528906e-07,7.82812500e-04,1.55629688e-02
-1.06488906e-07,5.88281250e-04,1.54115625e-02
-1.06448906e-07,3.56250000e-04,1.52933594e-02
-1.06408906e-07,1.24218750e-04,1.52375781e-02
-1.06368906e-07,-4.92187500e-05,1.52362500e-02
-1.06328906e-07,-1.03125000e-04,1.52774219e-02
-1.06288906e-07,-2.10937500e-05,1.53597656e-02
-1.06248906e-07,1.50000000e-04,1.54846094e-02
-1.06208906e-07,3.18750000e-04,1.56267188e-02
-1.06168906e-07,4.03125000e-04,1.57223438e-02
-1.06128906e-07,3.79687500e-04,1.57064063e-02
-1.06088906e-07,2.92968750e-04,1.55709375e-02
-1.06048906e-07,2.20312500e-04,1.53876563e-02
-1.06008906e-07,2.15625000e-04,1.52747656e-02
-1.05968906e-07,2.81250000e-04,1.53119531e-02
-1.05928906e-07,3.89062500e-04,1.54819531e-02
-1.05888906e-07,4.96875000e-04,1.56718750e-02
-1.05848906e-07,5.78906250e-04,1.57555469e-02
-1.05808906e-07,6.14062500e-04,1.56825000e-02
-1.05768906e-07,5.90625000e-04,1.55125000e-02
-1.05728906e-07,5.08593750e-04,1.53650781e-02
-1.05688906e-07,3.84375000e-04,1.53239063e-02
-1.05648906e-07,2.64843750e-04,1.53863281e-02
-1.05608906e-07,2.06250000e-04,1.54753125e-02
-1.05568906e-07,2.29687500e-04,1.55085156e-02
-1.05528906e-07,3.21093750e-04,1.54753125e-02
-1.05488906e-07,4.19531250e-04,1.54328125e-02
-1.05448906e-07,4.75781250e-04,1.54487500e-02
-1.05408906e-07,4.64062500e-04,1.55417188e-02
-1.05368906e-07,4.14843750e-04,1.56492969e-02
-1.05328906e-07,3.65625000e-04,1.56758594e-02
-1.05288906e-07,3.39843750e-04,1.55656250e-02
-1.05248906e-07,3.14062500e-04,1.53385156e-02
-1.05208906e-07,2.46093750e-04,1.50967969e-02
-1.05168906e-07,1.07812500e-04,1.49546875e-02
-1.05128906e-07,-8.90625000e-05,1.49905469e-02
-1.05088906e-07,-2.92968750e-04,1.52057031e-02
-1.05048906e-07,-4.35937500e-04,1.55324219e-02
-1.05008906e-07,-4.61718750e-04,1.58617969e-02
-1.04968906e-07,-3.46875000e-04,1.60875781e-02
-1.04928906e-07,-1.19531250e-04,1.61340625e-02
-1.04888906e-07,1.38281250e-04,1.59892969e-02
-1.04848906e-07,3.11718750e-04,1.57117188e-02
-1.04808906e-07,3.04687500e-04,1.54142188e-02
-1.04768906e-07,1.05468750e-04,1.52229688e-02
-1.04728906e-07,-1.71093750e-04,1.52123438e-02
-1.04688906e-07,-3.23437500e-04,1.53624219e-02
-1.04648906e-07,-1.80468750e-04,1.55616406e-02
-1.04608906e-07,2.64843750e-04,1.56678906e-02
-1.04568906e-07,8.06250000e-04,1.55988281e-02
-1.04528906e-07,1.11796875e-03,1.53810156e-02
-1.04488906e-07,9.77343750e-04,1.51472656e-02
-1.04448906e-07,4.17187500e-04,1.50556250e-02
-1.04408906e-07,-2.50781250e-04,1.51884375e-02
-1.04368906e-07,-6.39843750e-04,1.54912500e-02
-1.04328906e-07,-5.41406250e-04,1.58033594e-02
-1.04288906e-07,-6.56250000e-05,1.59507813e-02
-1.04248906e-07,4.38281250e-04,1.58578125e-02
-1.04208906e-07,6.37500000e-04,1.55882031e-02
-1.04168906e-07,4.47656250e-04,1.53119531e-02
-1.04128906e-07,7.26562500e-05,1.51910938e-02
-1.04088906e-07,-1.57031250e-04,1.52721094e-02
-1.04048906e-07,-5.39062500e-05,1.54646875e-02
-1.04008906e-07,3.11718750e-04,1.56054688e-02
-1.03968906e-07,6.70312500e-04,1.55749219e-02
-1.03928906e-07,7.78125000e-04,1.53876563e-02
-1.03888906e-07,5.83593750e-04,1.51751563e-02
-1.03848906e-07,2.34375000e-04,1.50967969e-02
-1.03808906e-07,-7.03125000e-05,1.52176563e-02
-1.03768906e-07,-2.25000000e-04,1.54686719e-02
-1.03728906e-07,-2.64843750e-04,1.56904688e-02
-1.03688906e-07,-2.88281250e-04,1.57489063e-02
-1.03648906e-07,-3.44531250e-04,1.56240625e-02
-1.03608906e-07,-3.86718750e-04,1.54155469e-02
-1.03568906e-07,-3.25781250e-04,1.52707813e-02
-1.03528906e-07,-1.31250000e-04,1.52853906e-02
-1.03488906e-07,1.40625000e-04,1.54447656e-02
-1.03448906e-07,3.82031250e-04,1.56453125e-02
-1.03408906e-07,5.06250000e-04,1.57741406e-02
-1.03368906e-07,5.06250000e-04,1.57701563e-02
-1.03328906e-07,4.42968750e-04,1.56519531e-02
-1.03288906e-07,3.91406250e-04,1.54925781e-02
-1.03248906e-07,3.91406250e-04,1.53717188e-02
-1.03208906e-07,4.21875000e-04,1.53318750e-02
-1.03168906e-07,4.33593750e-04,1.53796875e-02
-1.03128906e-07,3.89062500e-04,1.54819531e-02
-1.03088906e-07,2.90625000e-04,1.55975000e-02
-1.03048906e-07,1.94531250e-04,1.56798438e-02
