waveforms/Tek116_ALL/Tek107_ALL.csv

Model,MSO64
Channel,CH1,,Channel,CH2
Waveform Type,ANALOG,,Waveform Type,ANALOG
Horizontal Units,s,,Horizontal Units,s
Sample Interval,4.00000000e-11,,Sample Interval,4.00000000e-11
Record Length,90000,,Record Length,90000
Zero Index,4409.35546875,,Zero Index,4409.35546875
Vertical Units,V,,Vertical Units,V
,,,,
ANALOG_Thumbnail,,,ANALOG_Thumbnail,

TIME,CH1,CH2
-1.76374219e-07,6.32812500e-04,1.54668750e-02
-1.76334219e-07,-2.57812500e-05,1.54687500e-02
-1.76294219e-07,-4.66406250e-04,1.55506250e-02
-1.76254219e-07,-4.17187500e-04,1.56437500e-02
-1.76214219e-07,5.85937500e-05,1.56893750e-02
-1.76174219e-07,6.30468750e-04,1.56687500e-02
-1.76134219e-07,9.39843750e-04,1.56018750e-02
-1.76094219e-07,8.50781250e-04,1.55268750e-02
-1.76054219e-07,5.01562500e-04,1.54756250e-02
-1.76014219e-07,1.75781250e-04,1.54656250e-02
-1.75974219e-07,9.37500000e-05,1.54981250e-02
-1.75934219e-07,2.53125000e-04,1.55568750e-02
-1.75894219e-07,4.87500000e-04,1.56112500e-02
-1.75854219e-07,6.02343750e-04,1.56293750e-02
-1.75814219e-07,5.34375000e-04,1.56000000e-02
-1.75774219e-07,3.75000000e-04,1.55487500e-02
-1.75734219e-07,2.71875000e-04,1.55225000e-02
-1.75694219e-07,2.88281250e-04,1.55625000e-02
-1.75654219e-07,3.63281250e-04,1.56643750e-02
-1.75614219e-07,3.72656250e-04,1.57737500e-02
-1.75574219e-07,2.46093750e-04,1.58206250e-02
-1.75534219e-07,3.75000000e-05,1.57681250e-02
-1.75494219e-07,-1.14843750e-04,1.56406250e-02
-1.75454219e-07,-1.12500000e-04,1.55112500e-02
-1.75414219e-07,3.51562500e-05,1.54525000e-02
-1.75374219e-07,2.20312500e-04,1.54893750e-02
-1.75334219e-07,3.32812500e-04,1.55950000e-02
-1.75294219e-07,3.56250000e-04,1.57106250e-02
-1.75254219e-07,3.65625000e-04,1.57906250e-02
-1.75214219e-07,4.52343750e-04,1.58193750e-02
-1.75174219e-07,6.09375000e-04,1.58037500e-02
-1.75134219e-07,7.35937500e-04,1.57550000e-02
-1.75094219e-07,7.03125000e-04,1.56787500e-02
-1.75054219e-07,4.85156250e-04,1.55856250e-02
-1.75014219e-07,2.03906250e-04,1.55050000e-02
-1.74974219e-07,4.92187500e-05,1.54800000e-02
-1.74934219e-07,1.40625000e-04,1.55393750e-02
-1.74894219e-07,4.21875000e-04,1.56687500e-02
-1.74854219e-07,6.79687500e-04,1.58025000e-02
-1.74814219e-07,7.00781250e-04,1.58618750e-02
-1.74774219e-07,4.33593750e-04,1.58068750e-02
-1.74734219e-07,3.04687500e-05,1.56675000e-02
-1.74694219e-07,-2.53125000e-04,1.55256250e-02
-1.74654219e-07,-2.32031250e-04,1.54606250e-02
-1.74614219e-07,8.67187500e-05,1.54956250e-02
-1.74574219e-07,5.17968750e-04,1.55868750e-02
-1.74534219e-07,8.36718750e-04,1.56618750e-02
-1.74494219e-07,9.18750000e-04,1.56781250e-02
-1.74454219e-07,7.82812500e-04,1.56468750e-02
-1.74414219e-07,5.53125000e-04,1.56175000e-02
-1.74374219e-07,3.44531250e-04,1.56287500e-02
-1.74334219e-07,2.17968750e-04,1.56762500e-02
-1.74294219e-07,1.87500000e-04,1.57187500e-02
-1.74254219e-07,2.39062500e-04,1.57200000e-02
-1.74214219e-07,3.46875000e-04,1.56825000e-02
-1.74174219e-07,4.45312500e-04,1.56450000e-02
-1.74134219e-07,4.33593750e-04,1.56525000e-02
-1.74094219e-07,2.53125000e-04,1.57150000e-02
-1.74054219e-07,-4.21875000e-05,1.58012500e-02
-1.74014219e-07,-2.64843750e-04,1.58618750e-02
-1.73974219e-07,-1.99218750e-04,1.58668750e-02
-1.73934219e-07,2.29687500e-04,1.58212500e-02
-1.73894219e-07,8.36718750e-04,1.57543750e-02
-1.73854219e-07,1.25859375e-03,1.56968750e-02
-1.73814219e-07,1.18359375e-03,1.56618750e-02
-1.73774219e-07,6.00000000e-04,1.56506250e-02
-1.73734219e-07,-1.64062500e-04,1.56612500e-02
-1.73694219e-07,-6.21093750e-04,1.56943750e-02
-1.73654219e-07,-4.66406250e-04,1.57431250e-02
-1.73614219e-07,2.20312500e-04,1.57850000e-02
-1.73574219e-07,1.01484375e-03,1.57931250e-02
-1.73534219e-07,1.44609375e-03,1.57556250e-02
-1.73494219e-07,1.29843750e-03,1.56962500e-02
-1.73454219e-07,7.42968750e-04,1.56612500e-02
-1.73414219e-07,1.92187500e-04,1.56881250e-02
-1.73374219e-07,2.34375000e-06,1.57681250e-02
-1.73334219e-07,2.39062500e-04,1.58462500e-02
-1.73294219e-07,6.75000000e-04,1.58600000e-02
-1.73254219e-07,9.79687500e-04,1.57906250e-02
-1.73214219e-07,9.46875000e-04,1.56825000e-02
-1.73174219e-07,6.23437500e-04,1.56100000e-02
-1.73134219e-07,2.41406250e-04,1.56206250e-02
-1.73094219e-07,3.51562500e-05,1.56937500e-02
-1.73054219e-07,9.60937500e-05,1.57531250e-02
-1.73014219e-07,3.23437500e-04,1.57331250e-02
-1.72974219e-07,5.17968750e-04,1.56306250e-02
-1.72934219e-07,5.13281250e-04,1.55131250e-02
-1.72894219e-07,2.76562500e-04,1.54631250e-02
-1.72854219e-07,-6.09375000e-05,1.55087500e-02
-1.72814219e-07,-2.92968750e-04,1.56012500e-02
-1.72774219e-07,-2.50781250e-04,1.56556250e-02
-1.72734219e-07,9.14062500e-05,1.56262500e-02
-1.72694219e-07,5.92968750e-04,1.55450000e-02
-1.72654219e-07,1.01718750e-03,1.54943750e-02
-1.72614219e-07,1.16718750e-03,1.55318750e-02
-1.72574219e-07,9.93750000e-04,1.56356250e-02
-1.72534219e-07,6.23437500e-04,1.57212500e-02
-1.72494219e-07,2.74218750e-04,1.57156250e-02
-1.72454219e-07,1.21875000e-04,1.56237500e-02
-1.72414219e-07,1.89843750e-04,1.55325000e-02
-1.72374219e-07,3.60937500e-04,1.55350000e-02
-1.72334219e-07,4.54687500e-04,1.56512500e-02
-1.72294219e-07,3.56250000e-04,1.58043750e-02
-1.72254219e-07,9.37500000e-05,1.58825000e-02
-1.72214219e-07,-2.01562500e-04,1.58312500e-02
-1.72174219e-07,-3.65625000e-04,1.56993750e-02
-1.72134219e-07,-3.04687500e-04,1.55981250e-02
-1.72094219e-07,-3.28125000e-05,1.56050000e-02
-1.72054219e-07,3.44531250e-04,1.56987500e-02
-1.72014219e-07,6.84375000e-04,1.57781250e-02
-1.71974219e-07,8.74218750e-04,1.57500000e-02
-1.71934219e-07,8.60156250e-04,1.56100000e-02
-1.71894219e-07,6.67968750e-04,1.54487500e-02
-1.71854219e-07,3.86718750e-04,1.53825000e-02
-1.71814219e-07,1.38281250e-04,1.54593750e-02
-1.71774219e-07,3.98437500e-05,1.56243750e-02
-1.71734219e-07,1.42968750e-04,1.57656250e-02
-1.71694219e-07,4.21875000e-04,1.57950000e-02
-1.71654219e-07,7.61718750e-04,1.57093750e-02
-1.71614219e-07,1.02421875e-03,1.55768750e-02
-1.71574219e-07,1.10156250e-03,1.54793750e-02
-1.71534219e-07,9.89062500e-04,1.54562500e-02
-1.71494219e-07,7.80468750e-04,1.54918750e-02
-1.71454219e-07,6.02343750e-04,1.55456250e-02
-1.71414219e-07,5.36718750e-04,1.55887500e-02
-1.71374219e-07,5.67187500e-04,1.56193750e-02
-1.71334219e-07,5.92968750e-04,1.56475000e-02
-1.71294219e-07,5.06250000e-04,1.56731250e-02
-1.71254219e-07,2.83593750e-04,1.56843750e-02
-1.71214219e-07,4.68750000e-06,1.56712500e-02
-1.71174219e-07,-1.87500000e-04,1.56418750e-02
-1.71134219e-07,-1.92187500e-04,1.56206250e-02
-1.71094219e-07,-2.34375000e-06,1.56293750e-02
-1.71054219e-07,2.85937500e-04,1.56662500e-02
-1.71014219e-07,5.53125000e-04,1.57056250e-02
-1.70974219e-07,7.07812500e-04,1.57200000e-02
-1.70934219e-07,7.28906250e-04,1.56993750e-02
-1.70894219e-07,6.30468750e-04,1.56631250e-02
-1.70854219e-07,4.40625000e-04,1.56431250e-02
-1.70814219e-07,1.96875000e-04,1.56593750e-02
-1.70774219e-07,-4.45312500e-05,1.57043750e-02
-1.70734219e-07,-2.08593750e-04,1.57475000e-02
-1.70694219e-07,-2.29687500e-04,1.57556250e-02
-1.70654219e-07,-1.07812500e-04,1.57206250e-02
-1.70614219e-07,8.43750000e-05,1.56606250e-02
-1.70574219e-07,2.39062500e-04,1.56131250e-02
-1.70534219e-07,2.95312500e-04,1.56056250e-02
-1.70494219e-07,2.92968750e-04,1.56381250e-02
-1.70454219e-07,3.35156250e-04,1.56812500e-02
-1.70414219e-07,4.94531250e-04,1.56918750e-02
-1.70374219e-07,7.33593750e-04,1.56425000e-02
-1.70334219e-07,9.07031250e-04,1.55425000e-02
-1.70294219e-07,8.78906250e-04,1.54381250e-02
-1.70254219e-07,6.28125000e-04,1.53875000e-02
-1.70214219e-07,3.00000000e-04,1.54262500e-02
-1.70174219e-07,1.03125000e-04,1.55425000e-02
-1.70134219e-07,1.75781250e-04,1.56818750e-02
-1.70094219e-07,4.73437500e-04,1.57768750e-02
-1.70054219e-07,7.85156250e-04,1.57868750e-02
-1.70014219e-07,8.88281250e-04,1.57193750e-02
-1.69974219e-07,6.93750000e-04,1.56218750e-02
-1.69934219e-07,3.11718750e-04,1.55481250e-02
-1.69894219e-07,-1.87500000e-05,1.55281250e-02
-1.69854219e-07,-9.84375000e-05,1.55550000e-02
-1.69814219e-07,1.07812500e-04,1.56000000e-02
-1.69774219e-07,4.57031250e-04,1.56325000e-02
-1.69734219e-07,7.31250000e-04,1.56393750e-02
-1.69694219e-07,7.73437500e-04,1.56237500e-02
-1.69654219e-07,5.78906250e-04,1.56012500e-02
-1.69614219e-07,2.67187500e-04,1.55893750e-02
-1.69574219e-07,-4.68750000e-06,1.55975000e-02
-1.69534219e-07,-1.40625000e-04,1.56225000e-02
-1.69494219e-07,-1.21875000e-04,1.56481250e-02
-1.69454219e-07,1.87500000e-05,1.56512500e-02
-1.69414219e-07,2.32031250e-04,1.56162500e-02
-1.69374219e-07,4.61718750e-04,1.55512500e-02
-1.69334219e-07,6.35156250e-04,1.54912500e-02
-1.69294219e-07,6.60937500e-04,1.54787500e-02
-1.69254219e-07,4.87500000e-04,1.55362500e-02
-1.69214219e-07,1.66406250e-04,1.56425000e-02
-1.69174219e-07,-1.38281250e-04,1.57381250e-02
-1.69134219e-07,-2.32031250e-04,1.57656250e-02
-1.69094219e-07,-2.57812500e-05,1.57068750e-02
-1.69054219e-07,3.86718750e-04,1.56018750e-02
-1.69014219e-07,7.71093750e-04,1.55200000e-02
-1.68974219e-07,9.11718750e-04,1.55131250e-02
-1.68934219e-07,7.68750000e-04,1.55743750e-02
-1.68894219e-07,4.96875000e-04,1.56450000e-02
-1.68854219e-07,3.32812500e-04,1.56600000e-02
-1.68814219e-07,4.14843750e-04,1.56000000e-02
-1.68774219e-07,6.75000000e-04,1.55075000e-02
-1.68734219e-07,9.04687500e-04,1.54606250e-02
-1.68694219e-07,9.11718750e-04,1.55112500e-02
-1.68654219e-07,6.63281250e-04,1.56456250e-02
-1.68614219e-07,3.09375000e-04,1.57962500e-02
-1.68574219e-07,7.03125000e-05,1.58862500e-02
-1.68534219e-07,8.20312500e-05,1.58818750e-02
-1.68494219e-07,3.21093750e-04,1.58093750e-02
-1.68454219e-07,6.23437500e-04,1.57268750e-02
-1.68414219e-07,8.03906250e-04,1.56806250e-02
-1.68374219e-07,7.66406250e-04,1.56787500e-02
-1.68334219e-07,5.43750000e-04,1.56925000e-02
-1.68294219e-07,2.74218750e-04,1.56887500e-02
-1.68254219e-07,1.21875000e-04,1.56531250e-02
-1.68214219e-07,1.89843750e-04,1.55937500e-02
-1.68174219e-07,4.64062500e-04,1.55300000e-02
-1.68134219e-07,8.08593750e-04,1.54831250e-02
-1.68094219e-07,1.04296875e-03,1.54706250e-02
-1.68054219e-07,1.02890625e-03,1.55093750e-02
-1.68014219e-07,7.71093750e-04,1.56018750e-02
-1.67974219e-07,4.14843750e-04,1.57256250e-02
-1.67934219e-07,1.66406250e-04,1.58275000e-02
-1.67894219e-07,1.64062500e-04,1.58443750e-02
-1.67854219e-07,3.75000000e-04,1.57493750e-02
-1.67814219e-07,6.28125000e-04,1.55793750e-02
-1.67774219e-07,7.40625000e-04,1.54268750e-02
-1.67734219e-07,6.44531250e-04,1.53843750e-02
-1.67694219e-07,4.42968750e-04,1.54775000e-02
-1.67654219e-07,3.02343750e-04,1.56375000e-02
-1.67614219e-07,3.37500000e-04,1.57462500e-02
-1.67574219e-07,5.06250000e-04,1.57131250e-02
-1.67534219e-07,6.49218750e-04,1.55456250e-02
-1.67494219e-07,6.30468750e-04,1.53425000e-02
-1.67454219e-07,4.45312500e-04,1.52318750e-02
-1.67414219e-07,2.13281250e-04,1.52850000e-02
-1.67374219e-07,9.84375000e-05,1.54750000e-02
-1.67334219e-07,1.68750000e-04,1.57050000e-02
-1.67294219e-07,3.65625000e-04,1.58731250e-02
-1.67254219e-07,5.55468750e-04,1.59306250e-02
-1.67214219e-07,6.32812500e-04,1.58906250e-02
-1.67174219e-07,6.00000000e-04,1.57975000e-02
-1.67134219e-07,5.34375000e-04,1.56906250e-02
-1.67094219e-07,5.08593750e-04,1.55887500e-02
-1.67054219e-07,5.22656250e-04,1.55018750e-02
-1.67014219e-07,5.06250000e-04,1.54456250e-02
-1.66974219e-07,4.00781250e-04,1.54393750e-02
-1.66934219e-07,2.34375000e-04,1.54850000e-02
-1.66894219e-07,1.19531250e-04,1.55581250e-02
-1.66854219e-07,1.78125000e-04,1.56162500e-02
-1.66814219e-07,4.14843750e-04,1.56306250e-02
-1.66774219e-07,6.75000000e-04,1.56068750e-02
-1.66734219e-07,7.35937500e-04,1.55818750e-02
-1.66694219e-07,4.66406250e-04,1.55900000e-02
-1.66654219e-07,-3.04687500e-05,1.56350000e-02
-1.66614219e-07,-4.54687500e-04,1.56837500e-02
-1.66574219e-07,-5.10937500e-04,1.56968750e-02
-1.66534219e-07,-1.21875000e-04,1.56625000e-02
-1.66494219e-07,4.71093750e-04,1.56118750e-02
-1.66454219e-07,8.76562500e-04,1.55956250e-02
-1.66414219e-07,8.32031250e-04,1.56393750e-02
-1.66374219e-07,4.12500000e-04,1.57193750e-02
-1.66334219e-07,-2.10937500e-05,1.57725000e-02
-1.66294219e-07,-9.84375000e-05,1.57431250e-02
-1.66254219e-07,2.74218750e-04,1.56268750e-02
-1.66214219e-07,8.22656250e-04,1.54806250e-02
-1.66174219e-07,1.11562500e-03,1.53850000e-02
-1.66134219e-07,9.02343750e-04,1.53900000e-02
-1.66094219e-07,2.97656250e-04,1.54843750e-02
-1.66054219e-07,-2.90625000e-04,1.56043750e-02
-1.66014219e-07,-4.92187500e-04,1.56850000e-02
-1.65974219e-07,-2.20312500e-04,1.56962500e-02
-1.65934219e-07,2.71875000e-04,1.56600000e-02
-1.65894219e-07,6.28125000e-04,1.56212500e-02
-1.65854219e-07,6.46875000e-04,1.56137500e-02
-1.65814219e-07,4.14843750e-04,1.56393750e-02
-1.65774219e-07,1.80468750e-04,1.56781250e-02
-1.65734219e-07,1.33593750e-04,1.57075000e-02
-1.65694219e-07,2.55468750e-04,1.57175000e-02
-1.65654219e-07,3.91406250e-04,1.57093750e-02
-1.65614219e-07,4.05468750e-04,1.56862500e-02
-1.65574219e-07,3.04687500e-04,1.56518750e-02
-1.65534219e-07,2.15625000e-04,1.56193750e-02
-1.65494219e-07,2.39062500e-04,1.56150000e-02
-1.65454219e-07,3.49218750e-04,1.56662500e-02
-1.65414219e-07,4.14843750e-04,1.57793750e-02
-1.65374219e-07,3.37500000e-04,1.59162500e-02
-1.65334219e-07,1.57031250e-04,1.60043750e-02
-1.65294219e-07,3.04687500e-05,1.59800000e-02
-1.65254219e-07,1.03125000e-04,1.58306250e-02
-1.65214219e-07,3.72656250e-04,1.56143750e-02
-1.65174219e-07,6.82031250e-04,1.54312500e-02
-1.65134219e-07,8.48437500e-04,1.53618750e-02
-1.65094219e-07,8.01562500e-04,1.54175000e-02
-1.65054219e-07,6.42187500e-04,1.55350000e-02
-1.65014219e-07,5.39062500e-04,1.56225000e-02
-1.64974219e-07,5.92968750e-04,1.56193750e-02
-1.64934219e-07,7.40625000e-04,1.55343750e-02
-1.64894219e-07,8.25000000e-04,1.54331250e-02
-1.64854219e-07,7.21875000e-04,1.53900000e-02
-1.64814219e-07,4.47656250e-04,1.54381250e-02
-1.64774219e-07,1.57031250e-04,1.55543750e-02
-1.64734219e-07,2.81250000e-05,1.56781250e-02
-1.64694219e-07,1.35937500e-04,1.57531250e-02
-1.64654219e-07,4.05468750e-04,1.57556250e-02
-1.64614219e-07,6.67968750e-04,1.57012500e-02
-1.64574219e-07,7.68750000e-04,1.56312500e-02
-1.64534219e-07,6.70312500e-04,1.55843750e-02
-1.64494219e-07,4.59375000e-04,1.55800000e-02
-1.64454219e-07,2.78906250e-04,1.56125000e-02
-1.64414219e-07,2.22656250e-04,1.56562500e-02
-1.64374219e-07,2.85937500e-04,1.56800000e-02
-1.64334219e-07,3.75000000e-04,1.56668750e-02
-1.64294219e-07,3.75000000e-04,1.56231250e-02
-1.64254219e-07,2.43750000e-04,1.55756250e-02
-1.64214219e-07,3.51562500e-05,1.55550000e-02
-1.64174219e-07,-1.28906250e-04,1.55750000e-02
-1.64134219e-07,-1.40625000e-04,1.56275000e-02
-1.64094219e-07,7.03125000e-06,1.56856250e-02
-1.64054219e-07,2.29687500e-04,1.57275000e-02
-1.64014219e-07,3.96093750e-04,1.57487500e-02
-1.63974219e-07,4.24218750e-04,1.57650000e-02
-1.63934219e-07,3.30468750e-04,1.57950000e-02
-1.63894219e-07,2.17968750e-04,1.58418750e-02
-1.63854219e-07,1.89843750e-04,1.58862500e-02
-1.63814219e-07,2.76562500e-04,1.58937500e-02
-1.63774219e-07,4.24218750e-04,1.58387500e-02
-1.63734219e-07,5.32031250e-04,1.57243750e-02
-1.63694219e-07,5.36718750e-04,1.55906250e-02
-1.63654219e-07,4.52343750e-04,1.54937500e-02
-1.63614219e-07,3.53906250e-04,1.54806250e-02
-1.63574219e-07,3.00000000e-04,1.55556250e-02
-1.63534219e-07,2.95312500e-04,1.56818750e-02
-1.63494219e-07,3.00000000e-04,1.57962500e-02
-1.63454219e-07,2.76562500e-04,1.58443750e-02
-1.63414219e-07,2.50781250e-04,1.58100000e-02
-1.63374219e-07,2.95312500e-04,1.57168750e-02
-1.63334219e-07,4.64062500e-04,1.56100000e-02
-1.63294219e-07,7.26562500e-04,1.55312500e-02
-1.63254219e-07,9.56250000e-04,1.55050000e-02
-1.63214219e-07,1.00312500e-03,1.55406250e-02
-1.63174219e-07,8.20312500e-04,1.56325000e-02
-1.63134219e-07,4.99218750e-04,1.57600000e-02
-1.63094219e-07,2.32031250e-04,1.58818750e-02
-1.63054219e-07,1.80468750e-04,1.59393750e-02
-1.63014219e-07,3.49218750e-04,1.58881250e-02
-1.62974219e-07,5.85937500e-04,1.57331250e-02
-1.62934219e-07,6.75000000e-04,1.55412500e-02
-1.62894219e-07,5.03906250e-04,1.54156250e-02
-1.62854219e-07,1.57031250e-04,1.54337500e-02
-1.62814219e-07,-1.33593750e-04,1.55881250e-02
-1.62774219e-07,-1.50000000e-04,1.57893750e-02
-1.62734219e-07,1.52343750e-04,1.59193750e-02
-1.62694219e-07,5.95312500e-04,1.59137500e-02
-1.62654219e-07,8.88281250e-04,1.58031250e-02
-1.62614219e-07,8.29687500e-04,1.56837500e-02
-1.62574219e-07,4.50000000e-04,1.56425000e-02
-1.62534219e-07,-9.37500000e-06,1.56875000e-02
-1.62494219e-07,-2.53125000e-04,1.57481250e-02
-1.62454219e-07,-1.35937500e-04,1.57400000e-02
-1.62414219e-07,2.57812500e-04,1.56393750e-02
-1.62374219e-07,6.63281250e-04,1.55093750e-02
-1.62334219e-07,8.36718750e-04,1.54518750e-02
-1.62294219e-07,7.03125000e-04,1.55250000e-02
-1.62254219e-07,3.86718750e-04,1.56931250e-02
-1.62214219e-07,1.19531250e-04,1.58525000e-02
-1.62174219e-07,6.56250000e-05,1.59068750e-02
-1.62134219e-07,2.22656250e-04,1.58318750e-02
-1.62094219e-07,4.40625000e-04,1.56868750e-02
-1.62054219e-07,5.22656250e-04,1.55600000e-02
-1.62014219e-07,3.70312500e-04,1.55037500e-02
-1.61974219e-07,4.21875000e-05,1.55118750e-02
-1.61934219e-07,-2.95312500e-04,1.55425000e-02
-1.61894219e-07,-4.57031250e-04,1.55656250e-02
-1.61854219e-07,-3.70312500e-04,1.55825000e-02
-1.61814219e-07,-9.84375000e-05,1.56106250e-02
-1.61774219e-07,1.92187500e-04,1.56506250e-02
-1.61734219e-07,3.42187500e-04,1.56768750e-02
-1.61694219e-07,2.88281250e-04,1.56593750e-02
-1.61654219e-07,9.84375000e-05,1.55987500e-02
-1.61614219e-07,-8.90625000e-05,1.55350000e-02
-1.61574219e-07,-1.45312500e-04,1.55193750e-02
-1.61534219e-07,-2.57812500e-05,1.55718750e-02
-1.61494219e-07,2.10937500e-04,1.56606250e-02
-1.61454219e-07,4.52343750e-04,1.57275000e-02
-1.61414219e-07,6.02343750e-04,1.57318750e-02
-1.61374219e-07,6.07031250e-04,1.56850000e-02
-1.61334219e-07,4.92187500e-04,1.56362500e-02
-1.61294219e-07,3.28125000e-04,1.56318750e-02
-1.61254219e-07,2.08593750e-04,1.56768750e-02
-1.61214219e-07,2.01562500e-04,1.57300000e-02
-1.61174219e-07,3.32812500e-04,1.57393750e-02
-1.61134219e-07,5.57812500e-04,1.56800000e-02
-1.61094219e-07,7.78125000e-04,1.55718750e-02
-1.61054219e-07,8.81250000e-04,1.54637500e-02
-1.61014219e-07,8.06250000e-04,1.53950000e-02
-1.60974219e-07,5.81250000e-04,1.53800000e-02
-1.60934219e-07,3.18750000e-04,1.54062500e-02
-1.60894219e-07,1.52343750e-04,1.54556250e-02
-1.60854219e-07,1.57031250e-04,1.55175000e-02
-1.60814219e-07,2.90625000e-04,1.55862500e-02
-1.60774219e-07,4.28906250e-04,1.56525000e-02
-1.60734219e-07,4.40625000e-04,1.57006250e-02
-1.60694219e-07,2.74218750e-04,1.57181250e-02
-1.60654219e-07,-2.34375000e-06,1.57075000e-02
-1.60614219e-07,-2.43750000e-04,1.56881250e-02
-1.60574219e-07,-3.21093750e-04,1.56787500e-02
-1.60534219e-07,-1.92187500e-04,1.56837500e-02
-1.60494219e-07,6.56250000e-05,1.56862500e-02
-1.60454219e-07,3.18750000e-04,1.56668750e-02
-1.60414219e-07,4.35937500e-04,1.56212500e-02
-1.60374219e-07,3.58593750e-04,1.55687500e-02
-1.60334219e-07,1.24218750e-04,1.55425000e-02
-1.60294219e-07,-1.57031250e-04,1.55637500e-02
-1.60254219e-07,-3.35156250e-04,1.56243750e-02
-1.60214219e-07,-2.90625000e-04,1.56912500e-02
-1.60174219e-07,2.34375000e-06,1.57237500e-02
-1.60134219e-07,4.61718750e-04,1.56943750e-02
-1.60094219e-07,9.04687500e-04,1.56075000e-02
-1.60054219e-07,1.13906250e-03,1.54981250e-02
-1.60014219e-07,1.08281250e-03,1.54162500e-02
-1.59974219e-07,8.15625000e-04,1.54006250e-02
-1.59934219e-07,5.43750000e-04,1.54556250e-02
-1.59894219e-07,4.61718750e-04,1.55462500e-02
-1.59854219e-07,6.11718750e-04,1.56106250e-02
-1.59814219e-07,8.46093750e-04,1.56056250e-02
-1.59774219e-07,9.42187500e-04,1.55337500e-02
-1.59734219e-07,7.78125000e-04,1.54506250e-02
-1.59694219e-07,4.40625000e-04,1.54262500e-02
-1.59654219e-07,1.73437500e-04,1.54950000e-02
-1.59614219e-07,1.85156250e-04,1.56256250e-02
-1.59574219e-07,4.82812500e-04,1.57418750e-02
-1.59534219e-07,8.41406250e-04,1.57781250e-02
-1.59494219e-07,9.82031250e-04,1.57281250e-02
-1.59454219e-07,7.66406250e-04,1.56468750e-02
-1.59414219e-07,3.04687500e-04,1.56056250e-02
