waveforms/Tek116_ALL/Tek111_ALL.csv

Model,MSO64
Channel,CH1,,Channel,CH2
Waveform Type,ANALOG,,Waveform Type,ANALOG
Horizontal Units,s,,Horizontal Units,s
Sample Interval,4.00000000e-11,,Sample Interval,4.00000000e-11
Record Length,90000,,Record Length,90000
Zero Index,4409.27734375,,Zero Index,4409.27734375
Vertical Units,V,,Vertical Units,V
,,,,
ANALOG_Thumbnail,,,ANALOG_Thumbnail,

TIME,CH1,CH2
-1.76371094e-07,6.65625000e-04,1.52581250e-02
-1.76331094e-07,5.78906250e-04,1.51406250e-02
-1.76291094e-07,6.04687500e-04,1.49800000e-02
-1.76251094e-07,6.56250000e-04,1.48631250e-02
-1.76211094e-07,5.67187500e-04,1.48431250e-02
-1.76171094e-07,2.69531250e-04,1.49156250e-02
-1.76131094e-07,-1.31250000e-04,1.50331250e-02
-1.76091094e-07,-4.00781250e-04,1.51343750e-02
-1.76051094e-07,-3.65625000e-04,1.51743750e-02
-1.76011094e-07,-4.68750000e-05,1.51431250e-02
-1.75971094e-07,3.42187500e-04,1.50681250e-02
-1.75931094e-07,5.46093750e-04,1.49993750e-02
-1.75891094e-07,4.66406250e-04,1.49800000e-02
-1.75851094e-07,2.20312500e-04,1.50175000e-02
-1.75811094e-07,5.62500000e-05,1.50793750e-02
-1.75771094e-07,1.61718750e-04,1.51112500e-02
-1.75731094e-07,5.17968750e-04,1.50781250e-02
-1.75691094e-07,9.07031250e-04,1.49943750e-02
-1.75651094e-07,1.06171875e-03,1.49168750e-02
-1.75611094e-07,8.48437500e-04,1.49050000e-02
-1.75571094e-07,3.51562500e-04,1.49706250e-02
-1.75531094e-07,-1.82812500e-04,1.50687500e-02
-1.75491094e-07,-5.03906250e-04,1.51312500e-02
-1.75451094e-07,-5.10937500e-04,1.51181250e-02
-1.75411094e-07,-2.85937500e-04,1.50481250e-02
-1.75371094e-07,-9.37500000e-06,1.49800000e-02
-1.75331094e-07,1.71093750e-04,1.49612500e-02
-1.75291094e-07,2.29687500e-04,1.49937500e-02
-1.75251094e-07,2.36718750e-04,1.50381250e-02
-1.75211094e-07,2.74218750e-04,1.50562500e-02
-1.75171094e-07,3.51562500e-04,1.50456250e-02
-1.75131094e-07,4.00781250e-04,1.50350000e-02
-1.75091094e-07,3.65625000e-04,1.50500000e-02
-1.75051094e-07,2.60156250e-04,1.50837500e-02
-1.75011094e-07,1.85156250e-04,1.51025000e-02
-1.74971094e-07,2.29687500e-04,1.50825000e-02
-1.74931094e-07,3.79687500e-04,1.50418750e-02
-1.74891094e-07,4.96875000e-04,1.50281250e-02
-1.74851094e-07,4.35937500e-04,1.50762500e-02
-1.74811094e-07,1.75781250e-04,1.51681250e-02
-1.74771094e-07,-1.19531250e-04,1.52412500e-02
-1.74731094e-07,-2.17968750e-04,1.52343750e-02
-1.74691094e-07,2.34375000e-06,1.51425000e-02
-1.74651094e-07,4.17187500e-04,1.50243750e-02
-1.74611094e-07,7.38281250e-04,1.49606250e-02
-1.74571094e-07,7.17187500e-04,1.49925000e-02
-1.74531094e-07,3.56250000e-04,1.50918750e-02
-1.74491094e-07,-7.03125000e-05,1.51868750e-02
-1.74451094e-07,-2.15625000e-04,1.52168750e-02
-1.74411094e-07,7.26562500e-05,1.51743750e-02
-1.74371094e-07,6.25781250e-04,1.50950000e-02
-1.74331094e-07,1.06640625e-03,1.50181250e-02
-1.74291094e-07,1.09218750e-03,1.49543750e-02
-1.74251094e-07,7.00781250e-04,1.48881250e-02
-1.74211094e-07,1.87500000e-04,1.48106250e-02
-1.74171094e-07,-8.67187500e-05,1.47450000e-02
-1.74131094e-07,5.15625000e-05,1.47375000e-02
-1.74091094e-07,4.61718750e-04,1.48131250e-02
-1.74051094e-07,8.22656250e-04,1.49450000e-02
-1.74011094e-07,8.81250000e-04,1.50618750e-02
-1.73971094e-07,6.35156250e-04,1.51000000e-02
-1.73931094e-07,3.07031250e-04,1.50562500e-02
-1.73891094e-07,1.68750000e-04,1.49937500e-02
-1.73851094e-07,3.14062500e-04,1.49906250e-02
-1.73811094e-07,6.18750000e-04,1.50750000e-02
-1.73771094e-07,8.48437500e-04,1.51968750e-02
-1.73731094e-07,8.46093750e-04,1.52631250e-02
-1.73691094e-07,6.37500000e-04,1.52118750e-02
-1.73651094e-07,3.72656250e-04,1.50643750e-02
-1.73611094e-07,1.89843750e-04,1.49168750e-02
-1.73571094e-07,1.14843750e-04,1.48718750e-02
-1.73531094e-07,7.96875000e-05,1.49675000e-02
-1.73491094e-07,1.87500000e-05,1.51531250e-02
-1.73451094e-07,-4.92187500e-05,1.53293750e-02
-1.73411094e-07,-5.15625000e-05,1.54131250e-02
-1.73371094e-07,5.62500000e-05,1.53875000e-02
-1.73331094e-07,2.25000000e-04,1.52931250e-02
-1.73291094e-07,3.39843750e-04,1.51900000e-02
-1.73251094e-07,3.35156250e-04,1.51150000e-02
-1.73211094e-07,2.53125000e-04,1.50681250e-02
-1.73171094e-07,2.27343750e-04,1.50325000e-02
-1.73131094e-07,3.51562500e-04,1.50000000e-02
-1.73091094e-07,5.81250000e-04,1.49800000e-02
-1.73051094e-07,7.50000000e-04,1.49887500e-02
-1.73011094e-07,6.96093750e-04,1.50331250e-02
-1.72971094e-07,3.98437500e-04,1.50987500e-02
-1.72931094e-07,1.40625000e-05,1.51600000e-02
-1.72891094e-07,-2.20312500e-04,1.51918750e-02
-1.72851094e-07,-1.64062500e-04,1.51818750e-02
-1.72811094e-07,1.45312500e-04,1.51318750e-02
-1.72771094e-07,5.03906250e-04,1.50618750e-02
-1.72731094e-07,6.96093750e-04,1.50025000e-02
-1.72691094e-07,6.32812500e-04,1.49906250e-02
-1.72651094e-07,3.98437500e-04,1.50506250e-02
-1.72611094e-07,1.92187500e-04,1.51743750e-02
-1.72571094e-07,1.87500000e-04,1.53162500e-02
-1.72531094e-07,4.28906250e-04,1.54043750e-02
-1.72491094e-07,7.96875000e-04,1.53862500e-02
-1.72451094e-07,1.08046875e-03,1.52637500e-02
-1.72411094e-07,1.08984375e-03,1.51000000e-02
-1.72371094e-07,7.78125000e-04,1.49868750e-02
-1.72331094e-07,2.69531250e-04,1.49831250e-02
-1.72291094e-07,-1.82812500e-04,1.50750000e-02
-1.72251094e-07,-3.42187500e-04,1.51862500e-02
-1.72211094e-07,-1.05468750e-04,1.52325000e-02
-1.72171094e-07,4.24218750e-04,1.51825000e-02
-1.72131094e-07,9.89062500e-04,1.50818750e-02
-1.72091094e-07,1.30546875e-03,1.50125000e-02
-1.72051094e-07,1.23046875e-03,1.50325000e-02
-1.72011094e-07,8.20312500e-04,1.51275000e-02
-1.71971094e-07,2.95312500e-04,1.52256250e-02
-1.71931094e-07,-9.84375000e-05,1.52525000e-02
-1.71891094e-07,-2.20312500e-04,1.51900000e-02
-1.71851094e-07,-7.73437500e-05,1.50843750e-02
-1.71811094e-07,1.94531250e-04,1.50112500e-02
-1.71771094e-07,4.26562500e-04,1.50125000e-02
-1.71731094e-07,4.99218750e-04,1.50700000e-02
-1.71691094e-07,3.89062500e-04,1.51237500e-02
-1.71651094e-07,1.61718750e-04,1.51250000e-02
-1.71611094e-07,-6.79687500e-05,1.50750000e-02
-1.71571094e-07,-1.73437500e-04,1.50168750e-02
-1.71531094e-07,-9.14062500e-05,1.49962500e-02
-1.71491094e-07,1.52343750e-04,1.50218750e-02
-1.71451094e-07,4.33593750e-04,1.50593750e-02
-1.71411094e-07,6.02343750e-04,1.50693750e-02
-1.71371094e-07,5.74218750e-04,1.50443750e-02
-1.71331094e-07,3.89062500e-04,1.50193750e-02
-1.71291094e-07,1.99218750e-04,1.50393750e-02
-1.71251094e-07,1.59375000e-04,1.51156250e-02
-1.71211094e-07,3.07031250e-04,1.52093750e-02
-1.71171094e-07,5.36718750e-04,1.52612500e-02
-1.71131094e-07,6.65625000e-04,1.52425000e-02
-1.71091094e-07,5.85937500e-04,1.51812500e-02
-1.71051094e-07,3.49218750e-04,1.51431250e-02
-1.71011094e-07,1.35937500e-04,1.51700000e-02
-1.70971094e-07,1.14843750e-04,1.52406250e-02
-1.70931094e-07,3.21093750e-04,1.52800000e-02
-1.70891094e-07,6.23437500e-04,1.52187500e-02
-1.70851094e-07,8.34375000e-04,1.50606250e-02
-1.70811094e-07,8.48437500e-04,1.48862500e-02
-1.70771094e-07,7.05468750e-04,1.47981250e-02
-1.70731094e-07,5.27343750e-04,1.48393750e-02
-1.70691094e-07,4.03125000e-04,1.49575000e-02
-1.70651094e-07,3.16406250e-04,1.50462500e-02
-1.70611094e-07,1.99218750e-04,1.50331250e-02
-1.70571094e-07,2.34375000e-05,1.49412500e-02
-1.70531094e-07,-1.35937500e-04,1.48675000e-02
-1.70491094e-07,-1.50000000e-04,1.49012500e-02
-1.70451094e-07,2.57812500e-05,1.50456250e-02
-1.70411094e-07,2.92968750e-04,1.52093750e-02
-1.70371094e-07,4.54687500e-04,1.52818750e-02
-1.70331094e-07,3.65625000e-04,1.52206250e-02
-1.70291094e-07,7.26562500e-05,1.50862500e-02
-1.70251094e-07,-2.08593750e-04,1.49893750e-02
-1.70211094e-07,-2.39062500e-04,1.49993750e-02
-1.70171094e-07,5.15625000e-05,1.50950000e-02
-1.70131094e-07,5.10937500e-04,1.51887500e-02
-1.70091094e-07,8.76562500e-04,1.52075000e-02
-1.70051094e-07,9.60937500e-04,1.51468750e-02
-1.70011094e-07,7.89843750e-04,1.50650000e-02
-1.69971094e-07,5.55468750e-04,1.50181250e-02
-1.69931094e-07,4.66406250e-04,1.50093750e-02
-1.69891094e-07,5.85937500e-04,1.49962500e-02
-1.69851094e-07,7.96875000e-04,1.49443750e-02
-1.69811094e-07,9.11718750e-04,1.48781250e-02
-1.69771094e-07,8.13281250e-04,1.48687500e-02
-1.69731094e-07,5.46093750e-04,1.49681250e-02
-1.69691094e-07,2.81250000e-04,1.51481250e-02
-1.69651094e-07,1.89843750e-04,1.53018750e-02
-1.69611094e-07,3.30468750e-04,1.53143750e-02
-1.69571094e-07,6.11718750e-04,1.51587500e-02
-1.69531094e-07,8.60156250e-04,1.49250000e-02
-1.69491094e-07,9.25781250e-04,1.47681250e-02
-1.69451094e-07,7.57031250e-04,1.47987500e-02
-1.69411094e-07,4.26562500e-04,1.50006250e-02
-1.69371094e-07,8.20312500e-05,1.52418750e-02
-1.69331094e-07,-1.40625000e-04,1.53643750e-02
-1.69291094e-07,-1.71093750e-04,1.52925000e-02
-1.69251094e-07,-2.81250000e-05,1.50793750e-02
-1.69211094e-07,1.92187500e-04,1.48681250e-02
-1.69171094e-07,3.79687500e-04,1.47875000e-02
-1.69131094e-07,4.47656250e-04,1.48725000e-02
-1.69091094e-07,3.84375000e-04,1.50493750e-02
-1.69051094e-07,2.48437500e-04,1.51937500e-02
-1.69011094e-07,1.47656250e-04,1.52181250e-02
-1.68971094e-07,1.73437500e-04,1.51212500e-02
-1.68931094e-07,3.46875000e-04,1.49787500e-02
-1.68891094e-07,6.04687500e-04,1.48831250e-02
-1.68851094e-07,8.29687500e-04,1.48856250e-02
-1.68811094e-07,9.18750000e-04,1.49725000e-02
-1.68771094e-07,8.53125000e-04,1.50887500e-02
-1.68731094e-07,7.07812500e-04,1.51756250e-02
-1.68691094e-07,5.90625000e-04,1.52037500e-02
-1.68651094e-07,5.64843750e-04,1.51768750e-02
-1.68611094e-07,6.14062500e-04,1.51187500e-02
-1.68571094e-07,6.51562500e-04,1.50556250e-02
-1.68531094e-07,5.95312500e-04,1.50125000e-02
-1.68491094e-07,4.35937500e-04,1.50093750e-02
-1.68451094e-07,2.43750000e-04,1.50568750e-02
-1.68411094e-07,1.28906250e-04,1.51431250e-02
-1.68371094e-07,1.64062500e-04,1.52275000e-02
-1.68331094e-07,3.39843750e-04,1.52568750e-02
-1.68291094e-07,5.64843750e-04,1.52012500e-02
-1.68251094e-07,7.19531250e-04,1.50862500e-02
-1.68211094e-07,7.21875000e-04,1.49837500e-02
-1.68171094e-07,5.69531250e-04,1.49737500e-02
-1.68131094e-07,3.49218750e-04,1.50762500e-02
-1.68091094e-07,1.78125000e-04,1.52287500e-02
-1.68051094e-07,1.47656250e-04,1.53206250e-02
-1.68011094e-07,2.50781250e-04,1.52681250e-02
-1.67971094e-07,3.98437500e-04,1.50881250e-02
-1.67931094e-07,4.47656250e-04,1.48931250e-02
-1.67891094e-07,3.14062500e-04,1.48225000e-02
-1.67851094e-07,3.98437500e-05,1.49381250e-02
-1.67811094e-07,-2.20312500e-04,1.51756250e-02
-1.67771094e-07,-2.78906250e-04,1.53843750e-02
-1.67731094e-07,-5.62500000e-05,1.54281250e-02
-1.67691094e-07,3.56250000e-04,1.52825000e-02
-1.67651094e-07,7.33593750e-04,1.50431250e-02
-1.67611094e-07,8.53125000e-04,1.48568750e-02
-1.67571094e-07,6.46875000e-04,1.48181250e-02
-1.67531094e-07,2.36718750e-04,1.49137500e-02
-1.67491094e-07,-1.47656250e-04,1.50518750e-02
-1.67451094e-07,-3.00000000e-04,1.51443750e-02
-1.67411094e-07,-1.73437500e-04,1.51706250e-02
-1.67371094e-07,1.28906250e-04,1.51756250e-02
-1.67331094e-07,4.33593750e-04,1.52100000e-02
-1.67291094e-07,5.97656250e-04,1.52737500e-02
-1.67251094e-07,5.76562500e-04,1.53068750e-02
-1.67211094e-07,4.17187500e-04,1.52487500e-02
-1.67171094e-07,2.01562500e-04,1.50975000e-02
-1.67131094e-07,1.87500000e-05,1.49262500e-02
-1.67091094e-07,-6.56250000e-05,1.48337500e-02
-1.67051094e-07,-1.64062500e-05,1.48700000e-02
-1.67011094e-07,1.38281250e-04,1.50000000e-02
-1.66971094e-07,3.30468750e-04,1.51368750e-02
-1.66931094e-07,4.57031250e-04,1.52081250e-02
-1.66891094e-07,4.33593750e-04,1.52118750e-02
-1.66851094e-07,2.41406250e-04,1.52031250e-02
-1.66811094e-07,-5.85937500e-05,1.52350000e-02
-1.66771094e-07,-3.58593750e-04,1.53031250e-02
-1.66731094e-07,-5.48437500e-04,1.53443750e-02
-1.66691094e-07,-5.60156250e-04,1.52893750e-02
-1.66651094e-07,-4.03125000e-04,1.51268750e-02
-1.66611094e-07,-1.54687500e-04,1.49287500e-02
-1.66571094e-07,6.79687500e-05,1.48043750e-02
-1.66531094e-07,1.68750000e-04,1.48268750e-02
-1.66491094e-07,1.14843750e-04,1.49793750e-02
-1.66451094e-07,-1.40625000e-05,1.51650000e-02
-1.66411094e-07,-8.43750000e-05,1.52693750e-02
-1.66371094e-07,7.03125000e-06,1.52381250e-02
-1.66331094e-07,2.50781250e-04,1.51081250e-02
-1.66291094e-07,5.03906250e-04,1.49775000e-02
-1.66251094e-07,5.92968750e-04,1.49362500e-02
-1.66211094e-07,4.40625000e-04,1.50087500e-02
-1.66171094e-07,1.50000000e-04,1.51387500e-02
-1.66131094e-07,-6.79687500e-05,1.52343750e-02
-1.66091094e-07,-4.45312500e-05,1.52293750e-02
-1.66051094e-07,2.06250000e-04,1.51281250e-02
-1.66011094e-07,4.87500000e-04,1.50000000e-02
-1.65971094e-07,5.60156250e-04,1.49262500e-02
-1.65931094e-07,3.39843750e-04,1.49456250e-02
-1.65891094e-07,-4.21875000e-05,1.50312500e-02
-1.65851094e-07,-3.28125000e-04,1.51156250e-02
-1.65811094e-07,-3.28125000e-04,1.51368750e-02
-1.65771094e-07,-6.09375000e-05,1.50831250e-02
-1.65731094e-07,2.85937500e-04,1.49937500e-02
-1.65691094e-07,5.01562500e-04,1.49275000e-02
-1.65651094e-07,5.10937500e-04,1.49206250e-02
-1.65611094e-07,4.03125000e-04,1.49706250e-02
-1.65571094e-07,3.11718750e-04,1.50406250e-02
-1.65531094e-07,2.92968750e-04,1.50887500e-02
-1.65491094e-07,2.74218750e-04,1.50918750e-02
-1.65451094e-07,1.50000000e-04,1.50556250e-02
-1.65411094e-07,-9.37500000e-05,1.50087500e-02
-1.65371094e-07,-3.42187500e-04,1.49856250e-02
-1.65331094e-07,-4.42968750e-04,1.50118750e-02
-1.65291094e-07,-3.30468750e-04,1.50862500e-02
-1.65251094e-07,-9.60937500e-05,1.51793750e-02
-1.65211094e-07,8.43750000e-05,1.52418750e-02
-1.65171094e-07,9.84375000e-05,1.52362500e-02
-1.65131094e-07,-1.17187500e-05,1.51625000e-02
-1.65091094e-07,-9.14062500e-05,1.50662500e-02
-1.65051094e-07,-1.40625000e-05,1.50175000e-02
-1.65011094e-07,2.06250000e-04,1.50600000e-02
-1.64971094e-07,4.19531250e-04,1.51806250e-02
-1.64931094e-07,4.75781250e-04,1.53087500e-02
-1.64891094e-07,3.58593750e-04,1.53593750e-02
-1.64851094e-07,2.03906250e-04,1.52918750e-02
-1.64811094e-07,2.01562500e-04,1.51375000e-02
-1.64771094e-07,4.35937500e-04,1.49800000e-02
-1.64731094e-07,8.01562500e-04,1.49037500e-02
-1.64691094e-07,1.07578125e-03,1.49400000e-02
-1.64651094e-07,1.07812500e-03,1.50537500e-02
-1.64611094e-07,7.99218750e-04,1.51731250e-02
-1.64571094e-07,4.19531250e-04,1.52375000e-02
-1.64531094e-07,1.78125000e-04,1.52318750e-02
-1.64491094e-07,2.17968750e-04,1.51881250e-02
-1.64451094e-07,4.94531250e-04,1.51556250e-02
-1.64411094e-07,8.06250000e-04,1.51687500e-02
-1.64371094e-07,9.42187500e-04,1.52237500e-02
-1.64331094e-07,8.22656250e-04,1.52837500e-02
-1.64291094e-07,5.39062500e-04,1.53056250e-02
-1.64251094e-07,2.90625000e-04,1.52643750e-02
-1.64211094e-07,2.39062500e-04,1.51718750e-02
-1.64171094e-07,3.96093750e-04,1.50737500e-02
-1.64131094e-07,6.00000000e-04,1.50231250e-02
-1.64091094e-07,6.37500000e-04,1.50475000e-02
-1.64051094e-07,3.96093750e-04,1.51281250e-02
-1.64011094e-07,-3.75000000e-05,1.52068750e-02
-1.63971094e-07,-4.12500000e-04,1.52206250e-02
-1.63931094e-07,-4.75781250e-04,1.51418750e-02
-1.63891094e-07,-1.52343750e-04,1.50025000e-02
-1.63851094e-07,3.91406250e-04,1.48756250e-02
-1.63811094e-07,8.48437500e-04,1.48300000e-02
-1.63771094e-07,9.84375000e-04,1.48818750e-02
-1.63731094e-07,7.85156250e-04,1.49856250e-02
-1.63691094e-07,4.52343750e-04,1.50675000e-02
-1.63651094e-07,2.34375000e-04,1.50787500e-02
-1.63611094e-07,2.39062500e-04,1.50325000e-02
-1.63571094e-07,3.67968750e-04,1.49881250e-02
-1.63531094e-07,4.24218750e-04,1.50025000e-02
-1.63491094e-07,2.88281250e-04,1.50812500e-02
-1.63451094e-07,2.57812500e-05,1.51768750e-02
-1.63411094e-07,-1.68750000e-04,1.52287500e-02
-1.63371094e-07,-1.50000000e-04,1.52175000e-02
-1.63331094e-07,5.85937500e-05,1.51781250e-02
-1.63291094e-07,2.95312500e-04,1.51675000e-02
-1.63251094e-07,3.84375000e-04,1.52087500e-02
-1.63211094e-07,2.95312500e-04,1.52637500e-02
-1.63171094e-07,1.38281250e-04,1.52631250e-02
-1.63131094e-07,5.62500000e-05,1.51687500e-02
-1.63091094e-07,1.05468750e-04,1.50162500e-02
-1.63051094e-07,2.17968750e-04,1.48987500e-02
-1.63011094e-07,2.92968750e-04,1.48950000e-02
-1.62971094e-07,3.09375000e-04,1.50068750e-02
-1.62931094e-07,3.44531250e-04,1.51500000e-02
-1.62891094e-07,4.87500000e-04,1.52168750e-02
-1.62851094e-07,7.24218750e-04,1.51556250e-02
-1.62811094e-07,9.11718750e-04,1.50093750e-02
-1.62771094e-07,8.92968750e-04,1.48812500e-02
-1.62731094e-07,6.32812500e-04,1.48593750e-02
-1.62691094e-07,2.78906250e-04,1.49543750e-02
-1.62651094e-07,6.79687500e-05,1.51043750e-02
-1.62611094e-07,1.57031250e-04,1.52256250e-02
-1.62571094e-07,4.99218750e-04,1.52693750e-02
-1.62531094e-07,8.78906250e-04,1.52456250e-02
-1.62491094e-07,1.06171875e-03,1.51968750e-02
-1.62451094e-07,9.49218750e-04,1.51581250e-02
-1.62411094e-07,6.23437500e-04,1.51368750e-02
-1.62371094e-07,2.57812500e-04,1.51218750e-02
-1.62331094e-07,-2.34375000e-06,1.51025000e-02
-1.62291094e-07,-1.17187500e-04,1.50818750e-02
-1.62251094e-07,-1.26562500e-04,1.50687500e-02
-1.62211094e-07,-9.60937500e-05,1.50625000e-02
-1.62171094e-07,-6.56250000e-05,1.50556250e-02
-1.62131094e-07,-5.15625000e-05,1.50425000e-02
-1.62091094e-07,-6.56250000e-05,1.50343750e-02
-1.62051094e-07,-1.07812500e-04,1.50518750e-02
-1.62011094e-07,-1.54687500e-04,1.51075000e-02
-1.61971094e-07,-1.59375000e-04,1.51850000e-02
-1.61931094e-07,-9.14062500e-05,1.52431250e-02
-1.61891094e-07,2.81250000e-05,1.52431250e-02
-1.61851094e-07,1.17187500e-04,1.51781250e-02
-1.61811094e-07,1.05468750e-04,1.50831250e-02
-1.61771094e-07,4.68750000e-06,1.50156250e-02
-1.61731094e-07,-7.03125000e-05,1.50118750e-02
-1.61691094e-07,9.37500000e-06,1.50631250e-02
-1.61651094e-07,2.81250000e-04,1.51206250e-02
-1.61611094e-07,6.37500000e-04,1.51306250e-02
-1.61571094e-07,8.90625000e-04,1.50743750e-02
-1.61531094e-07,9.02343750e-04,1.49850000e-02
-1.61491094e-07,6.89062500e-04,1.49218750e-02
-1.61451094e-07,3.93750000e-04,1.49300000e-02
-1.61411094e-07,1.80468750e-04,1.50025000e-02
-1.61371094e-07,1.26562500e-04,1.50868750e-02
-1.61331094e-07,2.03906250e-04,1.51175000e-02
-1.61291094e-07,3.30468750e-04,1.50625000e-02
-1.61251094e-07,4.54687500e-04,1.49475000e-02
-1.61211094e-07,5.67187500e-04,1.48393750e-02
-1.61171094e-07,6.53906250e-04,1.48025000e-02
-1.61131094e-07,6.60937500e-04,1.48556250e-02
-1.61091094e-07,5.22656250e-04,1.49618750e-02
-1.61051094e-07,2.39062500e-04,1.50518750e-02
-1.61011094e-07,-7.73437500e-05,1.50668750e-02
-1.60971094e-07,-2.53125000e-04,1.49912500e-02
-1.60931094e-07,-1.61718750e-04,1.48575000e-02
-1.60891094e-07,1.47656250e-04,1.47268750e-02
-1.60851094e-07,4.78125000e-04,1.46587500e-02
-1.60811094e-07,6.00000000e-04,1.46843750e-02
-1.60771094e-07,4.31250000e-04,1.47987500e-02
-1.60731094e-07,9.37500000e-05,1.49637500e-02
-1.60691094e-07,-1.68750000e-04,1.51206250e-02
-1.60651094e-07,-1.85156250e-04,1.52156250e-02
-1.60611094e-07,2.34375000e-05,1.52225000e-02
-1.60571094e-07,2.67187500e-04,1.51562500e-02
-1.60531094e-07,3.42187500e-04,1.50662500e-02
-1.60491094e-07,2.01562500e-04,1.50062500e-02
-1.60451094e-07,-2.10937500e-05,1.50006250e-02
-1.60411094e-07,-1.31250000e-04,1.50306250e-02
-1.60371094e-07,-4.68750000e-05,1.50500000e-02
-1.60331094e-07,1.47656250e-04,1.50250000e-02
-1.60291094e-07,2.78906250e-04,1.49650000e-02
-1.60251094e-07,2.50781250e-04,1.49187500e-02
-1.60211094e-07,1.10156250e-04,1.49356250e-02
-1.60171094e-07,-1.17187500e-05,1.50250000e-02
-1.60131094e-07,-3.28125000e-05,1.51462500e-02
-1.60091094e-07,9.37500000e-06,1.52343750e-02
-1.60051094e-07,9.37500000e-06,1.52443750e-02
-1.60011094e-07,-6.56250000e-05,1.51818750e-02
-1.59971094e-07,-1.14843750e-04,1.50956250e-02
-1.59931094e-07,1.87500000e-05,1.50412500e-02
-1.59891094e-07,3.86718750e-04,1.50475000e-02
-1.59851094e-07,8.39062500e-04,1.50993750e-02
-1.59811094e-07,1.11796875e-03,1.51550000e-02
-1.59771094e-07,1.05234375e-03,1.51706250e-02
-1.59731094e-07,7.12500000e-04,1.51300000e-02
-1.59691094e-07,3.65625000e-04,1.50512500e-02
-1.59651094e-07,2.67187500e-04,1.49787500e-02
-1.59611094e-07,4.42968750e-04,1.49575000e-02
-1.59571094e-07,6.67968750e-04,1.50112500e-02
-1.59531094e-07,6.67968750e-04,1.51225000e-02
-1.59491094e-07,3.51562500e-04,1.52418750e-02
-1.59451094e-07,-8.90625000e-05,1.53112500e-02
