waveforms/Tek116_ALL/Tek103_ALL.csv

Model,MSO64
Channel,CH1,,Channel,CH2
Waveform Type,ANALOG,,Waveform Type,ANALOG
Horizontal Units,s,,Horizontal Units,s
Sample Interval,4.00000000e-11,,Sample Interval,4.00000000e-11
Record Length,90000,,Record Length,90000
Zero Index,4409.16406250,,Zero Index,4409.16406250
Vertical Units,V,,Vertical Units,V
,,,,
ANALOG_Thumbnail,,,ANALOG_Thumbnail,

TIME,CH1,CH2
-1.76366563e-07,2.49375000e-04,1.51956250e-02
-1.76326563e-07,1.29062500e-04,1.52675000e-02
-1.76286563e-07,1.31250000e-04,1.53537500e-02
-1.76246563e-07,2.60312500e-04,1.54100000e-02
-1.76206563e-07,4.50625000e-04,1.54075000e-02
-1.76166563e-07,5.90625000e-04,1.53518750e-02
-1.76126563e-07,6.05937500e-04,1.52787500e-02
-1.76086563e-07,5.14062500e-04,1.52281250e-02
-1.76046563e-07,4.15625000e-04,1.52181250e-02
-1.76006563e-07,4.09062500e-04,1.52331250e-02
-1.75966563e-07,5.14062500e-04,1.52350000e-02
-1.75926563e-07,6.40937500e-04,1.51993750e-02
-1.75886563e-07,6.54062500e-04,1.51425000e-02
-1.75846563e-07,4.79062500e-04,1.51156250e-02
-1.75806563e-07,1.72812500e-04,1.51693750e-02
-1.75766563e-07,-1.09375000e-04,1.53087500e-02
-1.75726563e-07,-2.14375000e-04,1.54831250e-02
-1.75686563e-07,-9.62500000e-05,1.56100000e-02
-1.75646563e-07,1.57500000e-04,1.56318750e-02
-1.75606563e-07,3.87187500e-04,1.55475000e-02
-1.75566563e-07,4.72500000e-04,1.54106250e-02
-1.75526563e-07,3.91562500e-04,1.52912500e-02
-1.75486563e-07,2.23125000e-04,1.52300000e-02
-1.75446563e-07,7.43750000e-05,1.52237500e-02
-1.75406563e-07,1.96875000e-05,1.52456250e-02
-1.75366563e-07,8.31250000e-05,1.52693750e-02
-1.75326563e-07,2.38437500e-04,1.52906250e-02
-1.75286563e-07,4.39687500e-04,1.53212500e-02
-1.75246563e-07,6.36562500e-04,1.53750000e-02
-1.75206563e-07,7.72187500e-04,1.54518750e-02
-1.75166563e-07,7.87500000e-04,1.55362500e-02
-1.75126563e-07,6.49687500e-04,1.56075000e-02
-1.75086563e-07,3.93750000e-04,1.56437500e-02
-1.75046563e-07,1.33437500e-04,1.56350000e-02
-1.75006563e-07,1.53125000e-05,1.55850000e-02
-1.74966563e-07,1.31250000e-04,1.55162500e-02
-1.74926563e-07,4.26562500e-04,1.54625000e-02
-1.74886563e-07,7.15312500e-04,1.54512500e-02
-1.74846563e-07,7.87500000e-04,1.54900000e-02
-1.74806563e-07,5.57812500e-04,1.55581250e-02
-1.74766563e-07,1.50937500e-04,1.56162500e-02
-1.74726563e-07,-1.68437500e-04,1.56331250e-02
-1.74686563e-07,-1.59687500e-04,1.56000000e-02
-1.74646563e-07,1.96875000e-04,1.55368750e-02
-1.74606563e-07,6.80312500e-04,1.54731250e-02
-1.74566563e-07,9.62500000e-04,1.54325000e-02
-1.74526563e-07,8.48750000e-04,1.54162500e-02
-1.74486563e-07,4.09062500e-04,1.54081250e-02
-1.74446563e-07,-5.25000000e-05,1.53881250e-02
-1.74406563e-07,-2.10000000e-04,1.53456250e-02
-1.74366563e-07,5.25000000e-05,1.52868750e-02
-1.74326563e-07,5.62187500e-04,1.52325000e-02
-1.74286563e-07,9.82187500e-04,1.52043750e-02
-1.74246563e-07,1.03468750e-03,1.52162500e-02
-1.74206563e-07,6.84687500e-04,1.52643750e-02
-1.74166563e-07,1.53125000e-04,1.53281250e-02
-1.74126563e-07,-2.36250000e-04,1.53793750e-02
-1.74086563e-07,-2.71250000e-04,1.53975000e-02
-1.74046563e-07,3.93750000e-05,1.53800000e-02
-1.74006563e-07,4.79062500e-04,1.53456250e-02
-1.73966563e-07,7.85312500e-04,1.53193750e-02
-1.73926563e-07,7.98437500e-04,1.53150000e-02
-1.73886563e-07,5.33750000e-04,1.53293750e-02
-1.73846563e-07,1.57500000e-04,1.53475000e-02
-1.73806563e-07,-1.42187500e-04,1.53600000e-02
-1.73766563e-07,-2.47187500e-04,1.53725000e-02
-1.73726563e-07,-1.61875000e-04,1.54006250e-02
-1.73686563e-07,1.75000000e-05,1.54493750e-02
-1.73646563e-07,1.75000000e-04,1.54993750e-02
-1.73606563e-07,2.40625000e-04,1.55181250e-02
-1.73566563e-07,2.29687500e-04,1.54862500e-02
-1.73526563e-07,2.07812500e-04,1.54193750e-02
-1.73486563e-07,2.49375000e-04,1.53662500e-02
-1.73446563e-07,3.69687500e-04,1.53725000e-02
-1.73406563e-07,5.27187500e-04,1.54437500e-02
-1.73366563e-07,6.38750000e-04,1.55318750e-02
-1.73326563e-07,6.43125000e-04,1.55687500e-02
-1.73286563e-07,5.40312500e-04,1.55200000e-02
-1.73246563e-07,3.85000000e-04,1.54125000e-02
-1.73206563e-07,2.55937500e-04,1.53218750e-02
-1.73166563e-07,1.99062500e-04,1.53125000e-02
-1.73126563e-07,2.14375000e-04,1.53881250e-02
-1.73086563e-07,2.64687500e-04,1.54862500e-02
-1.73046563e-07,3.06250000e-04,1.55225000e-02
-1.73006563e-07,3.28125000e-04,1.54568750e-02
-1.72966563e-07,3.39062500e-04,1.53218750e-02
-1.72926563e-07,3.65312500e-04,1.52000000e-02
-1.72886563e-07,4.06875000e-04,1.51606250e-02
-1.72846563e-07,4.41875000e-04,1.52137500e-02
-1.72806563e-07,4.30937500e-04,1.53081250e-02
-1.72766563e-07,3.58750000e-04,1.53725000e-02
-1.72726563e-07,2.45000000e-04,1.53693750e-02
-1.72686563e-07,1.48750000e-04,1.53143750e-02
-1.72646563e-07,1.20312500e-04,1.52562500e-02
-1.72606563e-07,1.66250000e-04,1.52368750e-02
-1.72566563e-07,2.29687500e-04,1.52643750e-02
-1.72526563e-07,2.29687500e-04,1.53187500e-02
-1.72486563e-07,1.20312500e-04,1.53700000e-02
-1.72446563e-07,-4.81250000e-05,1.54025000e-02
-1.72406563e-07,-1.50937500e-04,1.54162500e-02
-1.72366563e-07,-6.56250000e-05,1.54156250e-02
-1.72326563e-07,2.29687500e-04,1.54043750e-02
-1.72286563e-07,6.25625000e-04,1.53837500e-02
-1.72246563e-07,9.29687500e-04,1.53593750e-02
-1.72206563e-07,9.88750000e-04,1.53443750e-02
-1.72166563e-07,7.94062500e-04,1.53500000e-02
-1.72126563e-07,4.76875000e-04,1.53768750e-02
-1.72086563e-07,2.18750000e-04,1.54112500e-02
-1.72046563e-07,1.37812500e-04,1.54375000e-02
-1.72006563e-07,2.18750000e-04,1.54475000e-02
-1.71966563e-07,3.43437500e-04,1.54431250e-02
-1.71926563e-07,3.87187500e-04,1.54312500e-02
-1.71886563e-07,3.23750000e-04,1.54131250e-02
-1.71846563e-07,2.14375000e-04,1.53843750e-02
-1.71806563e-07,1.61875000e-04,1.53412500e-02
-1.71766563e-07,2.12187500e-04,1.52900000e-02
-1.71726563e-07,3.19375000e-04,1.52462500e-02
-1.71686563e-07,3.87187500e-04,1.52268750e-02
-1.71646563e-07,3.50000000e-04,1.52418750e-02
-1.71606563e-07,2.36250000e-04,1.52887500e-02
-1.71566563e-07,1.46562500e-04,1.53581250e-02
-1.71526563e-07,1.79375000e-04,1.54356250e-02
-1.71486563e-07,3.45625000e-04,1.55006250e-02
-1.71446563e-07,5.57812500e-04,1.55281250e-02
-1.71406563e-07,6.86875000e-04,1.54950000e-02
-1.71366563e-07,6.54062500e-04,1.54006250e-02
-1.71326563e-07,4.96562500e-04,1.52756250e-02
-1.71286563e-07,3.19375000e-04,1.51762500e-02
-1.71246563e-07,2.23125000e-04,1.51512500e-02
-1.71206563e-07,2.29687500e-04,1.52106250e-02
-1.71166563e-07,2.80000000e-04,1.53100000e-02
-1.71126563e-07,2.99687500e-04,1.53781250e-02
-1.71086563e-07,2.73437500e-04,1.53643750e-02
-1.71046563e-07,2.45000000e-04,1.52743750e-02
-1.71006563e-07,2.60312500e-04,1.51718750e-02
-1.70966563e-07,3.08437500e-04,1.51318750e-02
-1.70926563e-07,3.01875000e-04,1.51900000e-02
-1.70886563e-07,1.59687500e-04,1.53156250e-02
-1.70846563e-07,-1.11562500e-04,1.54343750e-02
-1.70806563e-07,-3.71875000e-04,1.54768750e-02
-1.70766563e-07,-4.48437500e-04,1.54268750e-02
-1.70726563e-07,-2.55937500e-04,1.53256250e-02
-1.70686563e-07,1.13750000e-04,1.52425000e-02
-1.70646563e-07,4.35312500e-04,1.52275000e-02
-1.70606563e-07,5.00937500e-04,1.52856250e-02
-1.70566563e-07,2.77812500e-04,1.53800000e-02
-1.70526563e-07,-5.68750000e-05,1.54631250e-02
-1.70486563e-07,-2.42812500e-04,1.55062500e-02
-1.70446563e-07,-1.13750000e-04,1.55143750e-02
-1.70406563e-07,2.84375000e-04,1.55118750e-02
-1.70366563e-07,7.28437500e-04,1.55225000e-02
-1.70326563e-07,9.77812500e-04,1.55537500e-02
-1.70286563e-07,9.31875000e-04,1.55875000e-02
-1.70246563e-07,6.95625000e-04,1.55950000e-02
-1.70206563e-07,4.72500000e-04,1.55543750e-02
-1.70166563e-07,4.26562500e-04,1.54706250e-02
-1.70126563e-07,5.70937500e-04,1.53793750e-02
-1.70086563e-07,7.70000000e-04,1.53331250e-02
-1.70046563e-07,8.48750000e-04,1.53706250e-02
-1.70006563e-07,7.13125000e-04,1.54868750e-02
-1.69966563e-07,3.95937500e-04,1.56287500e-02
-1.69926563e-07,3.93750000e-05,1.57187500e-02
-1.69886563e-07,-1.90312500e-04,1.57006250e-02
-1.69846563e-07,-1.96875000e-04,1.55793750e-02
-1.69806563e-07,1.53125000e-05,1.54193750e-02
-1.69766563e-07,3.41250000e-04,1.53087500e-02
-1.69726563e-07,6.34375000e-04,1.53012500e-02
-1.69686563e-07,7.74375000e-04,1.53856250e-02
-1.69646563e-07,7.28437500e-04,1.54943750e-02
-1.69606563e-07,5.60000000e-04,1.55500000e-02
-1.69566563e-07,3.87187500e-04,1.55168750e-02
-1.69526563e-07,3.08437500e-04,1.54206250e-02
-1.69486563e-07,3.43437500e-04,1.53281250e-02
-1.69446563e-07,4.28750000e-04,1.53018750e-02
-1.69406563e-07,4.61562500e-04,1.53618750e-02
-1.69366563e-07,3.87187500e-04,1.54768750e-02
-1.69326563e-07,2.42812500e-04,1.55825000e-02
-1.69286563e-07,1.26875000e-04,1.56206250e-02
-1.69246563e-07,1.33437500e-04,1.55650000e-02
-1.69206563e-07,2.60312500e-04,1.54325000e-02
-1.69166563e-07,4.09062500e-04,1.52743750e-02
-1.69126563e-07,4.48437500e-04,1.51531250e-02
-1.69086563e-07,3.15000000e-04,1.51137500e-02
-1.69046563e-07,8.09375000e-05,1.51606250e-02
-1.69006563e-07,-9.84375000e-05,1.52593750e-02
-1.68966563e-07,-9.84375000e-05,1.53493750e-02
-1.68926563e-07,7.65625000e-05,1.53806250e-02
-1.68886563e-07,2.86562500e-04,1.53437500e-02
-1.68846563e-07,3.67500000e-04,1.52756250e-02
-1.68806563e-07,2.51562500e-04,1.52350000e-02
-1.68766563e-07,3.06250000e-05,1.52612500e-02
-1.68726563e-07,-1.15937500e-04,1.53475000e-02
-1.68686563e-07,-7.00000000e-05,1.54475000e-02
-1.68646563e-07,1.44375000e-04,1.55118750e-02
-1.68606563e-07,3.76250000e-04,1.55206250e-02
-1.68566563e-07,4.63750000e-04,1.54943750e-02
-1.68526563e-07,3.65312500e-04,1.54718750e-02
-1.68486563e-07,1.70625000e-04,1.54781250e-02
-1.68446563e-07,2.62500000e-05,1.55112500e-02
-1.68406563e-07,1.96875000e-05,1.55512500e-02
-1.68366563e-07,1.26875000e-04,1.55800000e-02
-1.68326563e-07,2.55937500e-04,1.55937500e-02
-1.68286563e-07,3.25937500e-04,1.55918750e-02
-1.68246563e-07,3.25937500e-04,1.55650000e-02
-1.68206563e-07,2.86562500e-04,1.55031250e-02
-1.68166563e-07,2.27500000e-04,1.54112500e-02
-1.68126563e-07,1.26875000e-04,1.53262500e-02
-1.68086563e-07,-4.59375000e-05,1.53025000e-02
-1.68046563e-07,-2.66875000e-04,1.53743750e-02
-1.68006563e-07,-4.44062500e-04,1.55118750e-02
-1.67966563e-07,-4.65937500e-04,1.56287500e-02
-1.67926563e-07,-2.97500000e-04,1.56331250e-02
-1.67886563e-07,-2.84375000e-05,1.54968750e-02
-1.67846563e-07,1.85937500e-04,1.52893750e-02
-1.67806563e-07,2.31875000e-04,1.51381250e-02
-1.67766563e-07,1.35625000e-04,1.51431250e-02
-1.67726563e-07,2.84375000e-05,1.53075000e-02
-1.67686563e-07,5.03125000e-05,1.55325000e-02
-1.67646563e-07,2.18750000e-04,1.56843750e-02
-1.67606563e-07,4.09062500e-04,1.56837500e-02
-1.67566563e-07,4.61562500e-04,1.55525000e-02
-1.67526563e-07,3.01875000e-04,1.53875000e-02
-1.67486563e-07,1.96875000e-05,1.52850000e-02
-1.67446563e-07,-2.14375000e-04,1.52818750e-02
-1.67406563e-07,-2.64687500e-04,1.53456250e-02
-1.67366563e-07,-1.24687500e-04,1.54125000e-02
-1.67326563e-07,8.96875000e-05,1.54412500e-02
-1.67286563e-07,2.55937500e-04,1.54318750e-02
-1.67246563e-07,3.25937500e-04,1.54112500e-02
-1.67206563e-07,3.30312500e-04,1.54031250e-02
-1.67166563e-07,3.25937500e-04,1.54112500e-02
-1.67126563e-07,3.19375000e-04,1.54243750e-02
-1.67086563e-07,2.86562500e-04,1.54331250e-02
-1.67046563e-07,2.23125000e-04,1.54387500e-02
-1.67006563e-07,1.90312500e-04,1.54475000e-02
-1.66966563e-07,2.73437500e-04,1.54581250e-02
-1.66926563e-07,4.98750000e-04,1.54618750e-02
-1.66886563e-07,7.72187500e-04,1.54493750e-02
-1.66846563e-07,9.20937500e-04,1.54256250e-02
-1.66806563e-07,8.13750000e-04,1.54068750e-02
-1.66766563e-07,4.68125000e-04,1.54125000e-02
-1.66726563e-07,5.68750000e-05,1.54468750e-02
-1.66686563e-07,-2.03437500e-04,1.54906250e-02
-1.66646563e-07,-1.85937500e-04,1.55118750e-02
-1.66606563e-07,7.00000000e-05,1.54843750e-02
-1.66566563e-07,4.17812500e-04,1.54100000e-02
-1.66526563e-07,7.13125000e-04,1.53237500e-02
-1.66486563e-07,8.85937500e-04,1.52756250e-02
-1.66446563e-07,9.47187500e-04,1.52987500e-02
-1.66406563e-07,9.36250000e-04,1.53881250e-02
-1.66366563e-07,8.81562500e-04,1.54993750e-02
-1.66326563e-07,8.07187500e-04,1.55737500e-02
-1.66286563e-07,7.39375000e-04,1.55756250e-02
-1.66246563e-07,6.91250000e-04,1.55156250e-02
-1.66206563e-07,6.36562500e-04,1.54425000e-02
-1.66166563e-07,5.05312500e-04,1.54043750e-02
-1.66126563e-07,2.42812500e-04,1.54187500e-02
-1.66086563e-07,-1.11562500e-04,1.54562500e-02
-1.66046563e-07,-3.91562500e-04,1.54687500e-02
-1.66006563e-07,-3.91562500e-04,1.54287500e-02
-1.65966563e-07,-3.06250000e-05,1.53525000e-02
-1.65926563e-07,5.60000000e-04,1.52925000e-02
-1.65886563e-07,1.07406250e-03,1.52993750e-02
-1.65846563e-07,1.22937500e-03,1.53812500e-02
-1.65806563e-07,9.62500000e-04,1.54956250e-02
-1.65766563e-07,4.68125000e-04,1.55743750e-02
-1.65726563e-07,5.68750000e-05,1.55668750e-02
-1.65686563e-07,-6.56250000e-05,1.54743750e-02
-1.65646563e-07,7.00000000e-05,1.53481250e-02
-1.65606563e-07,2.53750000e-04,1.52556250e-02
-1.65566563e-07,2.84375000e-04,1.52425000e-02
-1.65526563e-07,1.18125000e-04,1.53087500e-02
-1.65486563e-07,-1.05000000e-04,1.54162500e-02
-1.65446563e-07,-1.85937500e-04,1.55143750e-02
-1.65406563e-07,-3.28125000e-05,1.55625000e-02
-1.65366563e-07,2.86562500e-04,1.55500000e-02
-1.65326563e-07,5.92812500e-04,1.54943750e-02
-1.65286563e-07,7.28437500e-04,1.54293750e-02
-1.65246563e-07,6.56250000e-04,1.53900000e-02
-1.65206563e-07,4.74687500e-04,1.53981250e-02
-1.65166563e-07,3.30312500e-04,1.54487500e-02
-1.65126563e-07,3.39062500e-04,1.55106250e-02
-1.65086563e-07,5.14062500e-04,1.55418750e-02
-1.65046563e-07,7.74375000e-04,1.55125000e-02
-1.65006563e-07,9.97500000e-04,1.54256250e-02
-1.64966563e-07,1.06531250e-03,1.53175000e-02
-1.64926563e-07,9.36250000e-04,1.52375000e-02
-1.64886563e-07,6.45312500e-04,1.52237500e-02
-1.64846563e-07,3.10625000e-04,1.52818750e-02
-1.64806563e-07,7.65625000e-05,1.53868750e-02
-1.64766563e-07,5.25000000e-05,1.55006250e-02
-1.64726563e-07,2.49375000e-04,1.55887500e-02
-1.64686563e-07,5.66562500e-04,1.56350000e-02
-1.64646563e-07,8.24687500e-04,1.56406250e-02
-1.64606563e-07,8.75000000e-04,1.56225000e-02
-1.64566563e-07,6.89062500e-04,1.56043750e-02
-1.64526563e-07,3.89375000e-04,1.56062500e-02
-1.64486563e-07,1.79375000e-04,1.56312500e-02
-1.64446563e-07,2.01250000e-04,1.56606250e-02
-1.64406563e-07,4.39687500e-04,1.56656250e-02
-1.64366563e-07,7.13125000e-04,1.56262500e-02
-1.64326563e-07,7.98437500e-04,1.55525000e-02
-1.64286563e-07,5.79687500e-04,1.54818750e-02
-1.64246563e-07,1.40000000e-04,1.54531250e-02
-1.64206563e-07,-2.93125000e-04,1.54775000e-02
-1.64166563e-07,-4.94375000e-04,1.55256250e-02
-1.64126563e-07,-3.87187500e-04,1.55468750e-02
-1.64086563e-07,-8.53125000e-05,1.55087500e-02
-1.64046563e-07,2.07812500e-04,1.54225000e-02
-1.64006563e-07,3.34687500e-04,1.53362500e-02
-1.63966563e-07,2.88750000e-04,1.53018750e-02
-1.63926563e-07,1.88125000e-04,1.53356250e-02
-1.63886563e-07,1.77187500e-04,1.54100000e-02
-1.63846563e-07,3.15000000e-04,1.54787500e-02
-1.63806563e-07,5.38125000e-04,1.55056250e-02
-1.63766563e-07,7.35000000e-04,1.54862500e-02
-1.63726563e-07,8.09375000e-04,1.54393750e-02
-1.63686563e-07,7.41562500e-04,1.53887500e-02
-1.63646563e-07,5.70937500e-04,1.53487500e-02
-1.63606563e-07,3.67500000e-04,1.53256250e-02
-1.63566563e-07,1.96875000e-04,1.53243750e-02
-1.63526563e-07,1.20312500e-04,1.53475000e-02
-1.63486563e-07,1.68437500e-04,1.53856250e-02
-1.63446563e-07,3.43437500e-04,1.54150000e-02
-1.63406563e-07,5.68750000e-04,1.54118750e-02
-1.63366563e-07,7.21875000e-04,1.53737500e-02
-1.63326563e-07,7.00000000e-04,1.53337500e-02
-1.63286563e-07,4.92187500e-04,1.53443750e-02
-1.63246563e-07,2.27500000e-04,1.54343750e-02
-1.63206563e-07,9.40625000e-05,1.55750000e-02
-1.63166563e-07,2.07812500e-04,1.56893750e-02
-1.63126563e-07,5.18437500e-04,1.56968750e-02
-1.63086563e-07,8.20312500e-04,1.55718750e-02
-1.63046563e-07,8.99062500e-04,1.53693750e-02
-1.63006563e-07,6.75937500e-04,1.51975000e-02
-1.62966563e-07,2.66875000e-04,1.51481250e-02
-1.62926563e-07,-9.40625000e-05,1.52425000e-02
-1.62886563e-07,-2.18750000e-04,1.54193750e-02
-1.62846563e-07,-8.09375000e-05,1.55750000e-02
-1.62806563e-07,1.85937500e-04,1.56250000e-02
-1.62766563e-07,4.04687500e-04,1.55506250e-02
-1.62726563e-07,4.57187500e-04,1.54037500e-02
-1.62686563e-07,3.47812500e-04,1.52731250e-02
-1.62646563e-07,1.53125000e-04,1.52281250e-02
-1.62606563e-07,-2.62500000e-05,1.52825000e-02
-1.62566563e-07,-1.20312500e-04,1.53881250e-02
-1.62526563e-07,-9.84375000e-05,1.54662500e-02
-1.62486563e-07,3.93750000e-05,1.54612500e-02
-1.62446563e-07,2.55937500e-04,1.53762500e-02
-1.62406563e-07,4.68125000e-04,1.52700000e-02
-1.62366563e-07,5.79687500e-04,1.52168750e-02
-1.62326563e-07,5.27187500e-04,1.52531250e-02
-1.62286563e-07,3.54375000e-04,1.53506250e-02
-1.62246563e-07,1.79375000e-04,1.54387500e-02
-1.62206563e-07,1.31250000e-04,1.54568750e-02
-1.62166563e-07,2.40625000e-04,1.53987500e-02
-1.62126563e-07,4.06875000e-04,1.53162500e-02
-1.62086563e-07,4.65937500e-04,1.52781250e-02
-1.62046563e-07,3.39062500e-04,1.53225000e-02
-1.62006563e-07,9.40625000e-05,1.54300000e-02
-1.61966563e-07,-7.65625000e-05,1.55431250e-02
-1.61926563e-07,-2.18750000e-05,1.56062500e-02
-1.61886563e-07,2.51562500e-04,1.55962500e-02
-1.61846563e-07,5.64375000e-04,1.55306250e-02
-1.61806563e-07,7.00000000e-04,1.54450000e-02
-1.61766563e-07,5.68750000e-04,1.53768750e-02
-1.61726563e-07,2.69062500e-04,1.53481250e-02
-1.61686563e-07,2.18750000e-06,1.53656250e-02
-1.61646563e-07,-8.96875000e-05,1.54187500e-02
-1.61606563e-07,-1.53125000e-05,1.54787500e-02
-1.61566563e-07,9.40625000e-05,1.55112500e-02
-1.61526563e-07,1.22500000e-04,1.54900000e-02
-1.61486563e-07,5.46875000e-05,1.54237500e-02
-1.61446563e-07,-1.96875000e-05,1.53575000e-02
-1.61406563e-07,-1.09375000e-05,1.53525000e-02
-1.61366563e-07,9.40625000e-05,1.54412500e-02
-1.61326563e-07,2.34062500e-04,1.55968750e-02
-1.61286563e-07,3.43437500e-04,1.57331250e-02
-1.61246563e-07,4.13437500e-04,1.57568750e-02
-1.61206563e-07,4.92187500e-04,1.56256250e-02
-1.61166563e-07,5.90625000e-04,1.53831250e-02
-1.61126563e-07,6.51875000e-04,1.51425000e-02
-1.61086563e-07,5.68750000e-04,1.50212500e-02
-1.61046563e-07,2.88750000e-04,1.50706250e-02
-1.61006563e-07,-1.11562500e-04,1.52493750e-02
-1.60966563e-07,-4.41875000e-04,1.54487500e-02
-1.60926563e-07,-5.33750000e-04,1.55631250e-02
-1.60886563e-07,-3.50000000e-04,1.55493750e-02
-1.60846563e-07,-2.62500000e-05,1.54418750e-02
-1.60806563e-07,2.31875000e-04,1.53200000e-02
-1.60766563e-07,2.99687500e-04,1.52506250e-02
-1.60726563e-07,2.16562500e-04,1.52525000e-02
-1.60686563e-07,1.53125000e-04,1.52925000e-02
-1.60646563e-07,2.49375000e-04,1.53256250e-02
-1.60606563e-07,5.16250000e-04,1.53306250e-02
-1.60566563e-07,8.00625000e-04,1.53212500e-02
-1.60526563e-07,9.10000000e-04,1.53281250e-02
-1.60486563e-07,7.37187500e-04,1.53706250e-02
-1.60446563e-07,3.47812500e-04,1.54337500e-02
-1.60406563e-07,-7.21875000e-05,1.54850000e-02
-1.60366563e-07,-3.36875000e-04,1.54962500e-02
-1.60326563e-07,-3.65312500e-04,1.54681250e-02
-1.60286563e-07,-2.12187500e-04,1.54262500e-02
-1.60246563e-07,-1.31250000e-05,1.54031250e-02
-1.60206563e-07,1.11562500e-04,1.54093750e-02
-1.60166563e-07,1.31250000e-04,1.54312500e-02
-1.60126563e-07,1.05000000e-04,1.54393750e-02
-1.60086563e-07,1.31250000e-04,1.54100000e-02
-1.60046563e-07,2.77812500e-04,1.53406250e-02
-1.60006563e-07,5.31562500e-04,1.52525000e-02
-1.59966563e-07,7.98437500e-04,1.51781250e-02
-1.59926563e-07,9.51562500e-04,1.51487500e-02
-1.59886563e-07,9.03437500e-04,1.51856250e-02
-1.59846563e-07,6.54062500e-04,1.52850000e-02
-1.59806563e-07,2.99687500e-04,1.54212500e-02
-1.59766563e-07,-1.53125000e-05,1.55525000e-02
-1.59726563e-07,-1.66250000e-04,1.56375000e-02
-1.59686563e-07,-1.13750000e-04,1.56537500e-02
-1.59646563e-07,1.02812500e-04,1.56106250e-02
-1.59606563e-07,3.89375000e-04,1.55368750e-02
-1.59566563e-07,6.40937500e-04,1.54656250e-02
-1.59526563e-07,7.76562500e-04,1.54143750e-02
-1.59486563e-07,7.72187500e-04,1.53862500e-02
-1.59446563e-07,6.47500000e-04,1.53762500e-02
-1.59406563e-07,4.65937500e-04,1.53825000e-02
