waveforms/Tek116_ALL/Tek112_ALL.csv

Model,MSO64
Channel,CH1,,Channel,CH2
Waveform Type,ANALOG,,Waveform Type,ANALOG
Horizontal Units,s,,Horizontal Units,s
Sample Interval,4.00000000e-11,,Sample Interval,4.00000000e-11
Record Length,90000,,Record Length,90000
Zero Index,4409.74218750,,Zero Index,4409.74218750
Vertical Units,V,,Vertical Units,V
,,,,
ANALOG_Thumbnail,,,ANALOG_Thumbnail,

TIME,CH1,CH2
-1.76389688e-07,2.64843750e-04,1.52143750e-02
-1.76349688e-07,1.57031250e-04,1.51512500e-02
-1.76309688e-07,1.66406250e-04,1.51268750e-02
-1.76269688e-07,2.85937500e-04,1.51693750e-02
-1.76229688e-07,4.45312500e-04,1.52675000e-02
-1.76189688e-07,5.76562500e-04,1.53656250e-02
-1.76149688e-07,6.42187500e-04,1.53937500e-02
-1.76109688e-07,6.37500000e-04,1.53193750e-02
-1.76069688e-07,5.64843750e-04,1.51800000e-02
-1.76029688e-07,4.35937500e-04,1.50681250e-02
-1.75989688e-07,2.81250000e-04,1.50675000e-02
-1.75949688e-07,1.71093750e-04,1.51950000e-02
-1.75909688e-07,1.68750000e-04,1.53831250e-02
-1.75869688e-07,2.78906250e-04,1.55243750e-02
-1.75829688e-07,4.19531250e-04,1.55431250e-02
-1.75789688e-07,4.54687500e-04,1.54412500e-02
-1.75749688e-07,3.00000000e-04,1.52937500e-02
-1.75709688e-07,2.34375000e-06,1.51943750e-02
-1.75669688e-07,-2.74218750e-04,1.51993750e-02
-1.75629688e-07,-3.49218750e-04,1.52975000e-02
-1.75589688e-07,-1.68750000e-04,1.54181250e-02
-1.75549688e-07,1.31250000e-04,1.54743750e-02
-1.75509688e-07,3.23437500e-04,1.54093750e-02
-1.75469688e-07,2.48437500e-04,1.52262500e-02
-1.75429688e-07,-6.32812500e-05,1.49975000e-02
-1.75389688e-07,-4.03125000e-04,1.48343750e-02
-1.75349688e-07,-5.41406250e-04,1.48312500e-02
-1.75309688e-07,-3.93750000e-04,1.50112500e-02
-1.75269688e-07,-6.79687500e-05,1.52975000e-02
-1.75229688e-07,2.25000000e-04,1.55512500e-02
-1.75189688e-07,3.49218750e-04,1.56425000e-02
-1.75149688e-07,3.14062500e-04,1.55350000e-02
-1.75109688e-07,2.50781250e-04,1.53043750e-02
-1.75069688e-07,2.64843750e-04,1.50937500e-02
-1.75029688e-07,3.49218750e-04,1.50218750e-02
-1.74989688e-07,4.07812500e-04,1.51131250e-02
-1.74949688e-07,3.63281250e-04,1.52937500e-02
-1.74909688e-07,2.50781250e-04,1.54493750e-02
-1.74869688e-07,1.87500000e-04,1.55012500e-02
-1.74829688e-07,2.57812500e-04,1.54456250e-02
-1.74789688e-07,4.12500000e-04,1.53400000e-02
-1.74749688e-07,4.87500000e-04,1.52506250e-02
-1.74709688e-07,3.49218750e-04,1.52118750e-02
-1.74669688e-07,2.34375000e-05,1.52175000e-02
-1.74629688e-07,-2.95312500e-04,1.52381250e-02
-1.74589688e-07,-3.79687500e-04,1.52512500e-02
-1.74549688e-07,-1.61718750e-04,1.52475000e-02
-1.74509688e-07,2.17968750e-04,1.52293750e-02
-1.74469688e-07,5.15625000e-04,1.52037500e-02
-1.74429688e-07,5.71875000e-04,1.51787500e-02
-1.74389688e-07,4.35937500e-04,1.51693750e-02
-1.74349688e-07,2.88281250e-04,1.51906250e-02
-1.74309688e-07,2.85937500e-04,1.52450000e-02
-1.74269688e-07,4.17187500e-04,1.53125000e-02
-1.74229688e-07,5.29687500e-04,1.53562500e-02
-1.74189688e-07,4.75781250e-04,1.53387500e-02
-1.74149688e-07,2.43750000e-04,1.52537500e-02
-1.74109688e-07,-3.28125000e-05,1.51368750e-02
-1.74069688e-07,-1.99218750e-04,1.50506250e-02
-1.74029688e-07,-1.99218750e-04,1.50506250e-02
-1.73989688e-07,-1.07812500e-04,1.51500000e-02
-1.73949688e-07,-2.57812500e-05,1.53100000e-02
-1.73909688e-07,7.03125000e-06,1.54618750e-02
-1.73869688e-07,3.51562500e-05,1.55431250e-02
-1.73829688e-07,1.14843750e-04,1.55318750e-02
-1.73789688e-07,2.17968750e-04,1.54518750e-02
-1.73749688e-07,2.50781250e-04,1.53537500e-02
-1.73709688e-07,1.47656250e-04,1.52818750e-02
-1.73669688e-07,-3.28125000e-05,1.52518750e-02
-1.73629688e-07,-1.33593750e-04,1.52525000e-02
-1.73589688e-07,-1.17187500e-05,1.52600000e-02
-1.73549688e-07,3.18750000e-04,1.52612500e-02
-1.73509688e-07,6.82031250e-04,1.52575000e-02
-1.73469688e-07,8.50781250e-04,1.52575000e-02
-1.73429688e-07,7.31250000e-04,1.52643750e-02
-1.73389688e-07,4.33593750e-04,1.52706250e-02
-1.73349688e-07,1.82812500e-04,1.52662500e-02
-1.73309688e-07,1.54687500e-04,1.52468750e-02
-1.73269688e-07,3.42187500e-04,1.52150000e-02
-1.73229688e-07,5.81250000e-04,1.51775000e-02
-1.73189688e-07,6.72656250e-04,1.51400000e-02
-1.73149688e-07,5.43750000e-04,1.51131250e-02
-1.73109688e-07,2.64843750e-04,1.51087500e-02
-1.73069688e-07,-2.34375000e-06,1.51381250e-02
-1.73029688e-07,-1.35937500e-04,1.51956250e-02
-1.72989688e-07,-1.07812500e-04,1.52543750e-02
-1.72949688e-07,3.04687500e-05,1.52700000e-02
-1.72909688e-07,2.01562500e-04,1.52168750e-02
-1.72869688e-07,3.46875000e-04,1.51112500e-02
-1.72829688e-07,4.26562500e-04,1.50187500e-02
-1.72789688e-07,4.14843750e-04,1.50143750e-02
-1.72749688e-07,3.07031250e-04,1.51300000e-02
-1.72709688e-07,1.42968750e-04,1.53237500e-02
-1.72669688e-07,2.34375000e-05,1.54975000e-02
-1.72629688e-07,4.68750000e-05,1.55600000e-02
-1.72589688e-07,2.39062500e-04,1.54868750e-02
-1.72549688e-07,5.13281250e-04,1.53356250e-02
-1.72509688e-07,7.12500000e-04,1.52050000e-02
-1.72469688e-07,7.26562500e-04,1.51662500e-02
-1.72429688e-07,5.64843750e-04,1.52231250e-02
-1.72389688e-07,3.58593750e-04,1.53168750e-02
-1.72349688e-07,2.41406250e-04,1.53800000e-02
-1.72309688e-07,2.60156250e-04,1.53843750e-02
-1.72269688e-07,3.30468750e-04,1.53537500e-02
-1.72229688e-07,3.14062500e-04,1.53343750e-02
-1.72189688e-07,1.47656250e-04,1.53500000e-02
-1.72149688e-07,-1.07812500e-04,1.53843750e-02
-1.72109688e-07,-3.00000000e-04,1.53981250e-02
-1.72069688e-07,-2.95312500e-04,1.53662500e-02
-1.72029688e-07,-7.26562500e-05,1.53018750e-02
-1.71989688e-07,2.57812500e-04,1.52462500e-02
-1.71949688e-07,5.34375000e-04,1.52375000e-02
-1.71909688e-07,6.39843750e-04,1.52806250e-02
-1.71869688e-07,5.62500000e-04,1.53412500e-02
-1.71829688e-07,3.89062500e-04,1.53750000e-02
-1.71789688e-07,2.48437500e-04,1.53537500e-02
-1.71749688e-07,2.34375000e-04,1.52868750e-02
-1.71709688e-07,3.65625000e-04,1.52100000e-02
-1.71669688e-07,5.67187500e-04,1.51587500e-02
-1.71629688e-07,7.24218750e-04,1.51512500e-02
-1.71589688e-07,7.35937500e-04,1.51775000e-02
-1.71549688e-07,5.88281250e-04,1.52143750e-02
-1.71509688e-07,3.65625000e-04,1.52406250e-02
-1.71469688e-07,1.96875000e-04,1.52506250e-02
-1.71429688e-07,1.73437500e-04,1.52518750e-02
-1.71389688e-07,2.83593750e-04,1.52593750e-02
-1.71349688e-07,4.12500000e-04,1.52800000e-02
-1.71309688e-07,4.33593750e-04,1.53081250e-02
-1.71269688e-07,3.11718750e-04,1.53268750e-02
-1.71229688e-07,1.47656250e-04,1.53231250e-02
-1.71189688e-07,1.00781250e-04,1.52968750e-02
-1.71149688e-07,2.74218750e-04,1.52612500e-02
-1.71109688e-07,6.04687500e-04,1.52387500e-02
-1.71069688e-07,9.02343750e-04,1.52437500e-02
-1.71029688e-07,9.58593750e-04,1.52750000e-02
-1.70989688e-07,7.10156250e-04,1.53206250e-02
-1.70949688e-07,2.74218750e-04,1.53618750e-02
-1.70909688e-07,-1.26562500e-04,1.53887500e-02
-1.70869688e-07,-3.09375000e-04,1.53968750e-02
-1.70829688e-07,-2.36718750e-04,1.53856250e-02
-1.70789688e-07,-1.87500000e-05,1.53531250e-02
-1.70749688e-07,1.89843750e-04,1.53031250e-02
-1.70709688e-07,2.83593750e-04,1.52487500e-02
-1.70669688e-07,2.53125000e-04,1.52137500e-02
-1.70629688e-07,1.64062500e-04,1.52200000e-02
-1.70589688e-07,9.84375000e-05,1.52712500e-02
-1.70549688e-07,1.14843750e-04,1.53425000e-02
-1.70509688e-07,2.34375000e-04,1.53906250e-02
-1.70469688e-07,4.40625000e-04,1.53787500e-02
-1.70429688e-07,6.70312500e-04,1.53000000e-02
-1.70389688e-07,8.29687500e-04,1.51862500e-02
-1.70349688e-07,8.32031250e-04,1.50887500e-02
-1.70309688e-07,6.46875000e-04,1.50531250e-02
-1.70269688e-07,3.37500000e-04,1.50937500e-02
-1.70229688e-07,3.75000000e-05,1.51912500e-02
-1.70189688e-07,-1.21875000e-04,1.53031250e-02
-1.70149688e-07,-8.20312500e-05,1.53850000e-02
-1.70109688e-07,1.10156250e-04,1.54068750e-02
-1.70069688e-07,3.32812500e-04,1.53625000e-02
-1.70029688e-07,4.66406250e-04,1.52662500e-02
-1.69989688e-07,4.52343750e-04,1.51531250e-02
-1.69949688e-07,3.23437500e-04,1.50650000e-02
-1.69909688e-07,1.71093750e-04,1.50375000e-02
-1.69869688e-07,1.05468750e-04,1.50806250e-02
-1.69829688e-07,1.87500000e-04,1.51737500e-02
-1.69789688e-07,4.05468750e-04,1.52750000e-02
-1.69749688e-07,6.65625000e-04,1.53425000e-02
-1.69709688e-07,8.32031250e-04,1.53568750e-02
-1.69669688e-07,7.94531250e-04,1.53275000e-02
-1.69629688e-07,5.39062500e-04,1.52812500e-02
-1.69589688e-07,1.54687500e-04,1.52462500e-02
-1.69549688e-07,-2.15625000e-04,1.52400000e-02
-1.69509688e-07,-4.52343750e-04,1.52650000e-02
-1.69469688e-07,-5.06250000e-04,1.53156250e-02
-1.69429688e-07,-4.17187500e-04,1.53775000e-02
-1.69389688e-07,-2.53125000e-04,1.54281250e-02
-1.69349688e-07,-7.26562500e-05,1.54456250e-02
-1.69309688e-07,9.60937500e-05,1.54193750e-02
-1.69269688e-07,2.36718750e-04,1.53631250e-02
-1.69229688e-07,3.25781250e-04,1.53081250e-02
-1.69189688e-07,3.46875000e-04,1.52850000e-02
-1.69149688e-07,3.16406250e-04,1.52968750e-02
-1.69109688e-07,2.83593750e-04,1.53193750e-02
-1.69069688e-07,3.00000000e-04,1.53162500e-02
-1.69029688e-07,3.53906250e-04,1.52743750e-02
-1.68989688e-07,3.58593750e-04,1.52143750e-02
-1.68949688e-07,2.15625000e-04,1.51812500e-02
-1.68909688e-07,-8.43750000e-05,1.52037500e-02
-1.68869688e-07,-4.07812500e-04,1.52756250e-02
-1.68829688e-07,-5.29687500e-04,1.53550000e-02
-1.68789688e-07,-2.88281250e-04,1.53937500e-02
-1.68749688e-07,2.69531250e-04,1.53668750e-02
-1.68709688e-07,8.81250000e-04,1.52875000e-02
-1.68669688e-07,1.22109375e-03,1.51912500e-02
-1.68629688e-07,1.10390625e-03,1.51181250e-02
-1.68589688e-07,6.28125000e-04,1.50956250e-02
-1.68549688e-07,1.03125000e-04,1.51306250e-02
-1.68509688e-07,-1.59375000e-04,1.52125000e-02
-1.68469688e-07,-5.62500000e-05,1.53106250e-02
-1.68429688e-07,2.60156250e-04,1.53831250e-02
-1.68389688e-07,5.10937500e-04,1.53956250e-02
-1.68349688e-07,5.13281250e-04,1.53400000e-02
-1.68309688e-07,2.97656250e-04,1.52487500e-02
-1.68269688e-07,5.15625000e-05,1.51775000e-02
-1.68229688e-07,-2.81250000e-05,1.51662500e-02
-1.68189688e-07,9.84375000e-05,1.52087500e-02
-1.68149688e-07,3.16406250e-04,1.52518750e-02
-1.68109688e-07,4.57031250e-04,1.52412500e-02
-1.68069688e-07,4.33593750e-04,1.51693750e-02
-1.68029688e-07,3.02343750e-04,1.50925000e-02
-1.67989688e-07,1.85156250e-04,1.50893750e-02
-1.67949688e-07,1.82812500e-04,1.51943750e-02
-1.67909688e-07,2.81250000e-04,1.53612500e-02
-1.67869688e-07,3.93750000e-04,1.54856250e-02
-1.67829688e-07,4.19531250e-04,1.54831250e-02
-1.67789688e-07,3.30468750e-04,1.53587500e-02
-1.67749688e-07,1.78125000e-04,1.52037500e-02
-1.67709688e-07,4.21875000e-05,1.51343750e-02
-1.67669688e-07,-2.81250000e-05,1.52006250e-02
-1.67629688e-07,-3.98437500e-05,1.53481250e-02
-1.67589688e-07,-2.81250000e-05,1.54656250e-02
-1.67549688e-07,-2.81250000e-05,1.54668750e-02
-1.67509688e-07,-3.28125000e-05,1.53593750e-02
-1.67469688e-07,-9.37500000e-06,1.52350000e-02
-1.67429688e-07,6.56250000e-05,1.51962500e-02
-1.67389688e-07,1.85156250e-04,1.52806250e-02
-1.67349688e-07,3.02343750e-04,1.54312500e-02
-1.67309688e-07,3.65625000e-04,1.55412500e-02
-1.67269688e-07,3.65625000e-04,1.55312500e-02
-1.67229688e-07,3.56250000e-04,1.54012500e-02
-1.67189688e-07,4.21875000e-04,1.52268750e-02
-1.67149688e-07,6.04687500e-04,1.51050000e-02
-1.67109688e-07,8.43750000e-04,1.50968750e-02
-1.67069688e-07,9.82031250e-04,1.51975000e-02
-1.67029688e-07,8.53125000e-04,1.53500000e-02
-1.66989688e-07,4.17187500e-04,1.54831250e-02
-1.66949688e-07,-1.50000000e-04,1.55462500e-02
-1.66909688e-07,-5.39062500e-04,1.55250000e-02
-1.66869688e-07,-4.78125000e-04,1.54387500e-02
-1.66829688e-07,4.21875000e-05,1.53281250e-02
-1.66789688e-07,7.40625000e-04,1.52387500e-02
-1.66749688e-07,1.18828125e-03,1.52106250e-02
-1.66709688e-07,1.10859375e-03,1.52606250e-02
-1.66669688e-07,5.67187500e-04,1.53700000e-02
-1.66629688e-07,-4.45312500e-05,1.54856250e-02
-1.66589688e-07,-2.88281250e-04,1.55418750e-02
-1.66549688e-07,7.03125000e-06,1.54962500e-02
-1.66509688e-07,6.23437500e-04,1.53600000e-02
-1.66469688e-07,1.11093750e-03,1.51943750e-02
-1.66429688e-07,1.10390625e-03,1.50818750e-02
-1.66389688e-07,5.85937500e-04,1.50725000e-02
-1.66349688e-07,-1.07812500e-04,1.51575000e-02
-1.66309688e-07,-5.41406250e-04,1.52743750e-02
-1.66269688e-07,-4.75781250e-04,1.53525000e-02
-1.66229688e-07,-1.64062500e-05,1.53550000e-02
-1.66189688e-07,4.82812500e-04,1.53018750e-02
-1.66149688e-07,6.86718750e-04,1.52456250e-02
-1.66109688e-07,4.96875000e-04,1.52368750e-02
-1.66069688e-07,8.67187500e-05,1.52881250e-02
-1.66029688e-07,-2.48437500e-04,1.53712500e-02
-1.65989688e-07,-3.07031250e-04,1.54400000e-02
-1.65949688e-07,-7.96875000e-05,1.54587500e-02
-1.65909688e-07,2.81250000e-04,1.54200000e-02
-1.65869688e-07,5.92968750e-04,1.53437500e-02
-1.65829688e-07,7.45312500e-04,1.52631250e-02
-1.65789688e-07,7.17187500e-04,1.52087500e-02
-1.65749688e-07,5.39062500e-04,1.51975000e-02
-1.65709688e-07,2.57812500e-04,1.52275000e-02
-1.65669688e-07,-5.62500000e-05,1.52825000e-02
-1.65629688e-07,-3.02343750e-04,1.53393750e-02
-1.65589688e-07,-3.75000000e-04,1.53768750e-02
-1.65549688e-07,-2.43750000e-04,1.53856250e-02
-1.65509688e-07,2.34375000e-06,1.53712500e-02
-1.65469688e-07,1.82812500e-04,1.53506250e-02
-1.65429688e-07,1.73437500e-04,1.53418750e-02
-1.65389688e-07,-2.34375000e-06,1.53537500e-02
-1.65349688e-07,-1.54687500e-04,1.53768750e-02
-1.65309688e-07,-7.26562500e-05,1.53931250e-02
-1.65269688e-07,2.83593750e-04,1.53831250e-02
-1.65229688e-07,7.28906250e-04,1.53468750e-02
-1.65189688e-07,9.60937500e-04,1.53031250e-02
-1.65149688e-07,7.73437500e-04,1.52818750e-02
-1.65109688e-07,2.34375000e-04,1.53056250e-02
-1.65069688e-07,-3.46875000e-04,1.53725000e-02
-1.65029688e-07,-6.23437500e-04,1.54531250e-02
-1.64989688e-07,-4.31250000e-04,1.55018750e-02
-1.64949688e-07,1.07812500e-04,1.54862500e-02
-1.64909688e-07,6.79687500e-04,1.54056250e-02
-1.64869688e-07,1.00078125e-03,1.52943750e-02
-1.64829688e-07,9.65625000e-04,1.52031250e-02
-1.64789688e-07,6.91406250e-04,1.51693750e-02
-1.64749688e-07,3.96093750e-04,1.51981250e-02
-1.64709688e-07,2.50781250e-04,1.52606250e-02
-1.64669688e-07,2.78906250e-04,1.53156250e-02
-1.64629688e-07,3.77343750e-04,1.53318750e-02
-1.64589688e-07,4.07812500e-04,1.53075000e-02
-1.64549688e-07,2.88281250e-04,1.52631250e-02
-1.64509688e-07,5.15625000e-05,1.52293750e-02
-1.64469688e-07,-1.89843750e-04,1.52262500e-02
-1.64429688e-07,-3.07031250e-04,1.52581250e-02
-1.64389688e-07,-2.36718750e-04,1.53143750e-02
-1.64349688e-07,-4.68750000e-06,1.53725000e-02
-1.64309688e-07,2.69531250e-04,1.54093750e-02
-1.64269688e-07,4.57031250e-04,1.54087500e-02
-1.64229688e-07,4.75781250e-04,1.53700000e-02
-1.64189688e-07,3.37500000e-04,1.53112500e-02
-1.64149688e-07,1.38281250e-04,1.52650000e-02
-1.64109688e-07,-1.40625000e-05,1.52587500e-02
-1.64069688e-07,-6.09375000e-05,1.52925000e-02
-1.64029688e-07,-1.17187500e-05,1.53356250e-02
-1.63989688e-07,7.96875000e-05,1.53437500e-02
-1.63949688e-07,1.75781250e-04,1.52931250e-02
-1.63909688e-07,2.64843750e-04,1.52006250e-02
-1.63869688e-07,3.53906250e-04,1.51181250e-02
-1.63829688e-07,4.21875000e-04,1.50931250e-02
-1.63789688e-07,4.14843750e-04,1.51368750e-02
-1.63749688e-07,2.78906250e-04,1.52100000e-02
-1.63709688e-07,3.98437500e-05,1.52525000e-02
-1.63669688e-07,-1.92187500e-04,1.52268750e-02
-1.63629688e-07,-2.81250000e-04,1.51462500e-02
-1.63589688e-07,-1.64062500e-04,1.50662500e-02
-1.63549688e-07,7.96875000e-05,1.50443750e-02
-1.63509688e-07,2.92968750e-04,1.51031250e-02
-1.63469688e-07,3.60937500e-04,1.52137500e-02
-1.63429688e-07,3.09375000e-04,1.53162500e-02
-1.63389688e-07,2.88281250e-04,1.53612500e-02
-1.63349688e-07,4.24218750e-04,1.53400000e-02
-1.63309688e-07,6.82031250e-04,1.52837500e-02
-1.63269688e-07,8.62500000e-04,1.52375000e-02
-1.63229688e-07,7.45312500e-04,1.52250000e-02
-1.63189688e-07,2.83593750e-04,1.52337500e-02
-1.63149688e-07,-3.23437500e-04,1.52312500e-02
-1.63109688e-07,-7.35937500e-04,1.51912500e-02
-1.63069688e-07,-7.19531250e-04,1.51237500e-02
-1.63029688e-07,-3.18750000e-04,1.50700000e-02
-1.62989688e-07,1.78125000e-04,1.50762500e-02
-1.62949688e-07,4.59375000e-04,1.51537500e-02
-1.62909688e-07,4.10156250e-04,1.52718750e-02
-1.62869688e-07,1.96875000e-04,1.53706250e-02
-1.62829688e-07,9.84375000e-05,1.54037500e-02
-1.62789688e-07,2.74218750e-04,1.53612500e-02
-1.62749688e-07,6.25781250e-04,1.52762500e-02
-1.62709688e-07,8.85937500e-04,1.51968750e-02
-1.62669688e-07,8.34375000e-04,1.51556250e-02
-1.62629688e-07,4.85156250e-04,1.51612500e-02
-1.62589688e-07,6.09375000e-05,1.52012500e-02
-1.62549688e-07,-1.82812500e-04,1.52612500e-02
-1.62509688e-07,-1.45312500e-04,1.53318750e-02
-1.62469688e-07,6.56250000e-05,1.53968750e-02
-1.62429688e-07,2.60156250e-04,1.54306250e-02
-1.62389688e-07,3.35156250e-04,1.54025000e-02
-1.62349688e-07,3.37500000e-04,1.53012500e-02
-1.62309688e-07,3.72656250e-04,1.51587500e-02
-1.62269688e-07,4.71093750e-04,1.50406250e-02
-1.62229688e-07,5.41406250e-04,1.50112500e-02
-1.62189688e-07,4.61718750e-04,1.50868750e-02
-1.62149688e-07,2.32031250e-04,1.52187500e-02
-1.62109688e-07,1.40625000e-05,1.53225000e-02
-1.62069688e-07,1.17187500e-05,1.53350000e-02
-1.62029688e-07,3.07031250e-04,1.52625000e-02
-1.61989688e-07,7.31250000e-04,1.51737500e-02
-1.61949688e-07,9.84375000e-04,1.51450000e-02
-1.61909688e-07,8.36718750e-04,1.52018750e-02
-1.61869688e-07,3.32812500e-04,1.53006250e-02
-1.61829688e-07,-2.29687500e-04,1.53675000e-02
-1.61789688e-07,-4.92187500e-04,1.53618750e-02
-1.61749688e-07,-2.81250000e-04,1.53106250e-02
-1.61709688e-07,2.71875000e-04,1.52856250e-02
-1.61669688e-07,8.29687500e-04,1.53387500e-02
-1.61629688e-07,1.07812500e-03,1.54531250e-02
-1.61589688e-07,9.16406250e-04,1.55500000e-02
-1.61549688e-07,4.78125000e-04,1.55468750e-02
-1.61509688e-07,2.34375000e-05,1.54243750e-02
-1.61469688e-07,-2.29687500e-04,1.52431250e-02
-1.61429688e-07,-2.03906250e-04,1.51025000e-02
-1.61389688e-07,2.10937500e-05,1.50743750e-02
-1.61349688e-07,2.83593750e-04,1.51593750e-02
-1.61309688e-07,4.26562500e-04,1.52956250e-02
-1.61269688e-07,3.56250000e-04,1.54037500e-02
-1.61229688e-07,1.03125000e-04,1.54350000e-02
-1.61189688e-07,-1.92187500e-04,1.53893750e-02
-1.61149688e-07,-3.42187500e-04,1.53000000e-02
-1.61109688e-07,-2.27343750e-04,1.52093750e-02
-1.61069688e-07,1.03125000e-04,1.51493750e-02
-1.61029688e-07,4.61718750e-04,1.51381250e-02
-1.60989688e-07,6.35156250e-04,1.51793750e-02
-1.60949688e-07,5.50781250e-04,1.52600000e-02
-1.60909688e-07,3.35156250e-04,1.53481250e-02
-1.60869688e-07,2.15625000e-04,1.53987500e-02
-1.60829688e-07,3.35156250e-04,1.53781250e-02
-1.60789688e-07,6.23437500e-04,1.52831250e-02
-1.60749688e-07,8.64843750e-04,1.51537500e-02
-1.60709688e-07,8.64843750e-04,1.50543750e-02
-1.60669688e-07,6.25781250e-04,1.50406250e-02
-1.60629688e-07,3.28125000e-04,1.51237500e-02
-1.60589688e-07,1.78125000e-04,1.52656250e-02
-1.60549688e-07,2.29687500e-04,1.53962500e-02
-1.60509688e-07,3.44531250e-04,1.54531250e-02
-1.60469688e-07,3.37500000e-04,1.54112500e-02
-1.60429688e-07,1.35937500e-04,1.52956250e-02
-1.60389688e-07,-1.47656250e-04,1.51650000e-02
-1.60349688e-07,-3.14062500e-04,1.50806250e-02
-1.60309688e-07,-2.50781250e-04,1.50818750e-02
-1.60269688e-07,-9.37500000e-06,1.51687500e-02
-1.60229688e-07,2.46093750e-04,1.53050000e-02
-1.60189688e-07,3.91406250e-04,1.54337500e-02
-1.60149688e-07,4.19531250e-04,1.54993750e-02
-1.60109688e-07,4.07812500e-04,1.54706250e-02
-1.60069688e-07,4.17187500e-04,1.53556250e-02
-1.60029688e-07,4.10156250e-04,1.52043750e-02
-1.59989688e-07,3.16406250e-04,1.50862500e-02
-1.59949688e-07,1.17187500e-04,1.50593750e-02
-1.59909688e-07,-8.67187500e-05,1.51337500e-02
-1.59869688e-07,-1.31250000e-04,1.52656250e-02
-1.59829688e-07,6.56250000e-05,1.53825000e-02
-1.59789688e-07,4.19531250e-04,1.54256250e-02
-1.59749688e-07,7.28906250e-04,1.53881250e-02
-1.59709688e-07,8.13281250e-04,1.53125000e-02
-1.59669688e-07,6.58593750e-04,1.52593750e-02
-1.59629688e-07,4.19531250e-04,1.52581250e-02
-1.59589688e-07,2.88281250e-04,1.52918750e-02
-1.59549688e-07,3.46875000e-04,1.53143750e-02
-1.59509688e-07,5.03906250e-04,1.52862500e-02
-1.59469688e-07,5.78906250e-04,1.52037500e-02
