waveforms/Tek116_ALL/Tek102_ALL.csv

Model,MSO64
Channel,CH1,,Channel,CH2
Waveform Type,ANALOG,,Waveform Type,ANALOG
Horizontal Units,s,,Horizontal Units,s
Sample Interval,4.00000000e-11,,Sample Interval,4.00000000e-11
Record Length,90000,,Record Length,90000
Zero Index,4409.48437500,,Zero Index,4409.48437500
Vertical Units,V,,Vertical Units,V
,,,,
ANALOG_Thumbnail,,,ANALOG_Thumbnail,

TIME,CH1,CH2
-1.76379375e-07,1.44375000e-04,1.55881250e-02
-1.76339375e-07,4.02500000e-04,1.55012500e-02
-1.76299375e-07,7.59062500e-04,1.53637500e-02
-1.76259375e-07,9.53750000e-04,1.52556250e-02
-1.76219375e-07,8.35625000e-04,1.52231250e-02
-1.76179375e-07,4.57187500e-04,1.52606250e-02
-1.76139375e-07,2.84375000e-05,1.53268750e-02
-1.76099375e-07,-2.27500000e-04,1.53793750e-02
-1.76059375e-07,-2.16562500e-04,1.53987500e-02
-1.76019375e-07,-6.56250000e-06,1.53875000e-02
-1.75979375e-07,2.53750000e-04,1.53587500e-02
-1.75939375e-07,4.41875000e-04,1.53275000e-02
-1.75899375e-07,5.40312500e-04,1.53131250e-02
-1.75859375e-07,6.01562500e-04,1.53350000e-02
-1.75819375e-07,6.71562500e-04,1.54025000e-02
-1.75779375e-07,7.35000000e-04,1.55000000e-02
-1.75739375e-07,7.19687500e-04,1.55825000e-02
-1.75699375e-07,5.79687500e-04,1.56006250e-02
-1.75659375e-07,3.43437500e-04,1.55331250e-02
-1.75619375e-07,1.22500000e-04,1.54081250e-02
-1.75579375e-07,3.93750000e-05,1.52887500e-02
-1.75539375e-07,1.50937500e-04,1.52318750e-02
-1.75499375e-07,4.06875000e-04,1.52525000e-02
-1.75459375e-07,6.82500000e-04,1.53150000e-02
-1.75419375e-07,8.57500000e-04,1.53631250e-02
-1.75379375e-07,8.79375000e-04,1.53650000e-02
-1.75339375e-07,7.59062500e-04,1.53343750e-02
-1.75299375e-07,5.55625000e-04,1.53181250e-02
-1.75259375e-07,3.23750000e-04,1.53575000e-02
-1.75219375e-07,1.11562500e-04,1.54543750e-02
-1.75179375e-07,-4.15625000e-05,1.55662500e-02
-1.75139375e-07,-1.02812500e-04,1.56300000e-02
-1.75099375e-07,-5.46875000e-05,1.56006250e-02
-1.75059375e-07,7.21875000e-05,1.54825000e-02
-1.75019375e-07,2.05625000e-04,1.53275000e-02
-1.74979375e-07,2.73437500e-04,1.52075000e-02
-1.74939375e-07,2.47187500e-04,1.51768750e-02
-1.74899375e-07,1.68437500e-04,1.52406250e-02
-1.74859375e-07,1.20312500e-04,1.53556250e-02
-1.74819375e-07,1.72812500e-04,1.54587500e-02
-1.74779375e-07,3.28125000e-04,1.55018750e-02
-1.74739375e-07,5.22812500e-04,1.54812500e-02
-1.74699375e-07,6.67187500e-04,1.54293750e-02
-1.74659375e-07,6.97812500e-04,1.53918750e-02
-1.74619375e-07,6.12500000e-04,1.53950000e-02
-1.74579375e-07,4.61562500e-04,1.54312500e-02
-1.74539375e-07,3.17187500e-04,1.54725000e-02
-1.74499375e-07,2.31875000e-04,1.54906250e-02
-1.74459375e-07,2.27500000e-04,1.54800000e-02
-1.74419375e-07,2.75625000e-04,1.54543750e-02
-1.74379375e-07,3.19375000e-04,1.54356250e-02
-1.74339375e-07,2.86562500e-04,1.54368750e-02
-1.74299375e-07,1.40000000e-04,1.54518750e-02
-1.74259375e-07,-1.00625000e-04,1.54618750e-02
-1.74219375e-07,-3.47812500e-04,1.54500000e-02
-1.74179375e-07,-4.83437500e-04,1.54131250e-02
-1.74139375e-07,-4.37500000e-04,1.53668750e-02
-1.74099375e-07,-2.34062500e-04,1.53331250e-02
-1.74059375e-07,2.18750000e-06,1.53268750e-02
-1.74019375e-07,1.24687500e-04,1.53412500e-02
-1.73979375e-07,6.34375000e-05,1.53493750e-02
-1.73939375e-07,-1.26875000e-04,1.53287500e-02
-1.73899375e-07,-3.06250000e-04,1.52781250e-02
-1.73859375e-07,-3.36875000e-04,1.52250000e-02
-1.73819375e-07,-1.79375000e-04,1.52062500e-02
-1.73779375e-07,8.09375000e-05,1.52356250e-02
-1.73739375e-07,3.06250000e-04,1.52868750e-02
-1.73699375e-07,4.02500000e-04,1.53131250e-02
-1.73659375e-07,3.67500000e-04,1.52843750e-02
-1.73619375e-07,2.80000000e-04,1.52156250e-02
-1.73579375e-07,2.27500000e-04,1.51581250e-02
-1.73539375e-07,2.42812500e-04,1.51537500e-02
-1.73499375e-07,2.99687500e-04,1.51987500e-02
-1.73459375e-07,3.45625000e-04,1.52425000e-02
-1.73419375e-07,3.45625000e-04,1.52343750e-02
-1.73379375e-07,3.06250000e-04,1.51743750e-02
-1.73339375e-07,2.58125000e-04,1.51212500e-02
-1.73299375e-07,2.29687500e-04,1.51437500e-02
-1.73259375e-07,2.34062500e-04,1.52531250e-02
-1.73219375e-07,2.73437500e-04,1.53793750e-02
-1.73179375e-07,3.54375000e-04,1.54212500e-02
-1.73139375e-07,4.68125000e-04,1.53306250e-02
-1.73099375e-07,5.86250000e-04,1.51631250e-02
-1.73059375e-07,6.58437500e-04,1.50450000e-02
-1.73019375e-07,6.19062500e-04,1.50718750e-02
-1.72979375e-07,4.48437500e-04,1.52318750e-02
-1.72939375e-07,1.92500000e-04,1.54106250e-02
-1.72899375e-07,-5.25000000e-05,1.54825000e-02
-1.72859375e-07,-1.72812500e-04,1.54131250e-02
-1.72819375e-07,-1.24687500e-04,1.52850000e-02
-1.72779375e-07,5.46875000e-05,1.52250000e-02
-1.72739375e-07,2.64687500e-04,1.52937500e-02
-1.72699375e-07,4.11250000e-04,1.54350000e-02
-1.72659375e-07,4.59375000e-04,1.55231250e-02
-1.72619375e-07,4.39687500e-04,1.54750000e-02
-1.72579375e-07,4.00312500e-04,1.53212500e-02
-1.72539375e-07,3.74062500e-04,1.51875000e-02
-1.72499375e-07,3.50000000e-04,1.51862500e-02
-1.72459375e-07,3.01875000e-04,1.53287500e-02
-1.72419375e-07,2.31875000e-04,1.55162500e-02
-1.72379375e-07,1.64062500e-04,1.56231250e-02
-1.72339375e-07,1.31250000e-04,1.55962500e-02
-1.72299375e-07,1.40000000e-04,1.54900000e-02
-1.72259375e-07,1.61875000e-04,1.54068750e-02
-1.72219375e-07,1.77187500e-04,1.54081250e-02
-1.72179375e-07,1.94687500e-04,1.54681250e-02
-1.72139375e-07,2.45000000e-04,1.55100000e-02
-1.72099375e-07,3.36875000e-04,1.54881250e-02
-1.72059375e-07,4.17812500e-04,1.54368750e-02
-1.72019375e-07,3.93750000e-04,1.54350000e-02
-1.71979375e-07,2.18750000e-04,1.55237500e-02
-1.71939375e-07,-3.50000000e-05,1.56525000e-02
-1.71899375e-07,-2.01250000e-04,1.57050000e-02
-1.71859375e-07,-1.35625000e-04,1.55975000e-02
-1.71819375e-07,1.55312500e-04,1.53625000e-02
-1.71779375e-07,4.83437500e-04,1.51437500e-02
-1.71739375e-07,5.95000000e-04,1.50975000e-02
-1.71699375e-07,3.71875000e-04,1.52750000e-02
-1.71659375e-07,-6.56250000e-05,1.55768750e-02
-1.71619375e-07,-4.11250000e-04,1.58212500e-02
-1.71579375e-07,-3.95937500e-04,1.58725000e-02
-1.71539375e-07,1.53125000e-05,1.57331250e-02
-1.71499375e-07,5.84062500e-04,1.55312500e-02
-1.71459375e-07,9.66875000e-04,1.54193750e-02
-1.71419375e-07,9.62500000e-04,1.54606250e-02
-1.71379375e-07,6.45312500e-04,1.55993750e-02
-1.71339375e-07,3.01875000e-04,1.57187500e-02
-1.71299375e-07,2.16562500e-04,1.57375000e-02
-1.71259375e-07,4.74687500e-04,1.56656250e-02
-1.71219375e-07,9.07812500e-04,1.55812500e-02
-1.71179375e-07,1.22718750e-03,1.55506250e-02
-1.71139375e-07,1.22281250e-03,1.55737500e-02
-1.71099375e-07,8.88125000e-04,1.55918750e-02
-1.71059375e-07,4.00312500e-04,1.55481250e-02
-1.71019375e-07,-8.75000000e-06,1.54475000e-02
-1.70979375e-07,-1.88125000e-04,1.53531250e-02
-1.70939375e-07,-1.35625000e-04,1.53337500e-02
-1.70899375e-07,3.50000000e-05,1.54006250e-02
-1.70859375e-07,1.85937500e-04,1.54950000e-02
-1.70819375e-07,2.42812500e-04,1.55406250e-02
-1.70779375e-07,2.12187500e-04,1.55068750e-02
-1.70739375e-07,1.75000000e-04,1.54350000e-02
-1.70699375e-07,2.12187500e-04,1.53981250e-02
-1.70659375e-07,3.50000000e-04,1.54306250e-02
-1.70619375e-07,5.35937500e-04,1.54993750e-02
-1.70579375e-07,6.69375000e-04,1.55287500e-02
-1.70539375e-07,6.69375000e-04,1.54725000e-02
-1.70499375e-07,5.31562500e-04,1.53562500e-02
-1.70459375e-07,3.41250000e-04,1.52600000e-02
-1.70419375e-07,2.07812500e-04,1.52487500e-02
-1.70379375e-07,1.92500000e-04,1.53237500e-02
-1.70339375e-07,2.66875000e-04,1.54200000e-02
-1.70299375e-07,3.39062500e-04,1.54675000e-02
-1.70259375e-07,3.41250000e-04,1.54481250e-02
-1.70219375e-07,2.75625000e-04,1.54031250e-02
-1.70179375e-07,2.10000000e-04,1.53931250e-02
-1.70139375e-07,2.16562500e-04,1.54418750e-02
-1.70099375e-07,2.86562500e-04,1.55187500e-02
-1.70059375e-07,3.52187500e-04,1.55681250e-02
-1.70019375e-07,3.41250000e-04,1.55593750e-02
-1.69979375e-07,2.55937500e-04,1.55056250e-02
-1.69939375e-07,1.79375000e-04,1.54418750e-02
-1.69899375e-07,1.94687500e-04,1.53875000e-02
-1.69859375e-07,3.04062500e-04,1.53350000e-02
-1.69819375e-07,4.11250000e-04,1.52718750e-02
-1.69779375e-07,4.00312500e-04,1.52081250e-02
-1.69739375e-07,2.47187500e-04,1.51850000e-02
-1.69699375e-07,6.12500000e-05,1.52387500e-02
-1.69659375e-07,0.00000000e+00,1.53612500e-02
-1.69619375e-07,1.24687500e-04,1.54881250e-02
-1.69579375e-07,3.45625000e-04,1.55375000e-02
-1.69539375e-07,4.74687500e-04,1.54768750e-02
-1.69499375e-07,3.85000000e-04,1.53481250e-02
-1.69459375e-07,1.37812500e-04,1.52443750e-02
-1.69419375e-07,-6.78125000e-05,1.52375000e-02
-1.69379375e-07,-3.71875000e-05,1.53250000e-02
-1.69339375e-07,2.38437500e-04,1.54293750e-02
-1.69299375e-07,5.79687500e-04,1.54618750e-02
-1.69259375e-07,7.37187500e-04,1.53887500e-02
-1.69219375e-07,5.90625000e-04,1.52575000e-02
-1.69179375e-07,2.27500000e-04,1.51575000e-02
-1.69139375e-07,-1.20312500e-04,1.51525000e-02
-1.69099375e-07,-2.51562500e-04,1.52306250e-02
-1.69059375e-07,-1.18125000e-04,1.53237500e-02
-1.69019375e-07,1.64062500e-04,1.53612500e-02
-1.68979375e-07,4.24375000e-04,1.53256250e-02
-1.68939375e-07,5.46875000e-04,1.52618750e-02
-1.68899375e-07,5.22812500e-04,1.52375000e-02
-1.68859375e-07,4.13437500e-04,1.52881250e-02
-1.68819375e-07,3.04062500e-04,1.53925000e-02
-1.68779375e-07,2.47187500e-04,1.54893750e-02
-1.68739375e-07,2.73437500e-04,1.55243750e-02
-1.68699375e-07,3.78437500e-04,1.54850000e-02
-1.68659375e-07,5.25000000e-04,1.54037500e-02
-1.68619375e-07,6.47500000e-04,1.53287500e-02
-1.68579375e-07,6.58437500e-04,1.52931250e-02
-1.68539375e-07,5.07500000e-04,1.52950000e-02
-1.68499375e-07,2.12187500e-04,1.53106250e-02
-1.68459375e-07,-1.29062500e-04,1.53137500e-02
-1.68419375e-07,-3.80625000e-04,1.52968750e-02
-1.68379375e-07,-4.30937500e-04,1.52743750e-02
-1.68339375e-07,-2.60312500e-04,1.52650000e-02
-1.68299375e-07,5.03125000e-05,1.52806250e-02
-1.68259375e-07,3.60937500e-04,1.53162500e-02
-1.68219375e-07,5.31562500e-04,1.53562500e-02
-1.68179375e-07,5.11875000e-04,1.53887500e-02
-1.68139375e-07,3.67500000e-04,1.54075000e-02
-1.68099375e-07,2.49375000e-04,1.54137500e-02
-1.68059375e-07,2.93125000e-04,1.54068750e-02
-1.68019375e-07,5.27187500e-04,1.53825000e-02
-1.67979375e-07,8.20312500e-04,1.53381250e-02
-1.67939375e-07,9.51562500e-04,1.52825000e-02
-1.67899375e-07,7.65625000e-04,1.52400000e-02
-1.67859375e-07,2.97500000e-04,1.52368750e-02
-1.67819375e-07,-2.10000000e-04,1.52862500e-02
-1.67779375e-07,-4.59375000e-04,1.53737500e-02
-1.67739375e-07,-2.99687500e-04,1.54618750e-02
-1.67699375e-07,1.50937500e-04,1.55100000e-02
-1.67659375e-07,5.77500000e-04,1.55018750e-02
-1.67619375e-07,6.69375000e-04,1.54550000e-02
-1.67579375e-07,3.54375000e-04,1.54143750e-02
-1.67539375e-07,-1.48750000e-04,1.54231250e-02
-1.67499375e-07,-4.83437500e-04,1.54975000e-02
-1.67459375e-07,-3.98125000e-04,1.56106250e-02
-1.67419375e-07,7.00000000e-05,1.57056250e-02
-1.67379375e-07,6.21250000e-04,1.57275000e-02
-1.67339375e-07,9.14375000e-04,1.56568750e-02
-1.67299375e-07,7.76562500e-04,1.55256250e-02
-1.67259375e-07,3.17187500e-04,1.54018750e-02
-1.67219375e-07,-1.70625000e-04,1.53518750e-02
-1.67179375e-07,-4.13437500e-04,1.53943750e-02
-1.67139375e-07,-3.15000000e-04,1.54925000e-02
-1.67099375e-07,2.40625000e-05,1.55775000e-02
-1.67059375e-07,4.02500000e-04,1.55937500e-02
-1.67019375e-07,6.65000000e-04,1.55368750e-02
-1.66979375e-07,7.63437500e-04,1.54562500e-02
-1.66939375e-07,7.43750000e-04,1.54156250e-02
-1.66899375e-07,6.56250000e-04,1.54487500e-02
-1.66859375e-07,5.33750000e-04,1.55362500e-02
-1.66819375e-07,3.87187500e-04,1.56162500e-02
-1.66779375e-07,2.49375000e-04,1.56331250e-02
-1.66739375e-07,1.85937500e-04,1.55712500e-02
-1.66699375e-07,2.47187500e-04,1.54687500e-02
-1.66659375e-07,4.11250000e-04,1.53925000e-02
-1.66619375e-07,5.73125000e-04,1.53925000e-02
-1.66579375e-07,5.92812500e-04,1.54737500e-02
-1.66539375e-07,4.24375000e-04,1.55893750e-02
-1.66499375e-07,1.61875000e-04,1.56712500e-02
-1.66459375e-07,8.75000000e-06,1.56675000e-02
-1.66419375e-07,1.37812500e-04,1.55756250e-02
-1.66379375e-07,5.53437500e-04,1.54437500e-02
-1.66339375e-07,1.05656250e-03,1.53468750e-02
-1.66299375e-07,1.35843750e-03,1.53418750e-02
-1.66259375e-07,1.28406250e-03,1.54362500e-02
-1.66219375e-07,8.88125000e-04,1.55768750e-02
-1.66179375e-07,4.33125000e-04,1.56793750e-02
-1.66139375e-07,2.01250000e-04,1.56787500e-02
-1.66099375e-07,3.10625000e-04,1.55681250e-02
-1.66059375e-07,6.36562500e-04,1.54025000e-02
-1.66019375e-07,9.05625000e-04,1.52656250e-02
-1.65979375e-07,9.03437500e-04,1.52156250e-02
-1.65939375e-07,6.01562500e-04,1.52506250e-02
-1.65899375e-07,1.72812500e-04,1.53162500e-02
-1.65859375e-07,-1.50937500e-04,1.53468750e-02
-1.65819375e-07,-2.31875000e-04,1.53075000e-02
-1.65779375e-07,-9.40625000e-05,1.52150000e-02
-1.65739375e-07,1.22500000e-04,1.51175000e-02
-1.65699375e-07,2.77812500e-04,1.50625000e-02
-1.65659375e-07,3.17187500e-04,1.50687500e-02
-1.65619375e-07,2.77812500e-04,1.51218750e-02
-1.65579375e-07,2.36250000e-04,1.51912500e-02
-1.65539375e-07,2.36250000e-04,1.52431250e-02
-1.65499375e-07,2.73437500e-04,1.52556250e-02
-1.65459375e-07,3.10625000e-04,1.52212500e-02
-1.65419375e-07,3.21562500e-04,1.51550000e-02
-1.65379375e-07,2.93125000e-04,1.50887500e-02
-1.65339375e-07,2.29687500e-04,1.50637500e-02
-1.65299375e-07,1.50937500e-04,1.51056250e-02
-1.65259375e-07,8.31250000e-05,1.52050000e-02
-1.65219375e-07,6.34375000e-05,1.53193750e-02
-1.65179375e-07,1.29062500e-04,1.53975000e-02
-1.65139375e-07,2.66875000e-04,1.54150000e-02
-1.65099375e-07,4.11250000e-04,1.53918750e-02
-1.65059375e-07,4.50625000e-04,1.53743750e-02
-1.65019375e-07,3.12812500e-04,1.53968750e-02
-1.64979375e-07,2.84375000e-05,1.54506250e-02
-1.64939375e-07,-2.53750000e-04,1.54906250e-02
-1.64899375e-07,-3.50000000e-04,1.54675000e-02
-1.64859375e-07,-1.55312500e-04,1.53737500e-02
-1.64819375e-07,2.60312500e-04,1.52506250e-02
-1.64779375e-07,6.97812500e-04,1.51656250e-02
-1.64739375e-07,9.29687500e-04,1.51693750e-02
-1.64699375e-07,8.59687500e-04,1.52600000e-02
-1.64659375e-07,5.62187500e-04,1.53906250e-02
-1.64619375e-07,2.38437500e-04,1.54950000e-02
-1.64579375e-07,7.65625000e-05,1.55243750e-02
-1.64539375e-07,1.48750000e-04,1.54718750e-02
-1.64499375e-07,3.76250000e-04,1.53681250e-02
-1.64459375e-07,6.08125000e-04,1.52656250e-02
-1.64419375e-07,7.15312500e-04,1.52056250e-02
-1.64379375e-07,6.54062500e-04,1.52025000e-02
-1.64339375e-07,4.79062500e-04,1.52337500e-02
-1.64299375e-07,2.90937500e-04,1.52606250e-02
-1.64259375e-07,1.81562500e-04,1.52531250e-02
-1.64219375e-07,1.96875000e-04,1.52131250e-02
-1.64179375e-07,3.23750000e-04,1.51743750e-02
-1.64139375e-07,5.00937500e-04,1.51775000e-02
-1.64099375e-07,6.45312500e-04,1.52362500e-02
-1.64059375e-07,6.75937500e-04,1.53206250e-02
-1.64019375e-07,5.68750000e-04,1.53781250e-02
-1.63979375e-07,3.67500000e-04,1.53700000e-02
-1.63939375e-07,1.75000000e-04,1.53075000e-02
-1.63899375e-07,9.84375000e-05,1.52468750e-02
-1.63859375e-07,1.83750000e-04,1.52456250e-02
-1.63819375e-07,3.85000000e-04,1.53218750e-02
-1.63779375e-07,5.88437500e-04,1.54368750e-02
-1.63739375e-07,6.78125000e-04,1.55268750e-02
-1.63699375e-07,6.19062500e-04,1.55518750e-02
-1.63659375e-07,4.63750000e-04,1.55206250e-02
-1.63619375e-07,3.10625000e-04,1.54800000e-02
-1.63579375e-07,2.34062500e-04,1.54675000e-02
-1.63539375e-07,2.40625000e-04,1.54812500e-02
-1.63499375e-07,2.77812500e-04,1.54800000e-02
-1.63459375e-07,2.95312500e-04,1.54287500e-02
-1.63419375e-07,2.82187500e-04,1.53312500e-02
-1.63379375e-07,2.60312500e-04,1.52375000e-02
-1.63339375e-07,2.58125000e-04,1.52062500e-02
-1.63299375e-07,2.75625000e-04,1.52568750e-02
-1.63259375e-07,2.86562500e-04,1.53481250e-02
-1.63219375e-07,2.77812500e-04,1.54056250e-02
-1.63179375e-07,2.62500000e-04,1.53787500e-02
-1.63139375e-07,2.66875000e-04,1.52781250e-02
-1.63099375e-07,2.90937500e-04,1.51725000e-02
-1.63059375e-07,3.04062500e-04,1.51375000e-02
-1.63019375e-07,2.77812500e-04,1.52025000e-02
-1.62979375e-07,2.31875000e-04,1.53293750e-02
-1.62939375e-07,2.47187500e-04,1.54425000e-02
-1.62899375e-07,3.91562500e-04,1.54875000e-02
-1.62859375e-07,6.32187500e-04,1.54643750e-02
-1.62819375e-07,8.05000000e-04,1.54200000e-02
-1.62779375e-07,7.13125000e-04,1.54031250e-02
-1.62739375e-07,2.80000000e-04,1.54281250e-02
-1.62699375e-07,-3.28125000e-04,1.54681250e-02
-1.62659375e-07,-7.74375000e-04,1.54856250e-02
-1.62619375e-07,-7.61250000e-04,1.54687500e-02
-1.62579375e-07,-2.66875000e-04,1.54375000e-02
-1.62539375e-07,4.17812500e-04,1.54187500e-02
-1.62499375e-07,8.59687500e-04,1.54218750e-02
-1.62459375e-07,7.89687500e-04,1.54300000e-02
-1.62419375e-07,2.95312500e-04,1.54256250e-02
-1.62379375e-07,-2.49375000e-04,1.54100000e-02
-1.62339375e-07,-4.63750000e-04,1.54037500e-02
-1.62299375e-07,-2.31875000e-04,1.54262500e-02
-1.62259375e-07,2.34062500e-04,1.54668750e-02
-1.62219375e-07,5.73125000e-04,1.54918750e-02
-1.62179375e-07,5.62187500e-04,1.54731250e-02
-1.62139375e-07,2.62500000e-04,1.54206250e-02
-1.62099375e-07,-6.78125000e-05,1.53800000e-02
-1.62059375e-07,-1.85937500e-04,1.53968750e-02
-1.62019375e-07,-4.37500000e-05,1.54787500e-02
-1.61979375e-07,2.10000000e-04,1.55831250e-02
-1.61939375e-07,3.89375000e-04,1.56493750e-02
-1.61899375e-07,4.15625000e-04,1.56437500e-02
-1.61859375e-07,3.43437500e-04,1.55818750e-02
-1.61819375e-07,2.71250000e-04,1.55137500e-02
-1.61779375e-07,2.31875000e-04,1.54800000e-02
-1.61739375e-07,1.92500000e-04,1.54837500e-02
-1.61699375e-07,1.22500000e-04,1.54937500e-02
-1.61659375e-07,6.56250000e-05,1.54731250e-02
-1.61619375e-07,1.26875000e-04,1.54137500e-02
-1.61579375e-07,3.60937500e-04,1.53387500e-02
-1.61539375e-07,6.82500000e-04,1.52887500e-02
-1.61499375e-07,9.03437500e-04,1.52937500e-02
-1.61459375e-07,8.68437500e-04,1.53512500e-02
-1.61419375e-07,5.79687500e-04,1.54343750e-02
-1.61379375e-07,2.27500000e-04,1.55000000e-02
-1.61339375e-07,4.37500000e-05,1.55150000e-02
-1.61299375e-07,1.35625000e-04,1.54700000e-02
-1.61259375e-07,4.11250000e-04,1.53856250e-02
-1.61219375e-07,6.47500000e-04,1.53050000e-02
-1.61179375e-07,6.89062500e-04,1.52775000e-02
-1.61139375e-07,5.51250000e-04,1.53281250e-02
-1.61099375e-07,4.09062500e-04,1.54375000e-02
-1.61059375e-07,4.39687500e-04,1.55437500e-02
-1.61019375e-07,6.60625000e-04,1.55743750e-02
-1.60979375e-07,9.12187500e-04,1.54906250e-02
-1.60939375e-07,9.73437500e-04,1.53181250e-02
-1.60899375e-07,7.32812500e-04,1.51362500e-02
-1.60859375e-07,2.84375000e-04,1.50368750e-02
-1.60819375e-07,-1.29062500e-04,1.50637500e-02
-1.60779375e-07,-2.86562500e-04,1.51881250e-02
-1.60739375e-07,-1.31250000e-04,1.53287500e-02
-1.60699375e-07,2.03437500e-04,1.54062500e-02
-1.60659375e-07,4.79062500e-04,1.53906250e-02
-1.60619375e-07,5.20625000e-04,1.53150000e-02
-1.60579375e-07,3.01875000e-04,1.52462500e-02
-1.60539375e-07,-4.15625000e-05,1.52356250e-02
-1.60499375e-07,-3.08437500e-04,1.52900000e-02
-1.60459375e-07,-3.54375000e-04,1.53725000e-02
-1.60419375e-07,-1.57500000e-04,1.54300000e-02
-1.60379375e-07,1.79375000e-04,1.54287500e-02
-1.60339375e-07,4.98750000e-04,1.53687500e-02
-1.60299375e-07,6.82500000e-04,1.52800000e-02
-1.60259375e-07,6.82500000e-04,1.52087500e-02
-1.60219375e-07,5.46875000e-04,1.51925000e-02
-1.60179375e-07,3.65312500e-04,1.52437500e-02
-1.60139375e-07,2.23125000e-04,1.53431250e-02
-1.60099375e-07,1.75000000e-04,1.54431250e-02
-1.60059375e-07,2.18750000e-04,1.54925000e-02
-1.60019375e-07,3.12812500e-04,1.54625000e-02
-1.59979375e-07,3.89375000e-04,1.53712500e-02
-1.59939375e-07,3.78437500e-04,1.52756250e-02
-1.59899375e-07,2.45000000e-04,1.52381250e-02
-1.59859375e-07,1.96875000e-05,1.52825000e-02
-1.59819375e-07,-2.01250000e-04,1.53768750e-02
-1.59779375e-07,-2.97500000e-04,1.54531250e-02
-1.59739375e-07,-1.94687500e-04,1.54562500e-02
-1.59699375e-07,6.34375000e-05,1.53850000e-02
-1.59659375e-07,3.19375000e-04,1.52950000e-02
-1.59619375e-07,3.95937500e-04,1.52531250e-02
-1.59579375e-07,2.12187500e-04,1.52812500e-02
-1.59539375e-07,-1.35625000e-04,1.53393750e-02
-1.59499375e-07,-4.13437500e-04,1.53575000e-02
-1.59459375e-07,-3.91562500e-04,1.52993750e-02
-1.59419375e-07,-1.53125000e-05,1.51975000e-02
